v 20121123 2
C 55100 48200 1 0 1 EMBEDDEDout-1.sym
[
P 55100 48300 54900 48300 1 0 0
{
T 54950 48350 5 6 0 1 0 6 1
pinnumber=1
T 54950 48350 5 6 0 0 0 6 1
pinseq=1
}
L 54900 48300 54500 48300 6 0 0 0 -1 -1
L 54500 48300 54600 48400 6 0 0 0 -1 -1
L 54500 48300 54600 48200 6 0 0 0 -1 -1
T 55100 48500 5 10 0 0 0 6 1
device=OUTPUT
T 55100 48500 8 10 0 1 0 6 1
refdes=pinlabel
]
{
T 55100 48500 5 10 0 0 0 6 1
device=INPUT
T 54450 48300 5 10 1 1 0 7 1
value=LINK
T 55100 48200 5 10 0 1 0 6 1
footprint=none
T 55100 48200 5 10 0 0 0 6 1
net=LINK:1
}
C 55100 47800 1 0 1 EMBEDDEDout-1.sym
[
P 55100 47900 54900 47900 1 0 0
{
T 54950 47950 5 6 0 1 0 6 1
pinnumber=1
T 54950 47950 5 6 0 0 0 6 1
pinseq=1
}
L 54900 47900 54500 47900 6 0 0 0 -1 -1
L 54500 47900 54600 48000 6 0 0 0 -1 -1
L 54500 47900 54600 47800 6 0 0 0 -1 -1
T 55100 48100 5 10 0 0 0 6 1
device=OUTPUT
T 55100 48100 8 10 0 1 0 6 1
refdes=pinlabel
]
{
T 55100 48100 5 10 0 0 0 6 1
device=OUTPUT
T 54450 47900 5 10 1 1 0 7 1
value=SPD
T 55100 47800 5 10 0 1 0 6 1
footprint=none
T 55100 47800 5 10 0 0 0 6 1
net=SPD:1
}
C 52800 42700 1 0 0 EMBEDDEDhole.sym
[
V 53300 43200 300 3 0 0 0 -1 -1 0 -1 -1 -1 -1 -1
V 53300 43200 200 3 0 0 0 -1 -1 0 -1 -1 -1 -1 -1
L 53300 43600 53300 42800 3 0 0 0 -1 -1
L 52900 43200 53700 43200 3 0 0 0 -1 -1
T 53600 43600 8 10 0 1 0 0 1
footprint=HOLE-3mm3
T 52900 43500 8 10 0 1 0 0 1
refdes=H?
T 53500 43500 8 10 0 1 0 0 1
value=3.3mm
]
{
T 53600 43600 5 10 0 1 0 0 1
footprint=HOLE-3mm3
T 52900 43500 5 10 1 1 0 0 1
refdes=H1
T 53500 43500 5 10 1 1 0 0 1
value=3.3mm
}
C 54200 42700 1 0 0 EMBEDDEDhole.sym
[
V 54700 43200 300 3 0 0 0 -1 -1 0 -1 -1 -1 -1 -1
V 54700 43200 200 3 0 0 0 -1 -1 0 -1 -1 -1 -1 -1
L 54700 43600 54700 42800 3 0 0 0 -1 -1
L 54300 43200 55100 43200 3 0 0 0 -1 -1
T 55000 43600 8 10 0 1 0 0 1
footprint=HOLE-3mm3
T 54300 43500 8 10 0 1 0 0 1
refdes=H?
T 54900 43500 8 10 0 1 0 0 1
value=3.3mm
]
{
T 55000 43600 5 10 0 1 0 0 1
footprint=HOLE-3mm3
T 54300 43500 5 10 1 1 0 0 1
refdes=H2
T 54900 43500 5 10 1 1 0 0 1
value=3.3mm
}
C 52800 41600 1 0 0 EMBEDDEDhole.sym
[
V 53300 42100 300 3 0 0 0 -1 -1 0 -1 -1 -1 -1 -1
V 53300 42100 200 3 0 0 0 -1 -1 0 -1 -1 -1 -1 -1
L 53300 42500 53300 41700 3 0 0 0 -1 -1
L 52900 42100 53700 42100 3 0 0 0 -1 -1
T 53600 42500 8 10 0 1 0 0 1
footprint=HOLE-3mm3
T 52900 42400 8 10 0 1 0 0 1
refdes=H?
T 53500 42400 8 10 0 1 0 0 1
value=3.3mm
]
{
T 53600 42500 5 10 0 1 0 0 1
footprint=HOLE-3mm3
T 52900 42400 5 10 1 1 0 0 1
refdes=H3
T 53500 42400 5 10 1 1 0 0 1
value=3.3mm
}
C 43100 44500 1 0 1 EMBEDDEDled-2.sym
[
T 42300 44800 8 10 0 1 0 6 1
refdes=D?
T 43000 45100 8 10 0 0 0 6 1
device=LED
P 43100 44600 42900 44600 1 0 0
{
T 43000 44650 5 8 0 1 0 6 1
pinnumber=2
T 43000 44650 5 8 0 0 0 6 1
pinseq=2
T 43000 44650 5 8 0 1 0 6 1
pinlabel=2
T 43000 44650 5 8 0 1 0 6 1
pintype=pas
}
P 42200 44600 42400 44600 1 0 0
{
T 42400 44650 5 8 0 1 0 6 1
pinnumber=1
T 42400 44650 5 8 0 0 0 6 1
pinseq=1
T 42400 44650 5 8 0 1 0 6 1
pinlabel=1
T 42400 44650 5 8 0 1 0 6 1
pintype=pas
}
L 42700 44700 42600 44600 3 0 0 0 -1 -1
L 42600 44600 42700 44500 3 0 0 0 -1 -1
L 42700 44700 42700 44500 3 0 0 0 -1 -1
L 42600 44700 42600 44500 3 0 0 0 -1 -1
L 42600 44600 42400 44600 3 0 0 0 -1 -1
L 42700 44600 42900 44600 3 0 0 0 -1 -1
L 42670 44740 42570 44840 3 0 0 0 -1 -1
L 42570 44840 42620 44810 3 0 0 0 -1 -1
L 42570 44840 42600 44790 3 0 0 0 -1 -1
L 42600 44740 42500 44840 3 0 0 0 -1 -1
L 42500 44840 42550 44810 3 0 0 0 -1 -1
L 42500 44840 42530 44790 3 0 0 0 -1 -1
]
{
T 42400 44700 5 10 1 1 0 6 1
refdes=D1
T 43000 45100 5 10 0 0 0 6 1
device=LED
T 42000 44900 5 10 1 1 0 0 1
value=LTST-C191KSKT
T 43100 44500 5 10 0 0 0 0 1
footprint=0603_POL_BS_1
}
N 43100 44600 43300 44600 4
N 44200 44600 44600 44600 4
N 44600 42800 44600 45000 4
C 44400 45000 1 0 0 EMBEDDEDvcc-1.sym
[
P 44600 45000 44600 45200 1 0 0
{
T 44650 45050 5 6 0 1 0 0 1
pintype=pwr
T 44650 45050 5 6 0 1 0 0 1
pinlabel=1
T 44650 45050 5 6 0 0 0 0 1
pinseq=1
T 44650 45050 5 6 0 1 0 0 1
pinnumber=1
}
L 44450 45200 44750 45200 3 0 0 0 -1 -1
T 44475 45250 9 8 1 0 0 0 1
Vcc
T 44850 45200 8 10 0 0 0 0 1
net=Vcc:1
]
C 43100 42700 1 0 1 EMBEDDEDled-2.sym
[
T 42300 43000 8 10 0 1 0 6 1
refdes=D?
T 43000 43300 8 10 0 0 0 6 1
device=LED
P 43100 42800 42900 42800 1 0 0
{
T 43000 42850 5 8 0 1 0 6 1
pinnumber=2
T 43000 42850 5 8 0 0 0 6 1
pinseq=2
T 43000 42850 5 8 0 1 0 6 1
pinlabel=2
T 43000 42850 5 8 0 1 0 6 1
pintype=pas
}
P 42200 42800 42400 42800 1 0 0
{
T 42400 42850 5 8 0 1 0 6 1
pinnumber=1
T 42400 42850 5 8 0 0 0 6 1
pinseq=1
T 42400 42850 5 8 0 1 0 6 1
pinlabel=1
T 42400 42850 5 8 0 1 0 6 1
pintype=pas
}
L 42700 42900 42600 42800 3 0 0 0 -1 -1
L 42600 42800 42700 42700 3 0 0 0 -1 -1
L 42700 42900 42700 42700 3 0 0 0 -1 -1
L 42600 42900 42600 42700 3 0 0 0 -1 -1
L 42600 42800 42400 42800 3 0 0 0 -1 -1
L 42700 42800 42900 42800 3 0 0 0 -1 -1
L 42670 42940 42570 43040 3 0 0 0 -1 -1
L 42570 43040 42620 43010 3 0 0 0 -1 -1
L 42570 43040 42600 42990 3 0 0 0 -1 -1
L 42600 42940 42500 43040 3 0 0 0 -1 -1
L 42500 43040 42550 43010 3 0 0 0 -1 -1
L 42500 43040 42530 42990 3 0 0 0 -1 -1
]
{
T 42400 42900 5 10 1 1 0 6 1
refdes=D4
T 43000 43300 5 10 0 0 0 6 1
device=LED
T 42100 43100 5 10 1 1 0 0 1
value=LTST-C190KGKT
T 43100 42700 5 10 0 0 0 0 1
footprint=0603_POL_BS_1
}
N 42200 44000 42100 44000 4
N 43100 44000 43300 44000 4
N 44200 44000 44600 44000 4
T 49900 40100 9 10 1 0 0 0 1
1
T 51400 40100 9 10 1 0 0 0 1
1
T 50200 40900 9 20 1 0 0 0 1
504 Segment Clock Sensors
T 53700 40400 9 10 1 0 0 0 1
20130705
T 53700 40100 9 10 1 0 0 0 1
Vagrearg
N 43200 41800 43400 41800 4
T 44700 42800 9 10 1 0 0 0 1
Green
T 44700 44600 9 10 1 0 0 0 1
Yellow
N 42200 44600 42100 44600 4
N 43100 42800 43300 42800 4
N 44200 42800 44600 42800 4
N 42200 42800 42100 42800 4
T 49900 40400 9 10 1 0 0 0 1
CC-BY-SA-3.0
N 55300 48300 55100 48300 4
N 55100 47900 55300 47900 4
C 54200 41600 1 0 0 EMBEDDEDhole.sym
[
T 54900 42400 8 10 0 1 0 0 1
value=3.3mm
T 54300 42400 8 10 0 1 0 0 1
refdes=H?
T 55000 42500 8 10 0 1 0 0 1
footprint=HOLE-3mm3
L 54300 42100 55100 42100 3 0 0 0 -1 -1
L 54700 42500 54700 41700 3 0 0 0 -1 -1
V 54700 42100 200 3 0 0 0 -1 -1 0 -1 -1 -1 -1 -1
V 54700 42100 300 3 0 0 0 -1 -1 0 -1 -1 -1 -1 -1
]
{
T 55000 42500 5 10 0 1 0 0 1
footprint=HOLE-3mm3
T 54300 42400 5 10 1 1 0 0 1
refdes=H4
T 54900 42400 5 10 1 1 0 0 1
value=3.3mm
}
C 42900 47000 1 90 0 EMBEDDEDcapacitor-1.sym
[
T 42000 47200 5 10 0 0 90 0 1
symversion=0.1
T 41800 47200 5 10 0 0 90 0 1
numslots=0
T 41600 47200 5 10 0 0 90 0 1
description=capacitor
T 42400 47200 8 10 0 1 90 0 1
refdes=C?
T 42200 47200 5 10 0 0 90 0 1
device=CAPACITOR
L 42700 47400 42700 47200 3 0 0 0 -1 -1
L 42700 47700 42700 47500 3 0 0 0 -1 -1
L 42500 47500 42900 47500 3 0 0 0 -1 -1
L 42500 47400 42900 47400 3 0 0 0 -1 -1
P 42700 47900 42700 47700 1 0 0
{
T 42650 47750 5 8 0 1 90 0 1
pinnumber=2
T 42750 47750 5 8 0 1 90 2 1
pinseq=2
T 42700 47700 9 8 0 1 90 6 1
pinlabel=2
T 42700 47700 5 8 0 1 90 8 1
pintype=pas
}
P 42700 47000 42700 47200 1 0 0
{
T 42650 47150 5 8 0 1 90 6 1
pinnumber=1
T 42750 47150 5 8 0 1 90 8 1
pinseq=1
T 42700 47200 9 8 0 1 90 0 1
pinlabel=1
T 42700 47200 5 8 0 1 90 2 1
pintype=pas
}
]
{
T 42200 47200 5 10 0 0 90 0 1
device=CAPACITOR
T 42650 47550 5 10 1 1 90 0 1
refdes=C3
T 42000 47200 5 10 0 0 90 0 1
symversion=0.1
T 42800 47100 5 10 0 1 0 0 1
footprint=0603_BS_1
T 42650 47350 5 10 1 1 90 6 1
value=100n
}
C 40300 47700 1 0 0 EMBEDDEDpir-1.sym
[
L 41050 48050 40950 48050 3 0 0 0 -1 -1
L 40700 48100 40500 48100 3 0 0 0 -1 -1
L 40700 48200 40500 48200 3 0 0 0 -1 -1
L 40700 48300 40500 48300 3 0 0 0 -1 -1
T 40300 48850 8 10 0 1 0 0 1
value=IRA-E700ST0
L 40600 47900 40600 48000 3 0 0 0 -1 -1
L 41100 48400 41200 48500 3 0 0 0 -1 -1
L 41100 48600 41200 48500 3 0 0 0 -1 -1
L 40600 47900 41300 47900 3 0 0 0 -1 -1
L 41000 47900 41000 48050 3 0 0 0 -1 -1
L 41050 48050 41050 48350 3 0 0 0 -1 -1
L 40950 48050 40950 48350 3 0 0 0 -1 -1
L 40950 48350 41050 48350 3 0 0 0 -1 -1
L 41000 48350 41000 48500 3 0 0 0 -1 -1
B 40500 48000 200 400 3 0 0 0 -1 -1 0 -1 -1 -1 -1 -1
L 40600 48400 40600 48500 3 0 0 0 -1 -1
L 41200 48400 41300 48400 3 0 0 0 -1 -1
B 40300 47700 1000 1100 3 0 0 0 -1 -1 0 -1 -1 -1 -1 -1
T 40300 49050 8 10 0 1 0 0 1
refdes=Q?
L 40600 48500 41200 48500 3 0 0 0 -1 -1
L 41200 48600 41300 48600 3 0 0 0 -1 -1
P 41300 48400 41500 48400 1 0 1
{
T 41395 48445 5 6 1 1 0 0 1
pinnumber=2
T 41750 48350 5 6 0 0 180 0 1
pinseq=2
T 41245 48395 5 6 0 1 0 6 1
pinlabel=S
T 41900 48400 5 6 0 0 180 0 1
pintype=pas
}
P 41500 47900 41300 47900 1 0 0
{
T 41395 47945 5 6 1 1 0 0 1
pinnumber=3
T 41300 47750 5 6 0 0 0 0 1
pinseq=3
T 41245 47895 5 6 0 1 0 6 1
pinlabel=GND
T 41300 47800 5 6 0 0 0 0 1
pintype=pas
}
P 41500 48600 41300 48600 1 0 0
{
T 41395 48645 5 6 1 1 0 0 1
pinnumber=1
T 41750 48600 5 6 0 0 180 0 1
pinseq=1
T 41245 48595 5 6 0 1 0 6 1
pinlabel=D
T 41900 48550 5 6 0 0 180 0 1
pintype=pas
}
T 40300 49300 5 10 0 0 0 0 1
device=PIR_SENSOR
L 41200 48700 41200 48300 3 0 0 0 -1 -1
]
{
T 40300 49300 5 10 0 0 0 0 1
device=PIR_SENSOR
T 40300 49050 5 10 1 1 0 0 1
refdes=Q1
T 40300 48850 5 10 1 1 0 0 1
value=IRA-E700ST0
T 40300 47700 5 10 0 0 0 0 1
footprint=TO39
}
C 42300 47000 1 90 0 EMBEDDEDresistor-2.sym
[
T 42000 47200 8 10 0 1 90 0 1
refdes=R?
T 41950 47400 5 10 0 0 90 0 1
device=RESISTOR
B 42100 47150 200 600 3 0 0 0 -1 -1 0 -1 -1 -1 -1 -1
P 42200 47000 42200 47152 1 0 0
{
T 42150 47100 5 8 0 1 90 0 1
pintype=pas
T 42150 47100 5 8 0 1 90 0 1
pinlabel=1
T 42150 47100 5 8 0 0 90 0 1
pinseq=1
T 42150 47100 5 8 0 1 90 0 1
pinnumber=1
}
P 42200 47900 42200 47750 1 0 0
{
T 42150 47800 5 8 0 1 90 0 1
pintype=pas
T 42150 47800 5 8 0 1 90 0 1
pinlabel=2
T 42150 47800 5 8 0 0 90 0 1
pinseq=2
T 42150 47800 5 8 0 1 90 0 1
pinnumber=2
}
]
{
T 41950 47400 5 10 0 0 90 0 1
device=RESISTOR
T 42050 47400 5 10 1 1 90 6 1
refdes=R8
T 42300 47000 5 10 0 0 90 0 1
footprint=0603_BS_1
T 42050 47500 5 10 1 1 90 0 1
value=47k
}
C 41800 50000 1 90 0 EMBEDDEDcapacitor-1.sym
[
T 41100 50200 5 10 0 0 90 0 1
device=CAPACITOR
T 41300 50200 8 10 0 1 90 0 1
refdes=C?
T 40500 50200 5 10 0 0 90 0 1
description=capacitor
T 40700 50200 5 10 0 0 90 0 1
numslots=0
T 40900 50200 5 10 0 0 90 0 1
symversion=0.1
P 41600 50000 41600 50200 1 0 0
{
T 41600 50200 5 8 0 1 90 2 1
pintype=pas
T 41600 50200 9 8 0 1 90 0 1
pinlabel=1
T 41650 50150 5 8 0 1 90 8 1
pinseq=1
T 41550 50150 5 8 0 1 90 6 1
pinnumber=1
}
P 41600 50900 41600 50700 1 0 0
{
T 41600 50700 5 8 0 1 90 8 1
pintype=pas
T 41600 50700 9 8 0 1 90 6 1
pinlabel=2
T 41650 50750 5 8 0 1 90 2 1
pinseq=2
T 41550 50750 5 8 0 1 90 0 1
pinnumber=2
}
L 41400 50400 41800 50400 3 0 0 0 -1 -1
L 41400 50500 41800 50500 3 0 0 0 -1 -1
L 41600 50700 41600 50500 3 0 0 0 -1 -1
L 41600 50400 41600 50200 3 0 0 0 -1 -1
]
{
T 41100 50200 5 10 0 0 90 0 1
device=CAPACITOR
T 41550 50550 5 10 1 1 90 0 1
refdes=C2
T 40900 50200 5 10 0 0 90 0 1
symversion=0.1
T 41700 50100 5 10 0 1 0 0 1
footprint=0603_BS_1
T 41550 50350 5 10 1 1 90 6 1
value=100n
}
C 42100 50900 1 0 0 EMBEDDEDresistor-2.sym
[
T 42300 51200 8 10 0 1 0 0 1
refdes=R?
T 42500 51250 5 10 0 0 0 0 1
device=RESISTOR
B 42250 50900 600 200 3 0 0 0 -1 -1 0 -1 -1 -1 -1 -1
P 42100 51000 42252 51000 1 0 0
{
T 42200 51050 5 8 0 1 0 0 1
pintype=pas
T 42200 51050 5 8 0 1 0 0 1
pinlabel=1
T 42200 51050 5 8 0 0 0 0 1
pinseq=1
T 42200 51050 5 8 0 1 0 0 1
pinnumber=1
}
P 43000 51000 42850 51000 1 0 0
{
T 42900 51050 5 8 0 1 0 0 1
pintype=pas
T 42900 51050 5 8 0 1 0 0 1
pinlabel=2
T 42900 51050 5 8 0 0 0 0 1
pinseq=2
T 42900 51050 5 8 0 1 0 0 1
pinnumber=2
}
]
{
T 42500 51250 5 10 0 0 0 0 1
device=RESISTOR
T 42500 51150 5 10 1 1 0 6 1
refdes=R7
T 42100 50900 5 10 0 0 0 0 1
footprint=0603_BS_1
T 42600 51150 5 10 1 1 0 0 1
value=1k
}
N 42100 51000 41000 51000 4
N 41000 51000 41000 50900 4
N 41600 50900 41600 51000 4
N 41500 48600 41900 48600 4
N 41900 48600 41900 51000 4
N 41000 50000 41000 49800 4
N 41000 49900 41600 49900 4
N 41600 49900 41600 50000 4
N 41500 47900 41600 47900 4
N 41600 47900 41600 46400 4
N 41600 46400 47700 46400 4
N 41500 48400 42700 48400 4
N 42200 48400 42200 47900 4
N 42700 47900 42700 50100 4
N 42200 47000 42200 46400 4
N 42700 47000 42700 46400 4
C 44400 48800 1 0 0 EMBEDDEDresistor-2.sym
[
B 44550 48800 600 200 3 0 0 0 -1 -1 0 -1 -1 -1 -1 -1
P 44400 48900 44552 48900 1 0 0
{
T 44500 48950 5 8 0 1 0 0 1
pinnumber=1
T 44500 48950 5 8 0 0 0 0 1
pinseq=1
T 44500 48950 5 8 0 1 0 0 1
pinlabel=1
T 44500 48950 5 8 0 1 0 0 1
pintype=pas
}
P 45300 48900 45150 48900 1 0 0
{
T 45200 48950 5 8 0 1 0 0 1
pinnumber=2
T 45200 48950 5 8 0 0 0 0 1
pinseq=2
T 45200 48950 5 8 0 1 0 0 1
pinlabel=2
T 45200 48950 5 8 0 1 0 0 1
pintype=pas
}
T 44600 49100 8 10 0 1 0 0 1
refdes=R?
T 44800 49150 5 10 0 0 0 0 1
device=RESISTOR
]
{
T 44800 49150 5 10 0 0 0 0 1
device=RESISTOR
T 44800 49050 5 10 1 1 0 6 1
refdes=R11
T 44400 48800 5 10 0 0 0 0 1
footprint=0603_BS_1
T 44900 49050 5 10 1 1 0 0 1
value=1M
}
C 44400 48300 1 0 0 EMBEDDEDcapacitor-1.sym
[
P 44400 48500 44600 48500 1 0 0
{
T 44550 48550 5 8 0 1 0 6 1
pinnumber=1
T 44550 48450 5 8 0 1 0 8 1
pinseq=1
T 44600 48500 9 8 0 1 0 0 1
pinlabel=1
T 44600 48500 5 8 0 1 0 2 1
pintype=pas
}
P 45300 48500 45100 48500 1 0 0
{
T 45150 48550 5 8 0 1 0 0 1
pinnumber=2
T 45150 48450 5 8 0 1 0 2 1
pinseq=2
T 45100 48500 9 8 0 1 0 6 1
pinlabel=2
T 45100 48500 5 8 0 1 0 8 1
pintype=pas
}
L 44800 48700 44800 48300 3 0 0 0 -1 -1
L 44900 48700 44900 48300 3 0 0 0 -1 -1
L 45100 48500 44900 48500 3 0 0 0 -1 -1
L 44800 48500 44600 48500 3 0 0 0 -1 -1
T 44600 49000 5 10 0 0 0 0 1
device=CAPACITOR
T 44600 48800 8 10 0 1 0 0 1
refdes=C?
T 44600 49600 5 10 0 0 0 0 1
description=capacitor
T 44600 49400 5 10 0 0 0 0 1
numslots=0
T 44600 49200 5 10 0 0 0 0 1
symversion=0.1
]
{
T 44600 49000 5 10 0 0 0 0 1
device=CAPACITOR
T 44950 48550 5 10 1 1 0 0 1
refdes=C6
T 44600 49200 5 10 0 0 0 0 1
symversion=0.1
T 44500 48400 5 10 0 1 270 0 1
footprint=0603_BS_1
T 44750 48550 5 10 1 1 0 6 1
value=10n
}
C 42800 50000 1 0 0 EMBEDDEDresistor-2.sym
[
B 42950 50000 600 200 3 0 0 0 -1 -1 0 -1 -1 -1 -1 -1
P 42800 50100 42952 50100 1 0 0
{
T 42900 50150 5 8 0 1 0 0 1
pinnumber=1
T 42900 50150 5 8 0 0 0 0 1
pinseq=1
T 42900 50150 5 8 0 1 0 0 1
pinlabel=1
T 42900 50150 5 8 0 1 0 0 1
pintype=pas
}
P 43700 50100 43550 50100 1 0 0
{
T 43600 50150 5 8 0 1 0 0 1
pinnumber=2
T 43600 50150 5 8 0 0 0 0 1
pinseq=2
T 43600 50150 5 8 0 1 0 0 1
pinlabel=2
T 43600 50150 5 8 0 1 0 0 1
pintype=pas
}
T 43000 50300 8 10 0 1 0 0 1
refdes=R?
T 43200 50350 5 10 0 0 0 0 1
device=RESISTOR
]
{
T 43200 50350 5 10 0 0 0 0 1
device=RESISTOR
T 43200 50250 5 10 1 1 0 6 1
refdes=R9
T 42800 50000 5 10 0 0 0 0 1
footprint=0603_BS_1
T 43300 50250 5 10 1 1 0 0 1
value=18k
}
C 44000 49100 1 90 0 EMBEDDEDcapacitor-1.sym
[
L 43800 49500 43800 49300 3 0 0 0 -1 -1
L 43800 49800 43800 49600 3 0 0 0 -1 -1
L 43600 49600 44000 49600 3 0 0 0 -1 -1
L 43600 49500 44000 49500 3 0 0 0 -1 -1
P 43800 50000 43800 49800 1 0 0
{
T 43800 49800 5 8 0 1 90 8 1
pintype=pas
T 43800 49800 9 8 0 1 90 6 1
pinlabel=2
T 43850 49850 5 8 0 1 90 2 1
pinseq=2
T 43750 49850 5 8 0 1 90 0 1
pinnumber=2
}
P 43800 49100 43800 49300 1 0 0
{
T 43800 49300 5 8 0 1 90 2 1
pintype=pas
T 43800 49300 9 8 0 1 90 0 1
pinlabel=1
T 43850 49250 5 8 0 1 90 8 1
pinseq=1
T 43750 49250 5 8 0 1 90 6 1
pinnumber=1
}
T 43100 49300 5 10 0 0 90 0 1
symversion=0.1
T 42900 49300 5 10 0 0 90 0 1
numslots=0
T 42700 49300 5 10 0 0 90 0 1
description=capacitor
T 43500 49300 8 10 0 1 90 0 1
refdes=C?
T 43300 49300 5 10 0 0 90 0 1
device=CAPACITOR
]
{
T 43300 49300 5 10 0 0 90 0 1
device=CAPACITOR
T 43750 49650 5 10 1 1 90 0 1
refdes=C4
T 43100 49300 5 10 0 0 90 0 1
symversion=0.1
T 43900 49200 5 10 0 1 0 0 1
footprint=0603_BS_1
T 43750 49450 5 10 1 1 90 6 1
value=10n
}
N 44400 49700 44200 49700 4
N 44200 48400 44200 49700 4
N 44200 48500 44400 48500 4
N 44400 48900 44200 48900 4
N 44200 46500 44200 46400 4
N 44200 47400 44200 47500 4
N 43700 50100 44400 50100 4
N 43800 50100 43800 50000 4
N 43800 49100 43800 49000 4
N 43800 49000 44200 49000 4
N 45400 49900 45500 49900 4
N 45500 48500 45500 49900 4
N 45500 48500 45300 48500 4
N 45300 48900 45500 48900 4
C 47300 46700 1 90 0 EMBEDDEDcapacitor-1.sym
[
L 47100 47100 47100 46900 3 0 0 0 -1 -1
L 47100 47400 47100 47200 3 0 0 0 -1 -1
L 46900 47200 47300 47200 3 0 0 0 -1 -1
L 46900 47100 47300 47100 3 0 0 0 -1 -1
P 47100 47600 47100 47400 1 0 0
{
T 47100 47400 5 8 0 1 90 8 1
pintype=pas
T 47100 47400 9 8 0 1 90 6 1
pinlabel=2
T 47150 47450 5 8 0 1 90 2 1
pinseq=2
T 47050 47450 5 8 0 1 90 0 1
pinnumber=2
}
P 47100 46700 47100 46900 1 0 0
{
T 47100 46900 5 8 0 1 90 2 1
pintype=pas
T 47100 46900 9 8 0 1 90 0 1
pinlabel=1
T 47150 46850 5 8 0 1 90 8 1
pinseq=1
T 47050 46850 5 8 0 1 90 6 1
pinnumber=1
}
T 46400 46900 5 10 0 0 90 0 1
symversion=0.1
T 46200 46900 5 10 0 0 90 0 1
numslots=0
T 46000 46900 5 10 0 0 90 0 1
description=capacitor
T 46800 46900 8 10 0 1 90 0 1
refdes=C?
T 46600 46900 5 10 0 0 90 0 1
device=CAPACITOR
]
{
T 46600 46900 5 10 0 0 90 0 1
device=CAPACITOR
T 47050 47250 5 10 1 1 90 0 1
refdes=C10
T 46400 46900 5 10 0 0 90 0 1
symversion=0.1
T 47200 46800 5 10 0 1 0 0 1
footprint=0603_BS_1
T 47050 47050 5 10 1 1 90 6 1
value=10n
}
C 44300 47500 1 90 0 EMBEDDEDresistor-2.sym
[
B 44100 47650 200 600 3 0 0 0 -1 -1 0 -1 -1 -1 -1 -1
P 44200 47500 44200 47652 1 0 0
{
T 44150 47600 5 8 0 1 90 0 1
pinnumber=1
T 44150 47600 5 8 0 0 90 0 1
pinseq=1
T 44150 47600 5 8 0 1 90 0 1
pinlabel=1
T 44150 47600 5 8 0 1 90 0 1
pintype=pas
}
P 44200 48400 44200 48250 1 0 0
{
T 44150 48300 5 8 0 1 90 0 1
pinnumber=2
T 44150 48300 5 8 0 0 90 0 1
pinseq=2
T 44150 48300 5 8 0 1 90 0 1
pinlabel=2
T 44150 48300 5 8 0 1 90 0 1
pintype=pas
}
T 44000 47700 8 10 0 1 90 0 1
refdes=R?
T 43950 47900 5 10 0 0 90 0 1
device=RESISTOR
]
{
T 43950 47900 5 10 0 0 90 0 1
device=RESISTOR
T 44050 47900 5 10 1 1 90 6 1
refdes=R10
T 44300 47500 5 10 0 0 90 0 1
footprint=0603_BS_1
T 44050 48000 5 10 1 1 90 0 1
value=47k
}
N 42800 50100 42700 50100 4
N 43000 51000 47700 51000 4
C 48100 48300 1 0 0 EMBEDDEDresistor-2.sym
[
P 49000 48400 48850 48400 1 0 0
{
T 48900 48450 5 8 0 1 0 0 1
pintype=pas
T 48900 48450 5 8 0 1 0 0 1
pinlabel=2
T 48900 48450 5 8 0 0 0 0 1
pinseq=2
T 48900 48450 5 8 0 1 0 0 1
pinnumber=2
}
P 48100 48400 48252 48400 1 0 0
{
T 48200 48450 5 8 0 1 0 0 1
pintype=pas
T 48200 48450 5 8 0 1 0 0 1
pinlabel=1
T 48200 48450 5 8 0 0 0 0 1
pinseq=1
T 48200 48450 5 8 0 1 0 0 1
pinnumber=1
}
B 48250 48300 600 200 3 0 0 0 -1 -1 0 -1 -1 -1 -1 -1
T 48500 48650 5 10 0 0 0 0 1
device=RESISTOR
T 48300 48600 8 10 0 1 0 0 1
refdes=R?
]
{
T 48500 48650 5 10 0 0 0 0 1
device=RESISTOR
T 48500 48550 5 10 1 1 0 6 1
refdes=R15
T 48100 48300 5 10 0 0 0 0 1
footprint=0603_BS_1
T 48600 48550 5 10 1 1 0 0 1
value=2M7
}
C 48100 47800 1 0 0 EMBEDDEDcapacitor-1.sym
[
L 48500 48000 48300 48000 3 0 0 0 -1 -1
L 48800 48000 48600 48000 3 0 0 0 -1 -1
L 48600 48200 48600 47800 3 0 0 0 -1 -1
L 48500 48200 48500 47800 3 0 0 0 -1 -1
P 49000 48000 48800 48000 1 0 0
{
T 48800 48000 5 8 0 1 0 8 1
pintype=pas
T 48800 48000 9 8 0 1 0 6 1
pinlabel=2
T 48850 47950 5 8 0 1 0 2 1
pinseq=2
T 48850 48050 5 8 0 1 0 0 1
pinnumber=2
}
P 48100 48000 48300 48000 1 0 0
{
T 48300 48000 5 8 0 1 0 2 1
pintype=pas
T 48300 48000 9 8 0 1 0 0 1
pinlabel=1
T 48250 47950 5 8 0 1 0 8 1
pinseq=1
T 48250 48050 5 8 0 1 0 6 1
pinnumber=1
}
T 48300 48700 5 10 0 0 0 0 1
symversion=0.1
T 48300 48900 5 10 0 0 0 0 1
numslots=0
T 48300 49100 5 10 0 0 0 0 1
description=capacitor
T 48300 48300 8 10 0 1 0 0 1
refdes=C?
T 48300 48500 5 10 0 0 0 0 1
device=CAPACITOR
]
{
T 48300 48500 5 10 0 0 0 0 1
device=CAPACITOR
T 48650 48050 5 10 1 1 0 0 1
refdes=C11
T 48300 48700 5 10 0 0 0 0 1
symversion=0.1
T 48200 47900 5 10 0 1 270 0 1
footprint=0603_BS_1
T 48450 48050 5 10 1 1 0 6 1
value=10n
}
C 47800 49800 1 90 0 EMBEDDEDresistor-2.sym
[
P 47700 50700 47700 50550 1 0 0
{
T 47650 50600 5 8 0 1 90 0 1
pintype=pas
T 47650 50600 5 8 0 1 90 0 1
pinlabel=2
T 47650 50600 5 8 0 0 90 0 1
pinseq=2
T 47650 50600 5 8 0 1 90 0 1
pinnumber=2
}
P 47700 49800 47700 49952 1 0 0
{
T 47650 49900 5 8 0 1 90 0 1
pintype=pas
T 47650 49900 5 8 0 1 90 0 1
pinlabel=1
T 47650 49900 5 8 0 0 90 0 1
pinseq=1
T 47650 49900 5 8 0 1 90 0 1
pinnumber=1
}
B 47600 49950 200 600 3 0 0 0 -1 -1 0 -1 -1 -1 -1 -1
T 47450 50200 5 10 0 0 90 0 1
device=RESISTOR
T 47500 50000 8 10 0 1 90 0 1
refdes=R?
]
{
T 47450 50200 5 10 0 0 90 0 1
device=RESISTOR
T 47550 50200 5 10 1 1 90 6 1
refdes=R13
T 47800 49800 5 10 0 0 90 0 1
footprint=0603_BS_1
T 47550 50300 5 10 1 1 90 0 1
value=150k
}
C 47800 46700 1 90 0 EMBEDDEDresistor-2.sym
[
P 47700 47600 47700 47450 1 0 0
{
T 47650 47500 5 8 0 1 90 0 1
pintype=pas
T 47650 47500 5 8 0 1 90 0 1
pinlabel=2
T 47650 47500 5 8 0 0 90 0 1
pinseq=2
T 47650 47500 5 8 0 1 90 0 1
pinnumber=2
}
P 47700 46700 47700 46852 1 0 0
{
T 47650 46800 5 8 0 1 90 0 1
pintype=pas
T 47650 46800 5 8 0 1 90 0 1
pinlabel=1
T 47650 46800 5 8 0 0 90 0 1
pinseq=1
T 47650 46800 5 8 0 1 90 0 1
pinnumber=1
}
B 47600 46850 200 600 3 0 0 0 -1 -1 0 -1 -1 -1 -1 -1
T 47450 47100 5 10 0 0 90 0 1
device=RESISTOR
T 47500 46900 8 10 0 1 90 0 1
refdes=R?
]
{
T 47450 47100 5 10 0 0 90 0 1
device=RESISTOR
T 47550 47100 5 10 1 1 90 6 1
refdes=R14
T 47800 46700 5 10 0 0 90 0 1
footprint=0603_BS_1
T 47550 47200 5 10 1 1 90 0 1
value=150k
}
C 46700 49000 1 0 0 EMBEDDEDresistor-2.sym
[
B 46850 49000 600 200 3 0 0 0 -1 -1 0 -1 -1 -1 -1 -1
P 46700 49100 46852 49100 1 0 0
{
T 46800 49150 5 8 0 1 0 0 1
pinnumber=1
T 46800 49150 5 8 0 0 0 0 1
pinseq=1
T 46800 49150 5 8 0 1 0 0 1
pinlabel=1
T 46800 49150 5 8 0 1 0 0 1
pintype=pas
}
P 47600 49100 47450 49100 1 0 0
{
T 47500 49150 5 8 0 1 0 0 1
pinnumber=2
T 47500 49150 5 8 0 0 0 0 1
pinseq=2
T 47500 49150 5 8 0 1 0 0 1
pinlabel=2
T 47500 49150 5 8 0 1 0 0 1
pintype=pas
}
T 46900 49300 8 10 0 1 0 0 1
refdes=R?
T 47100 49350 5 10 0 0 0 0 1
device=RESISTOR
]
{
T 47100 49350 5 10 0 0 0 0 1
device=RESISTOR
T 47100 49250 5 10 1 1 0 6 1
refdes=R12
T 46700 49000 5 10 0 0 0 0 1
footprint=0603_BS_1
T 47200 49250 5 10 1 1 0 0 1
value=15k
}
N 46700 49100 46600 49100 4
N 45500 49100 45700 49100 4
N 47600 49100 48000 49100 4
N 47700 49800 47700 47600 4
N 48000 49500 47700 49500 4
N 47900 49100 47900 48000 4
N 47900 48000 48100 48000 4
N 48100 48400 47900 48400 4
N 49000 49300 49800 49300 4
N 49200 48000 49200 49300 4
N 49200 48000 49000 48000 4
N 49200 48400 49000 48400 4
N 47100 47600 47100 47800 4
N 46500 47800 47700 47800 4
N 46500 47800 46500 47600 4
N 47700 46700 47700 46400 4
N 47100 46700 47100 46400 4
N 46500 46700 46500 46400 4
N 49700 48900 49700 48200 4
N 50900 49100 50900 48200 4
N 49700 48200 50900 48200 4
N 49800 48900 49700 48900 4
C 47600 46100 1 0 0 EMBEDDEDgnd-1.sym
[
P 47700 46200 47700 46400 1 0 1
{
T 47758 46261 5 4 0 1 0 0 1
pinnumber=1
T 47758 46261 5 4 0 0 0 0 1
pinseq=1
T 47758 46261 5 4 0 1 0 0 1
pinlabel=1
T 47758 46261 5 4 0 1 0 0 1
pintype=pwr
}
L 47600 46200 47800 46200 3 0 0 0 -1 -1
L 47655 46150 47745 46150 3 0 0 0 -1 -1
L 47680 46110 47720 46110 3 0 0 0 -1 -1
T 47900 46150 8 10 0 0 0 0 1
net=GND:1
]
C 51100 49000 1 0 0 EMBEDDEDout-1.sym
[
P 51100 49100 51300 49100 1 0 0
{
T 51250 49150 5 6 0 1 0 0 1
pinnumber=1
T 51250 49150 5 6 0 0 0 0 1
pinseq=1
}
L 51300 49100 51700 49100 6 0 0 0 -1 -1
L 51700 49100 51600 49200 6 0 0 0 -1 -1
L 51700 49100 51600 49000 6 0 0 0 -1 -1
T 51100 49300 5 10 0 0 0 0 1
device=OUTPUT
T 51100 49300 8 10 0 1 0 0 1
refdes=pinlabel
]
{
T 51100 49300 5 10 0 0 0 0 1
device=OUTPUT
T 51750 49100 5 10 1 1 0 1 1
value=SENSE
T 51100 49000 5 10 0 1 0 0 1
footprint=none
T 51100 49000 5 10 0 0 0 0 1
net=SENSE:1
}
C 50200 48400 1 0 0 EMBEDDEDgnd-1.sym
[
P 50300 48500 50300 48700 1 0 1
{
T 50358 48561 5 4 0 1 0 0 1
pinnumber=1
T 50358 48561 5 4 0 0 0 0 1
pinseq=1
T 50358 48561 5 4 0 1 0 0 1
pinlabel=1
T 50358 48561 5 4 0 1 0 0 1
pintype=pwr
}
L 50200 48500 50400 48500 3 0 0 0 -1 -1
L 50255 48450 50345 48450 3 0 0 0 -1 -1
L 50280 48410 50320 48410 3 0 0 0 -1 -1
T 50500 48450 8 10 0 0 0 0 1
net=GND:1
]
C 47500 51100 1 0 0 EMBEDDEDvcc-1.sym
[
P 47700 51100 47700 51300 1 0 0
{
T 47750 51150 5 6 0 1 0 0 1
pinnumber=1
T 47750 51150 5 6 0 0 0 0 1
pinseq=1
T 47750 51150 5 6 0 1 0 0 1
pinlabel=1
T 47750 51150 5 6 0 1 0 0 1
pintype=pwr
}
L 47550 51300 47850 51300 3 0 0 0 -1 -1
T 47575 51350 9 8 1 0 0 0 1
Vcc
T 47950 51300 8 10 0 0 0 0 1
net=Vcc:1
]
N 47700 50700 47700 51100 4
N 44900 50300 44900 51000 4
C 49300 42800 1 90 0 EMBEDDEDresistor-2.sym
[
B 49100 42950 200 600 3 0 0 0 -1 -1 0 -1 -1 -1 -1 -1
P 49200 42800 49200 42952 1 0 0
{
T 49150 42900 5 8 0 1 90 0 1
pinnumber=1
T 49150 42900 5 8 0 0 90 0 1
pinseq=1
T 49150 42900 5 8 0 1 90 0 1
pinlabel=1
T 49150 42900 5 8 0 1 90 0 1
pintype=pas
}
P 49200 43700 49200 43550 1 0 0
{
T 49150 43600 5 8 0 1 90 0 1
pinnumber=2
T 49150 43600 5 8 0 0 90 0 1
pinseq=2
T 49150 43600 5 8 0 1 90 0 1
pinlabel=2
T 49150 43600 5 8 0 1 90 0 1
pintype=pas
}
T 49000 43000 8 10 0 1 90 0 1
refdes=R?
T 48950 43200 5 10 0 0 90 0 1
device=RESISTOR
]
{
T 48950 43200 5 10 0 0 90 0 1
device=RESISTOR
T 49050 43200 5 10 1 1 90 6 1
refdes=R16
T 49300 42800 5 10 0 0 90 0 1
footprint=0603_BS_1
T 49050 43300 5 10 1 1 90 0 1
value=6k8
}
C 51000 42300 1 0 0 EMBEDDEDgnd-1.sym
[
L 51080 42310 51120 42310 3 0 0 0 -1 -1
L 51055 42350 51145 42350 3 0 0 0 -1 -1
L 51000 42400 51200 42400 3 0 0 0 -1 -1
P 51100 42400 51100 42600 1 0 1
{
T 51158 42461 5 4 0 1 0 0 1
pintype=pwr
T 51158 42461 5 4 0 1 0 0 1
pinlabel=1
T 51158 42461 5 4 0 0 0 0 1
pinseq=1
T 51158 42461 5 4 0 1 0 0 1
pinnumber=1
}
T 51300 42350 8 10 0 0 0 0 1
net=GND:1
]
C 48600 44400 1 0 0 EMBEDDEDvcc-1.sym
[
P 48800 44400 48800 44600 1 0 0
{
T 48850 44450 5 6 0 1 0 0 1
pinnumber=1
T 48850 44450 5 6 0 0 0 0 1
pinseq=1
T 48850 44450 5 6 0 1 0 0 1
pinlabel=1
T 48850 44450 5 6 0 1 0 0 1
pintype=pwr
}
L 48650 44600 48950 44600 3 0 0 0 -1 -1
T 48675 44650 9 8 1 0 0 0 1
Vcc
T 49050 44600 8 10 0 0 0 0 1
net=Vcc:1
]
C 51300 42800 1 90 0 EMBEDDEDcapacitor-1.sym
[
L 51100 43200 51100 43000 3 0 0 0 -1 -1
L 51100 43500 51100 43300 3 0 0 0 -1 -1
L 50900 43300 51300 43300 3 0 0 0 -1 -1
L 50900 43200 51300 43200 3 0 0 0 -1 -1
P 51100 43700 51100 43500 1 0 0
{
T 51100 43500 5 8 0 1 90 8 1
pintype=pas
T 51100 43500 9 8 0 1 90 6 1
pinlabel=2
T 51150 43550 5 8 0 1 90 2 1
pinseq=2
T 51050 43550 5 8 0 1 90 0 1
pinnumber=2
}
P 51100 42800 51100 43000 1 0 0
{
T 51100 43000 5 8 0 1 90 2 1
pintype=pas
T 51100 43000 9 8 0 1 90 0 1
pinlabel=1
T 51150 42950 5 8 0 1 90 8 1
pinseq=1
T 51050 42950 5 8 0 1 90 6 1
pinnumber=1
}
T 50400 43000 5 10 0 0 90 0 1
symversion=0.1
T 50200 43000 5 10 0 0 90 0 1
numslots=0
T 50000 43000 5 10 0 0 90 0 1
description=capacitor
T 50800 43000 8 10 0 1 90 0 1
refdes=C?
T 50600 43000 5 10 0 0 90 0 1
device=CAPACITOR
]
{
T 50600 43000 5 10 0 0 90 0 1
device=CAPACITOR
T 51050 43350 5 10 1 1 90 0 1
refdes=C13
T 50400 43000 5 10 0 0 90 0 1
symversion=0.1
T 51200 42900 5 10 0 1 0 0 1
footprint=0603_BS_1
T 51050 43150 5 10 1 1 90 6 1
value=100n
}
N 51100 44300 48500 44300 4
N 51100 44300 51100 43700 4
C 49800 43800 1 0 0 EMBEDDEDout-1.sym
[
L 50400 43900 50300 43800 6 0 0 0 -1 -1
L 50400 43900 50300 44000 6 0 0 0 -1 -1
L 50000 43900 50400 43900 6 0 0 0 -1 -1
P 49800 43900 50000 43900 1 0 0
{
T 49950 43950 5 6 0 0 0 0 1
pinseq=1
T 49950 43950 5 6 0 1 0 0 1
pinnumber=1
}
T 49800 44100 8 10 0 1 0 0 1
refdes=pinlabel
T 49800 44100 5 10 0 0 0 0 1
device=OUTPUT
]
{
T 49800 44100 5 10 0 0 0 0 1
device=OUTPUT
T 50450 43900 5 10 1 1 0 1 1
value=LIGHT
T 49800 43800 5 10 0 1 0 0 1
footprint=none
T 49800 43800 5 10 0 0 0 0 1
net=LIGHT:1
}
N 48500 43900 49800 43900 4
N 49200 43900 49200 43700 4
N 49200 42800 49200 42600 4
N 51100 42600 49200 42600 4
N 48800 44400 48800 44300 4
N 51100 42600 51100 42800 4
N 49600 42800 49600 42600 4
N 49600 43700 49600 43900 4
C 55300 45900 1 0 0 EMBEDDEDconnector10-2.sym
[
P 55300 49900 55500 49900 1 0 0
{
T 55650 49900 5 8 0 1 0 2 1
pintype=pas
T 55650 49900 9 8 1 1 0 0 1
pinlabel=1
T 55500 49850 5 8 0 1 0 8 1
pinseq=1
T 55500 49950 5 8 0 1 0 6 1
pinnumber=1
}
V 55550 49900 50 6 0 0 0 -1 -1 0 -1 -1 -1 -1 -1
P 55300 49500 55500 49500 1 0 0
{
T 55650 49500 5 8 0 1 0 2 1
pintype=pas
T 55650 49500 9 8 1 1 0 0 1
pinlabel=2
T 55500 49450 5 8 0 1 0 8 1
pinseq=2
T 55500 49550 5 8 0 1 0 6 1
pinnumber=2
}
V 55550 49500 50 6 0 0 0 -1 -1 0 -1 -1 -1 -1 -1
P 55300 49100 55500 49100 1 0 0
{
T 55650 49100 5 8 0 1 0 2 1
pintype=pas
T 55650 49100 9 8 1 1 0 0 1
pinlabel=3
T 55500 49050 5 8 0 1 0 8 1
pinseq=3
T 55500 49150 5 8 0 1 0 6 1
pinnumber=3
}
V 55550 49100 50 6 0 0 0 -1 -1 0 -1 -1 -1 -1 -1
P 55300 48700 55500 48700 1 0 0
{
T 55650 48700 5 8 0 1 0 2 1
pintype=pas
T 55650 48700 9 8 1 1 0 0 1
pinlabel=4
T 55500 48650 5 8 0 1 0 8 1
pinseq=4
T 55500 48750 5 8 0 1 0 6 1
pinnumber=4
}
V 55550 48700 50 6 0 0 0 -1 -1 0 -1 -1 -1 -1 -1
P 55300 48300 55500 48300 1 0 0
{
T 55650 48300 5 8 0 1 0 2 1
pintype=pas
T 55650 48300 9 8 1 1 0 0 1
pinlabel=5
T 55500 48250 5 8 0 1 0 8 1
pinseq=5
T 55500 48350 5 8 0 1 0 6 1
pinnumber=5
}
V 55550 48300 50 6 0 0 0 -1 -1 0 -1 -1 -1 -1 -1
P 55300 47900 55500 47900 1 0 0
{
T 55650 47900 5 8 0 1 0 2 1
pintype=pas
T 55650 47900 9 8 1 1 0 0 1
pinlabel=6
T 55500 47850 5 8 0 1 0 8 1
pinseq=6
T 55500 47950 5 8 0 1 0 6 1
pinnumber=6
}
V 55550 47900 50 6 0 0 0 -1 -1 0 -1 -1 -1 -1 -1
P 55300 47500 55500 47500 1 0 0
{
T 55650 47500 5 8 0 1 0 2 1
pintype=pas
T 55650 47500 9 8 1 1 0 0 1
pinlabel=7
T 55500 47450 5 8 0 1 0 8 1
pinseq=7
T 55500 47550 5 8 0 1 0 6 1
pinnumber=7
}
V 55550 47500 50 6 0 0 0 -1 -1 0 -1 -1 -1 -1 -1
P 55300 47100 55500 47100 1 0 0
{
T 55650 47100 5 8 0 1 0 2 1
pintype=pas
T 55650 47100 9 8 1 1 0 0 1
pinlabel=8
T 55500 47050 5 8 0 1 0 8 1
pinseq=8
T 55500 47150 5 8 0 1 0 6 1
pinnumber=8
}
V 55550 47100 50 6 0 0 0 -1 -1 0 -1 -1 -1 -1 -1
P 55300 46700 55500 46700 1 0 0
{
T 55650 46700 5 8 0 1 0 2 1
pintype=pas
T 55650 46700 9 8 1 1 0 0 1
pinlabel=9
T 55500 46650 5 8 0 1 0 8 1
pinseq=9
T 55500 46750 5 8 0 1 0 6 1
pinnumber=9
}
V 55550 46700 50 6 0 0 0 -1 -1 0 -1 -1 -1 -1 -1
P 55300 46300 55500 46300 1 0 0
{
T 55650 46300 5 8 0 1 0 2 1
pintype=pas
T 55650 46300 9 8 1 1 0 0 1
pinlabel=10
T 55500 46250 5 8 0 1 0 8 1
pinseq=10
T 55500 46350 5 8 0 1 0 6 1
pinnumber=10
}
V 55550 46300 50 6 0 0 0 -1 -1 0 -1 -1 -1 -1 -1
B 55600 45900 400 4400 3 0 0 0 -1 -1 0 -1 -1 -1 -1 -1
T 56000 50400 8 10 0 1 0 6 1
refdes=CONN?
T 55600 50350 5 10 0 0 0 0 1
device=CONNECTOR_10
T 55600 50550 5 10 0 0 0 0 1
footprint=SIP10N
T 55600 50750 5 10 0 0 0 0 1
author=Leon Kos
T 55600 50950 5 10 0 0 0 0 1
description=generic connector
T 55600 51150 5 10 0 0 0 0 1
numslots=0
]
{
T 56000 50400 5 10 1 1 0 6 1
refdes=J1
T 55600 50350 5 10 0 0 0 0 1
device=CONNECTOR_10
T 55600 50550 5 10 0 0 0 0 1
footprint=HEADER10_2_2MM54_SMD
}
C 55000 45300 1 0 0 EMBEDDEDgnd-1.sym
[
P 55100 45400 55100 45600 1 0 1
{
T 55158 45461 5 4 0 1 0 0 1
pintype=pwr
T 55158 45461 5 4 0 1 0 0 1
pinlabel=1
T 55158 45461 5 4 0 0 0 0 1
pinseq=1
T 55158 45461 5 4 0 1 0 0 1
pinnumber=1
}
L 55000 45400 55200 45400 3 0 0 0 -1 -1
L 55055 45350 55145 45350 3 0 0 0 -1 -1
L 55080 45310 55120 45310 3 0 0 0 -1 -1
T 55300 45350 8 10 0 0 0 0 1
net=GND:1
]
N 55100 46300 55100 45600 4
N 55300 46300 55100 46300 4
N 55300 46700 53500 46700 4
C 53300 46700 1 0 0 EMBEDDEDvcc-1.sym
[
P 53500 46700 53500 46900 1 0 0
{
T 53550 46750 5 6 0 1 0 0 1
pinnumber=1
T 53550 46750 5 6 0 0 0 0 1
pinseq=1
T 53550 46750 5 6 0 1 0 0 1
pinlabel=1
T 53550 46750 5 6 0 1 0 0 1
pintype=pwr
}
L 53350 46900 53650 46900 3 0 0 0 -1 -1
T 53375 46950 9 8 1 0 0 0 1
Vcc
T 53750 46900 8 10 0 0 0 0 1
net=Vcc:1
]
C 43300 44500 1 0 0 EMBEDDEDresistor-2.sym
[
T 43500 44800 8 10 0 1 0 0 1
refdes=R?
T 43700 44850 5 10 0 0 0 0 1
device=RESISTOR
B 43450 44500 600 200 3 0 0 0 -1 -1 0 -1 -1 -1 -1 -1
P 43300 44600 43452 44600 1 0 0
{
T 43400 44650 5 8 0 1 0 0 1
pinnumber=1
T 43400 44650 5 8 0 0 0 0 1
pinseq=1
T 43400 44650 5 8 0 1 0 0 1
pinlabel=1
T 43400 44650 5 8 0 1 0 0 1
pintype=pas
}
P 44200 44600 44050 44600 1 0 0
{
T 44100 44650 5 8 0 1 0 0 1
pinnumber=2
T 44100 44650 5 8 0 0 0 0 1
pinseq=2
T 44100 44650 5 8 0 1 0 0 1
pinlabel=2
T 44100 44650 5 8 0 1 0 0 1
pintype=pas
}
]
{
T 43700 44850 5 10 0 0 0 0 1
device=RESISTOR
T 43700 44750 5 10 1 1 0 6 1
refdes=R1
T 43300 44500 5 10 0 0 0 0 1
footprint=0603_BS_1
T 43800 44750 5 10 1 1 0 0 1
value=470
}
C 43300 43900 1 0 0 EMBEDDEDresistor-2.sym
[
T 43700 44250 5 10 0 0 0 0 1
device=RESISTOR
T 43500 44200 8 10 0 1 0 0 1
refdes=R?
P 44200 44000 44050 44000 1 0 0
{
T 44100 44050 5 8 0 1 0 0 1
pintype=pas
T 44100 44050 5 8 0 1 0 0 1
pinlabel=2
T 44100 44050 5 8 0 0 0 0 1
pinseq=2
T 44100 44050 5 8 0 1 0 0 1
pinnumber=2
}
P 43300 44000 43452 44000 1 0 0
{
T 43400 44050 5 8 0 1 0 0 1
pintype=pas
T 43400 44050 5 8 0 1 0 0 1
pinlabel=1
T 43400 44050 5 8 0 0 0 0 1
pinseq=1
T 43400 44050 5 8 0 1 0 0 1
pinnumber=1
}
B 43450 43900 600 200 3 0 0 0 -1 -1 0 -1 -1 -1 -1 -1
]
{
T 43700 44250 5 10 0 0 0 0 1
device=RESISTOR
T 43700 44150 5 10 1 1 0 6 1
refdes=R2
T 43300 43900 5 10 0 0 0 0 1
footprint=0603_BS_1
T 43800 44150 5 10 1 1 0 0 1
value=470
}
C 43300 42700 1 0 0 EMBEDDEDresistor-2.sym
[
T 43700 43050 5 10 0 0 0 0 1
device=RESISTOR
T 43500 43000 8 10 0 1 0 0 1
refdes=R?
P 44200 42800 44050 42800 1 0 0
{
T 44100 42850 5 8 0 1 0 0 1
pintype=pas
T 44100 42850 5 8 0 1 0 0 1
pinlabel=2
T 44100 42850 5 8 0 0 0 0 1
pinseq=2
T 44100 42850 5 8 0 1 0 0 1
pinnumber=2
}
P 43300 42800 43452 42800 1 0 0
{
T 43400 42850 5 8 0 1 0 0 1
pintype=pas
T 43400 42850 5 8 0 1 0 0 1
pinlabel=1
T 43400 42850 5 8 0 0 0 0 1
pinseq=1
T 43400 42850 5 8 0 1 0 0 1
pinnumber=1
}
B 43450 42700 600 200 3 0 0 0 -1 -1 0 -1 -1 -1 -1 -1
]
{
T 43700 43050 5 10 0 0 0 0 1
device=RESISTOR
T 43700 42950 5 10 1 1 0 6 1
refdes=R4
T 43300 42700 5 10 0 0 0 0 1
footprint=0603_BS_1
T 43800 42950 5 10 1 1 0 0 1
value=470
}
C 43200 41700 1 0 1 EMBEDDEDresistor-2.sym
[
T 42800 42050 5 10 0 0 0 6 1
device=RESISTOR
T 43000 42000 8 10 0 1 0 6 1
refdes=R?
P 42300 41800 42450 41800 1 0 0
{
T 42400 41850 5 8 0 1 0 6 1
pintype=pas
T 42400 41850 5 8 0 1 0 6 1
pinlabel=2
T 42400 41850 5 8 0 0 0 6 1
pinseq=2
T 42400 41850 5 8 0 1 0 6 1
pinnumber=2
}
P 43200 41800 43048 41800 1 0 0
{
T 43100 41850 5 8 0 1 0 6 1
pintype=pas
T 43100 41850 5 8 0 1 0 6 1
pinlabel=1
T 43100 41850 5 8 0 0 0 6 1
pinseq=1
T 43100 41850 5 8 0 1 0 6 1
pinnumber=1
}
B 42450 41700 600 200 3 0 0 0 -1 -1 0 -1 -1 -1 -1 -1
]
{
T 42800 42050 5 10 0 0 0 6 1
device=RESISTOR
T 42800 41950 5 10 1 1 0 0 1
refdes=R5
T 43200 41700 5 10 0 0 0 6 1
footprint=0603_BS_1
T 42700 41950 5 10 1 1 0 6 1
value=470
}
C 43100 43900 1 0 1 EMBEDDEDled-2.sym
[
T 43000 44500 8 10 0 0 0 6 1
device=LED
T 42300 44200 8 10 0 1 0 6 1
refdes=D?
L 42500 44240 42530 44190 3 0 0 0 -1 -1
L 42500 44240 42550 44210 3 0 0 0 -1 -1
L 42600 44140 42500 44240 3 0 0 0 -1 -1
L 42570 44240 42600 44190 3 0 0 0 -1 -1
L 42570 44240 42620 44210 3 0 0 0 -1 -1
L 42670 44140 42570 44240 3 0 0 0 -1 -1
L 42700 44000 42900 44000 3 0 0 0 -1 -1
L 42600 44000 42400 44000 3 0 0 0 -1 -1
L 42600 44100 42600 43900 3 0 0 0 -1 -1
L 42700 44100 42700 43900 3 0 0 0 -1 -1
L 42600 44000 42700 43900 3 0 0 0 -1 -1
L 42700 44100 42600 44000 3 0 0 0 -1 -1
P 42200 44000 42400 44000 1 0 0
{
T 42400 44050 5 8 0 1 0 6 1
pinnumber=1
T 42400 44050 5 8 0 0 0 6 1
pinseq=1
T 42400 44050 5 8 0 1 0 6 1
pinlabel=1
T 42400 44050 5 8 0 1 0 6 1
pintype=pas
}
P 43100 44000 42900 44000 1 0 0
{
T 43000 44050 5 8 0 1 0 6 1
pinnumber=2
T 43000 44050 5 8 0 0 0 6 1
pinseq=2
T 43000 44050 5 8 0 1 0 6 1
pinlabel=2
T 43000 44050 5 8 0 1 0 6 1
pintype=pas
}
]
{
T 42400 44100 5 10 1 1 0 6 1
refdes=D2
T 43000 44500 5 10 0 0 0 6 1
device=LED
T 42000 44300 5 10 1 1 0 0 1
value=LTST-C190KGKT
T 43100 43900 5 10 0 0 0 0 1
footprint=0603_POL_BS_1
}
N 43200 41200 43400 41200 4
C 43200 41100 1 0 1 EMBEDDEDresistor-2.sym
[
T 43000 41400 8 10 0 1 0 6 1
refdes=R?
T 42800 41450 5 10 0 0 0 6 1
device=RESISTOR
B 42450 41100 600 200 3 0 0 0 -1 -1 0 -1 -1 -1 -1 -1
P 43200 41200 43048 41200 1 0 0
{
T 43100 41250 5 8 0 1 0 6 1
pinnumber=1
T 43100 41250 5 8 0 0 0 6 1
pinseq=1
T 43100 41250 5 8 0 1 0 6 1
pinlabel=1
T 43100 41250 5 8 0 1 0 6 1
pintype=pas
}
P 42300 41200 42450 41200 1 0 0
{
T 42400 41250 5 8 0 1 0 6 1
pinnumber=2
T 42400 41250 5 8 0 0 0 6 1
pinseq=2
T 42400 41250 5 8 0 1 0 6 1
pinlabel=2
T 42400 41250 5 8 0 1 0 6 1
pintype=pas
}
]
{
T 42800 41450 5 10 0 0 0 6 1
device=RESISTOR
T 42800 41350 5 10 1 1 0 0 1
refdes=R6
T 43200 41100 5 10 0 0 0 6 1
footprint=0603_BS_1
T 42700 41350 5 10 1 1 0 6 1
value=470
}
C 43400 41100 1 0 0 EMBEDDEDled-2.sym
[
T 44200 41400 8 10 0 1 0 0 1
refdes=D?
T 43500 41700 8 10 0 0 0 0 1
device=LED
P 43400 41200 43600 41200 1 0 0
{
T 43500 41250 5 8 0 1 0 0 1
pintype=pas
T 43500 41250 5 8 0 1 0 0 1
pinlabel=2
T 43500 41250 5 8 0 0 0 0 1
pinseq=2
T 43500 41250 5 8 0 1 0 0 1
pinnumber=2
}
P 44300 41200 44100 41200 1 0 0
{
T 44100 41250 5 8 0 1 0 0 1
pintype=pas
T 44100 41250 5 8 0 1 0 0 1
pinlabel=1
T 44100 41250 5 8 0 0 0 0 1
pinseq=1
T 44100 41250 5 8 0 1 0 0 1
pinnumber=1
}
L 43800 41300 43900 41200 3 0 0 0 -1 -1
L 43900 41200 43800 41100 3 0 0 0 -1 -1
L 43800 41300 43800 41100 3 0 0 0 -1 -1
L 43900 41300 43900 41100 3 0 0 0 -1 -1
L 43900 41200 44100 41200 3 0 0 0 -1 -1
L 43800 41200 43600 41200 3 0 0 0 -1 -1
L 43830 41340 43930 41440 3 0 0 0 -1 -1
L 43930 41440 43880 41410 3 0 0 0 -1 -1
L 43930 41440 43900 41390 3 0 0 0 -1 -1
L 43900 41340 44000 41440 3 0 0 0 -1 -1
L 44000 41440 43950 41410 3 0 0 0 -1 -1
L 44000 41440 43970 41390 3 0 0 0 -1 -1
]
{
T 44100 41300 5 10 1 1 0 0 1
refdes=D6
T 43500 41700 5 10 0 0 0 0 1
device=LED
T 44400 41500 5 10 1 1 0 6 1
value=LTST-C191KSKT
T 43400 41100 5 10 0 0 0 6 1
footprint=0603_POL_BS_1
}
N 43100 43400 43300 43400 4
N 44200 43400 44600 43400 4
C 43300 43300 1 0 0 EMBEDDEDresistor-2.sym
[
T 43500 43600 8 10 0 1 0 0 1
refdes=R?
T 43700 43650 5 10 0 0 0 0 1
device=RESISTOR
B 43450 43300 600 200 3 0 0 0 -1 -1 0 -1 -1 -1 -1 -1
P 43300 43400 43452 43400 1 0 0
{
T 43400 43450 5 8 0 1 0 0 1
pinnumber=1
T 43400 43450 5 8 0 0 0 0 1
pinseq=1
T 43400 43450 5 8 0 1 0 0 1
pinlabel=1
T 43400 43450 5 8 0 1 0 0 1
pintype=pas
}
P 44200 43400 44050 43400 1 0 0
{
T 44100 43450 5 8 0 1 0 0 1
pinnumber=2
T 44100 43450 5 8 0 0 0 0 1
pinseq=2
T 44100 43450 5 8 0 1 0 0 1
pinlabel=2
T 44100 43450 5 8 0 1 0 0 1
pintype=pas
}
]
{
T 43700 43650 5 10 0 0 0 0 1
device=RESISTOR
T 43700 43550 5 10 1 1 0 6 1
refdes=R3
T 43300 43300 5 10 0 0 0 0 1
footprint=0603_BS_1
T 43800 43550 5 10 1 1 0 0 1
value=470
}
N 42100 43400 42200 43400 4
C 44500 40800 1 0 0 EMBEDDEDgnd-1.sym
[
T 44800 40850 8 10 0 0 0 0 1
net=GND:1
P 44600 40900 44600 41100 1 0 1
{
T 44658 40961 5 4 0 1 0 0 1
pinnumber=1
T 44658 40961 5 4 0 0 0 0 1
pinseq=1
T 44658 40961 5 4 0 1 0 0 1
pinlabel=1
T 44658 40961 5 4 0 1 0 0 1
pintype=pwr
}
L 44500 40900 44700 40900 3 0 0 0 -1 -1
L 44555 40850 44645 40850 3 0 0 0 -1 -1
L 44580 40810 44620 40810 3 0 0 0 -1 -1
]
N 44300 41800 44600 41800 4
N 44600 41800 44600 41100 4
N 44300 41200 44600 41200 4
C 41700 41700 1 0 0 EMBEDDEDin-1.sym
[
T 41700 42000 5 10 0 0 0 0 1
device=INPUT
T 41700 42000 8 10 0 1 0 0 1
refdes=pinlabel
P 42100 41800 42300 41800 1 0 1
{
T 42150 41850 5 6 0 1 0 0 1
pinnumber=1
T 42150 41850 5 6 0 0 0 0 1
pinseq=1
}
L 41800 41800 41700 41900 6 0 0 0 -1 -1
L 41800 41800 41700 41700 6 0 0 0 -1 -1
L 42100 41800 41800 41800 6 0 0 0 -1 -1
]
{
T 41700 42000 5 10 0 0 0 0 1
device=OUTPUT
T 41650 41800 5 10 1 1 0 7 1
value=LINK
T 41700 41700 5 10 0 1 0 6 1
footprint=none
T 41700 41700 5 10 0 0 0 0 1
net=LINK:1
}
C 41700 41100 1 0 0 EMBEDDEDin-1.sym
[
T 41700 41400 8 10 0 1 0 0 1
refdes=pinlabel
T 41700 41400 5 10 0 0 0 0 1
device=INPUT
L 42100 41200 41800 41200 6 0 0 0 -1 -1
L 41800 41200 41700 41100 6 0 0 0 -1 -1
L 41800 41200 41700 41300 6 0 0 0 -1 -1
P 42100 41200 42300 41200 1 0 1
{
T 42150 41250 5 6 0 0 0 0 1
pinseq=1
T 42150 41250 5 6 0 1 0 0 1
pinnumber=1
}
]
{
T 41700 41400 5 10 0 0 0 0 1
device=OUTPUT
T 41650 41200 5 10 1 1 0 7 1
value=SPD
T 41700 41100 5 10 0 1 0 6 1
footprint=none
T 41700 41100 5 10 0 0 0 0 1
net=SPD:1
}
C 43400 41700 1 0 0 EMBEDDEDled-2.sym
[
T 43500 42300 8 10 0 0 0 0 1
device=LED
T 44200 42000 8 10 0 1 0 0 1
refdes=D?
L 44000 42040 43970 41990 3 0 0 0 -1 -1
L 44000 42040 43950 42010 3 0 0 0 -1 -1
L 43900 41940 44000 42040 3 0 0 0 -1 -1
L 43930 42040 43900 41990 3 0 0 0 -1 -1
L 43930 42040 43880 42010 3 0 0 0 -1 -1
L 43830 41940 43930 42040 3 0 0 0 -1 -1
L 43800 41800 43600 41800 3 0 0 0 -1 -1
L 43900 41800 44100 41800 3 0 0 0 -1 -1
L 43900 41900 43900 41700 3 0 0 0 -1 -1
L 43800 41900 43800 41700 3 0 0 0 -1 -1
L 43900 41800 43800 41700 3 0 0 0 -1 -1
L 43800 41900 43900 41800 3 0 0 0 -1 -1
P 44300 41800 44100 41800 1 0 0
{
T 44100 41850 5 8 0 1 0 0 1
pinnumber=1
T 44100 41850 5 8 0 0 0 0 1
pinseq=1
T 44100 41850 5 8 0 1 0 0 1
pinlabel=1
T 44100 41850 5 8 0 1 0 0 1
pintype=pas
}
P 43400 41800 43600 41800 1 0 0
{
T 43500 41850 5 8 0 1 0 0 1
pinnumber=2
T 43500 41850 5 8 0 0 0 0 1
pinseq=2
T 43500 41850 5 8 0 1 0 0 1
pinlabel=2
T 43500 41850 5 8 0 1 0 0 1
pintype=pas
}
]
{
T 44100 41900 5 10 1 1 0 0 1
refdes=D5
T 43500 42300 5 10 0 0 0 0 1
device=LED
T 44500 42100 5 10 1 1 0 6 1
value=LTST-C190KGKT
T 43400 41700 5 10 0 0 0 6 1
footprint=0603_POL_BS_1
}
C 43100 43300 1 0 1 EMBEDDEDled-2.sym
[
T 42300 43600 8 10 0 1 0 6 1
refdes=D?
T 43000 43900 8 10 0 0 0 6 1
device=LED
P 43100 43400 42900 43400 1 0 0
{
T 43000 43450 5 8 0 1 0 6 1
pintype=pas
T 43000 43450 5 8 0 1 0 6 1
pinlabel=2
T 43000 43450 5 8 0 0 0 6 1
pinseq=2
T 43000 43450 5 8 0 1 0 6 1
pinnumber=2
}
P 42200 43400 42400 43400 1 0 0
{
T 42400 43450 5 8 0 1 0 6 1
pintype=pas
T 42400 43450 5 8 0 1 0 6 1
pinlabel=1
T 42400 43450 5 8 0 0 0 6 1
pinseq=1
T 42400 43450 5 8 0 1 0 6 1
pinnumber=1
}
L 42700 43500 42600 43400 3 0 0 0 -1 -1
L 42600 43400 42700 43300 3 0 0 0 -1 -1
L 42700 43500 42700 43300 3 0 0 0 -1 -1
L 42600 43500 42600 43300 3 0 0 0 -1 -1
L 42600 43400 42400 43400 3 0 0 0 -1 -1
L 42700 43400 42900 43400 3 0 0 0 -1 -1
L 42670 43540 42570 43640 3 0 0 0 -1 -1
L 42570 43640 42620 43610 3 0 0 0 -1 -1
L 42570 43640 42600 43590 3 0 0 0 -1 -1
L 42600 43540 42500 43640 3 0 0 0 -1 -1
L 42500 43640 42550 43610 3 0 0 0 -1 -1
L 42500 43640 42530 43590 3 0 0 0 -1 -1
]
{
T 42400 43500 5 10 1 1 0 6 1
refdes=D3
T 43000 43900 5 10 0 0 0 6 1
device=LED
T 42100 43700 5 10 1 1 0 0 1
value=LTST-C191KSKT
T 43100 43300 5 10 0 0 0 0 1
footprint=0603_POL_BS_1
}
T 44700 44000 9 10 1 0 0 0 1
Green
T 44700 41800 9 10 1 0 0 0 1
Green
T 44700 43400 9 10 1 0 0 0 1
Yellow
T 44700 41200 9 10 1 0 0 0 1
Yellow
C 46500 50000 1 90 0 EMBEDDEDcapacitor-1.sym
[
T 45600 50200 5 10 0 0 90 0 1
symversion=0.1
T 45400 50200 5 10 0 0 90 0 1
numslots=0
T 45200 50200 5 10 0 0 90 0 1
description=capacitor
T 46000 50200 8 10 0 1 90 0 1
refdes=C?
T 45800 50200 5 10 0 0 90 0 1
device=CAPACITOR
L 46300 50400 46300 50200 3 0 0 0 -1 -1
L 46300 50700 46300 50500 3 0 0 0 -1 -1
L 46100 50500 46500 50500 3 0 0 0 -1 -1
L 46100 50400 46500 50400 3 0 0 0 -1 -1
P 46300 50900 46300 50700 1 0 0
{
T 46250 50750 5 8 0 1 90 0 1
pinnumber=2
T 46350 50750 5 8 0 1 90 2 1
pinseq=2
T 46300 50700 9 8 0 1 90 6 1
pinlabel=2
T 46300 50700 5 8 0 1 90 8 1
pintype=pas
}
P 46300 50000 46300 50200 1 0 0
{
T 46250 50150 5 8 0 1 90 6 1
pinnumber=1
T 46350 50150 5 8 0 1 90 8 1
pinseq=1
T 46300 50200 9 8 0 1 90 0 1
pinlabel=1
T 46300 50200 5 8 0 1 90 2 1
pintype=pas
}
]
{
T 45800 50200 5 10 0 0 90 0 1
device=CAPACITOR
T 46250 50550 5 10 1 1 90 0 1
refdes=C7
T 45600 50200 5 10 0 0 90 0 1
symversion=0.1
T 46400 50100 5 10 0 1 0 0 1
footprint=0603_BS_1
T 46250 50350 5 10 1 1 90 6 1
value=100n
}
C 40900 49500 1 0 0 EMBEDDEDgnd-1.sym
[
T 41200 49550 8 10 0 0 0 0 1
net=GND:1
P 41000 49600 41000 49800 1 0 1
{
T 41058 49661 5 4 0 1 0 0 1
pinnumber=1
T 41058 49661 5 4 0 0 0 0 1
pinseq=1
T 41058 49661 5 4 0 1 0 0 1
pinlabel=1
T 41058 49661 5 4 0 1 0 0 1
pintype=pwr
}
L 40900 49600 41100 49600 3 0 0 0 -1 -1
L 40955 49550 41045 49550 3 0 0 0 -1 -1
L 40980 49510 41020 49510 3 0 0 0 -1 -1
]
C 46200 49700 1 0 0 EMBEDDEDgnd-1.sym
[
T 46500 49750 8 10 0 0 0 0 1
net=GND:1
P 46300 49800 46300 50000 1 0 1
{
T 46358 49861 5 4 0 1 0 0 1
pinnumber=1
T 46358 49861 5 4 0 0 0 0 1
pinseq=1
T 46358 49861 5 4 0 1 0 0 1
pinlabel=1
T 46358 49861 5 4 0 1 0 0 1
pintype=pwr
}
L 46200 49800 46400 49800 3 0 0 0 -1 -1
L 46255 49750 46345 49750 3 0 0 0 -1 -1
L 46280 49710 46320 49710 3 0 0 0 -1 -1
]
N 46300 51000 46300 50900 4
C 41500 44500 1 0 0 EMBEDDEDin-1.sym
[
L 41900 44600 41600 44600 6 0 0 0 -1 -1
L 41600 44600 41500 44500 6 0 0 0 -1 -1
L 41600 44600 41500 44700 6 0 0 0 -1 -1
P 41900 44600 42100 44600 1 0 1
{
T 41950 44650 5 6 0 1 0 0 1
pinnumber=1
T 41950 44650 5 6 0 0 0 0 1
pinseq=1
}
T 41500 44800 8 10 0 1 0 0 1
refdes=pinlabel
T 41500 44800 5 10 0 0 0 0 1
device=INPUT
]
{
T 41500 44800 5 10 0 0 0 0 1
device=OUTPUT
T 41450 44600 5 10 1 1 0 7 1
value=LED0
T 41500 44500 5 10 0 1 0 6 1
footprint=none
T 41500 44500 5 10 0 0 0 0 1
net=LED0:1
}
C 41500 43900 1 0 0 EMBEDDEDin-1.sym
[
T 41500 44200 5 10 0 0 0 0 1
device=INPUT
T 41500 44200 8 10 0 1 0 0 1
refdes=pinlabel
P 41900 44000 42100 44000 1 0 1
{
T 41950 44050 5 6 0 1 0 0 1
pinnumber=1
T 41950 44050 5 6 0 0 0 0 1
pinseq=1
}
L 41600 44000 41500 44100 6 0 0 0 -1 -1
L 41600 44000 41500 43900 6 0 0 0 -1 -1
L 41900 44000 41600 44000 6 0 0 0 -1 -1
]
{
T 41500 44200 5 10 0 0 0 0 1
device=OUTPUT
T 41450 44000 5 10 1 1 0 7 1
value=LED1
T 41500 43900 5 10 0 1 0 6 1
footprint=none
T 41500 43900 5 10 0 0 0 0 1
net=LED1:1
}
C 41500 43300 1 0 0 EMBEDDEDin-1.sym
[
T 41500 43600 5 10 0 0 0 0 1
device=INPUT
T 41500 43600 8 10 0 1 0 0 1
refdes=pinlabel
P 41900 43400 42100 43400 1 0 1
{
T 41950 43450 5 6 0 1 0 0 1
pinnumber=1
T 41950 43450 5 6 0 0 0 0 1
pinseq=1
}
L 41600 43400 41500 43500 6 0 0 0 -1 -1
L 41600 43400 41500 43300 6 0 0 0 -1 -1
L 41900 43400 41600 43400 6 0 0 0 -1 -1
]
{
T 41500 43600 5 10 0 0 0 0 1
device=OUTPUT
T 41450 43400 5 10 1 1 0 7 1
value=LED2
T 41500 43300 5 10 0 1 0 6 1
footprint=none
T 41500 43300 5 10 0 0 0 0 1
net=LED2:1
}
C 41500 42700 1 0 0 EMBEDDEDin-1.sym
[
T 41500 43000 5 10 0 0 0 0 1
device=INPUT
T 41500 43000 8 10 0 1 0 0 1
refdes=pinlabel
P 41900 42800 42100 42800 1 0 1
{
T 41950 42850 5 6 0 1 0 0 1
pinnumber=1
T 41950 42850 5 6 0 0 0 0 1
pinseq=1
}
L 41600 42800 41500 42900 6 0 0 0 -1 -1
L 41600 42800 41500 42700 6 0 0 0 -1 -1
L 41900 42800 41600 42800 6 0 0 0 -1 -1
]
{
T 41500 43000 5 10 0 0 0 0 1
device=OUTPUT
T 41450 42800 5 10 1 1 0 7 1
value=LED3
T 41500 42700 5 10 0 1 0 6 1
footprint=none
T 41500 42700 5 10 0 0 0 0 1
net=LED3:1
}
C 55100 49800 1 0 1 EMBEDDEDout-1.sym
[
T 55100 50100 8 10 0 1 0 6 1
refdes=pinlabel
T 55100 50100 5 10 0 0 0 6 1
device=OUTPUT
L 54500 49900 54600 49800 6 0 0 0 -1 -1
L 54500 49900 54600 50000 6 0 0 0 -1 -1
L 54900 49900 54500 49900 6 0 0 0 -1 -1
P 55100 49900 54900 49900 1 0 0
{
T 54950 49950 5 6 0 0 0 6 1
pinseq=1
T 54950 49950 5 6 0 1 0 6 1
pinnumber=1
}
]
{
T 55100 50100 5 10 0 0 0 6 1
device=OUTPUT
T 54450 49900 5 10 1 1 0 7 1
value=LED0
T 55100 49800 5 10 0 1 0 6 1
footprint=none
T 55100 49800 5 10 0 0 0 6 1
net=LED0:1
}
C 55100 49400 1 0 1 EMBEDDEDout-1.sym
[
T 55100 49700 5 10 0 0 0 6 1
device=OUTPUT
T 55100 49700 8 10 0 1 0 6 1
refdes=pinlabel
P 55100 49500 54900 49500 1 0 0
{
T 54950 49550 5 6 0 1 0 6 1
pinnumber=1
T 54950 49550 5 6 0 0 0 6 1
pinseq=1
}
L 54900 49500 54500 49500 6 0 0 0 -1 -1
L 54500 49500 54600 49600 6 0 0 0 -1 -1
L 54500 49500 54600 49400 6 0 0 0 -1 -1
]
{
T 55100 49700 5 10 0 0 0 6 1
device=OUTPUT
T 54450 49500 5 10 1 1 0 7 1
value=LED1
T 55100 49400 5 10 0 1 0 6 1
footprint=none
T 55100 49400 5 10 0 0 0 6 1
net=LED1:1
}
C 55100 49000 1 0 1 EMBEDDEDout-1.sym
[
T 55100 49300 5 10 0 0 0 6 1
device=OUTPUT
T 55100 49300 8 10 0 1 0 6 1
refdes=pinlabel
P 55100 49100 54900 49100 1 0 0
{
T 54950 49150 5 6 0 1 0 6 1
pinnumber=1
T 54950 49150 5 6 0 0 0 6 1
pinseq=1
}
L 54900 49100 54500 49100 6 0 0 0 -1 -1
L 54500 49100 54600 49200 6 0 0 0 -1 -1
L 54500 49100 54600 49000 6 0 0 0 -1 -1
]
{
T 55100 49300 5 10 0 0 0 6 1
device=OUTPUT
T 54450 49100 5 10 1 1 0 7 1
value=LED2
T 55100 49000 5 10 0 1 0 6 1
footprint=none
T 55100 49000 5 10 0 0 0 6 1
net=LED2:1
}
C 55100 48600 1 0 1 EMBEDDEDout-1.sym
[
T 55100 48900 5 10 0 0 0 6 1
device=OUTPUT
T 55100 48900 8 10 0 1 0 6 1
refdes=pinlabel
P 55100 48700 54900 48700 1 0 0
{
T 54950 48750 5 6 0 1 0 6 1
pinnumber=1
T 54950 48750 5 6 0 0 0 6 1
pinseq=1
}
L 54900 48700 54500 48700 6 0 0 0 -1 -1
L 54500 48700 54600 48800 6 0 0 0 -1 -1
L 54500 48700 54600 48600 6 0 0 0 -1 -1
]
{
T 55100 48900 5 10 0 0 0 6 1
device=OUTPUT
T 54450 48700 5 10 1 1 0 7 1
value=LED3
T 55100 48600 5 10 0 1 0 6 1
footprint=none
T 55100 48600 5 10 0 0 0 6 1
net=LED3:1
}
N 55100 49900 55300 49900 4
N 55100 49500 55300 49500 4
N 55100 49100 55300 49100 4
N 55100 48700 55300 48700 4
C 54500 47400 1 0 0 EMBEDDEDin-1.sym
[
P 54900 47500 55100 47500 1 0 1
{
T 54950 47550 5 6 0 0 0 0 1
pinseq=1
T 54950 47550 5 6 0 1 0 0 1
pinnumber=1
}
L 54600 47500 54500 47600 6 0 0 0 -1 -1
L 54600 47500 54500 47400 6 0 0 0 -1 -1
L 54900 47500 54600 47500 6 0 0 0 -1 -1
T 54500 47700 5 10 0 0 0 0 1
device=INPUT
T 54500 47700 8 10 0 1 0 0 1
refdes=pinlabel
]
{
T 54500 47700 5 10 0 0 0 0 1
device=OUTPUT
T 54450 47500 5 10 1 1 0 7 1
value=LIGHT
T 54500 47400 5 10 0 1 0 6 1
footprint=none
T 54500 47400 5 10 0 0 0 0 1
net=LIGHT:1
}
N 55100 47500 55300 47500 4
C 54500 47000 1 0 0 EMBEDDEDin-1.sym
[
L 54900 47100 54600 47100 6 0 0 0 -1 -1
L 54600 47100 54500 47000 6 0 0 0 -1 -1
L 54600 47100 54500 47200 6 0 0 0 -1 -1
P 54900 47100 55100 47100 1 0 1
{
T 54950 47150 5 6 0 1 0 0 1
pinnumber=1
T 54950 47150 5 6 0 0 0 0 1
pinseq=1
}
T 54500 47300 8 10 0 1 0 0 1
refdes=pinlabel
T 54500 47300 5 10 0 0 0 0 1
device=INPUT
]
{
T 54500 47300 5 10 0 0 0 0 1
device=OUTPUT
T 54450 47100 5 10 1 1 0 7 1
value=SENSE
T 54500 47000 5 10 0 1 0 6 1
footprint=none
T 54500 47000 5 10 0 0 0 0 1
net=SENSE:1
}
N 55100 47100 55300 47100 4
C 40000 40000 0 0 0 EMBEDDEDtitle-A3.sym
[
L 48900 40600 56500 40600 15 0 0 0 -1 -1
B 48900 40000 7600 1400 15 0 0 0 -1 -1 0 -1 -1 -1 -1 -1
T 49000 40700 15 8 1 0 0 0 1
TITLE
T 50700 40100 15 8 1 0 0 0 1
OF
T 49000 40100 15 8 1 0 0 0 1
PAGE
T 52500 40100 15 8 1 0 0 0 1
DRAWN BY: 
T 52500 40400 15 8 1 0 0 0 1
REVISION:
T 49000 40400 15 8 1 0 0 0 1
FILE:
L 52400 40600 52400 40000 15 0 0 0 -1 -1
T 66500 41800 5 10 0 0 0 0 1
graphical=1
B 40000 40000 16500 11600 15 0 0 0 -1 -1 0 -1 -1 -1 -1 -1
]
N 51100 49100 50800 49100 4
C 49600 50000 1 0 0 EMBEDDEDgnd-1.sym
[
L 49680 50010 49720 50010 3 0 0 0 -1 -1
L 49655 50050 49745 50050 3 0 0 0 -1 -1
L 49600 50100 49800 50100 3 0 0 0 -1 -1
P 49700 50100 49700 50300 1 0 1
{
T 49758 50161 5 4 0 1 0 0 1
pinnumber=1
T 49758 50161 5 4 0 0 0 0 1
pinseq=1
T 49758 50161 5 4 0 1 0 0 1
pinlabel=1
T 49758 50161 5 4 0 1 0 0 1
pintype=pwr
}
T 49900 50050 8 10 0 0 0 0 1
net=GND:1
]
N 49700 50300 49800 50300 4
N 49800 50700 49700 50700 4
N 49700 50700 49700 50800 4
C 41200 50000 1 90 0 EMBEDDEDcapacitor-1.sym
[
L 41000 50400 41000 50200 3 0 0 0 -1 -1
L 41000 50700 41000 50500 3 0 0 0 -1 -1
L 40800 50500 41200 50500 3 0 0 0 -1 -1
L 40800 50400 41200 50400 3 0 0 0 -1 -1
P 41000 50900 41000 50700 1 0 0
{
T 41000 50700 5 8 0 1 90 8 1
pintype=pas
T 41000 50700 9 8 0 1 90 6 1
pinlabel=2
T 41050 50750 5 8 0 1 90 2 1
pinseq=2
T 40950 50750 5 8 0 1 90 0 1
pinnumber=2
}
P 41000 50000 41000 50200 1 0 0
{
T 41000 50200 5 8 0 1 90 2 1
pintype=pas
T 41000 50200 9 8 0 1 90 0 1
pinlabel=1
T 41050 50150 5 8 0 1 90 8 1
pinseq=1
T 40950 50150 5 8 0 1 90 6 1
pinnumber=1
}
T 40300 50200 5 10 0 0 90 0 1
symversion=0.1
T 40100 50200 5 10 0 0 90 0 1
numslots=0
T 39900 50200 5 10 0 0 90 0 1
description=capacitor
T 40700 50200 8 10 0 1 90 0 1
refdes=C?
T 40500 50200 5 10 0 0 90 0 1
device=CAPACITOR
]
{
T 40500 50200 5 10 0 0 90 0 1
device=CAPACITOR
T 40950 50550 5 10 1 1 90 0 1
refdes=C1
T 40300 50200 5 10 0 0 90 0 1
symversion=0.1
T 41100 50100 5 10 0 1 0 0 1
footprint=0603_BS_1
T 40950 50350 5 10 1 1 90 6 1
value=10u
}
C 45700 48900 1 0 0 EMBEDDEDcapacitor-1.sym
[
L 46100 49100 45900 49100 3 0 0 0 -1 -1
L 46400 49100 46200 49100 3 0 0 0 -1 -1
L 46200 49300 46200 48900 3 0 0 0 -1 -1
L 46100 49300 46100 48900 3 0 0 0 -1 -1
P 46600 49100 46400 49100 1 0 0
{
T 46450 49150 5 8 0 1 0 0 1
pinnumber=2
T 46450 49050 5 8 0 1 0 2 1
pinseq=2
T 46400 49100 9 8 0 1 0 6 1
pinlabel=2
T 46400 49100 5 8 0 1 0 8 1
pintype=pas
}
P 45700 49100 45900 49100 1 0 0
{
T 45850 49150 5 8 0 1 0 6 1
pinnumber=1
T 45850 49050 5 8 0 1 0 8 1
pinseq=1
T 45900 49100 9 8 0 1 0 0 1
pinlabel=1
T 45900 49100 5 8 0 1 0 2 1
pintype=pas
}
T 45900 49800 5 10 0 0 0 0 1
symversion=0.1
T 45900 50000 5 10 0 0 0 0 1
numslots=0
T 45900 50200 5 10 0 0 0 0 1
description=capacitor
T 45900 49400 8 10 0 1 0 0 1
refdes=C?
T 45900 49600 5 10 0 0 0 0 1
device=CAPACITOR
]
{
T 45900 49600 5 10 0 0 0 0 1
device=CAPACITOR
T 46250 49150 5 10 1 1 0 0 1
refdes=C8
T 45900 49800 5 10 0 0 0 0 1
symversion=0.1
T 45800 49000 5 10 0 1 270 0 1
footprint=0603_BS_1
T 46050 49150 5 10 1 1 0 6 1
value=10u
}
C 46700 46700 1 90 0 EMBEDDEDcapacitor-1.sym
[
P 46500 46700 46500 46900 1 0 0
{
T 46450 46850 5 8 0 1 90 6 1
pinnumber=1
T 46550 46850 5 8 0 1 90 8 1
pinseq=1
T 46500 46900 9 8 0 1 90 0 1
pinlabel=1
T 46500 46900 5 8 0 1 90 2 1
pintype=pas
}
P 46500 47600 46500 47400 1 0 0
{
T 46450 47450 5 8 0 1 90 0 1
pinnumber=2
T 46550 47450 5 8 0 1 90 2 1
pinseq=2
T 46500 47400 9 8 0 1 90 6 1
pinlabel=2
T 46500 47400 5 8 0 1 90 8 1
pintype=pas
}
L 46300 47100 46700 47100 3 0 0 0 -1 -1
L 46300 47200 46700 47200 3 0 0 0 -1 -1
L 46500 47400 46500 47200 3 0 0 0 -1 -1
L 46500 47100 46500 46900 3 0 0 0 -1 -1
T 46000 46900 5 10 0 0 90 0 1
device=CAPACITOR
T 46200 46900 8 10 0 1 90 0 1
refdes=C?
T 45400 46900 5 10 0 0 90 0 1
description=capacitor
T 45600 46900 5 10 0 0 90 0 1
numslots=0
T 45800 46900 5 10 0 0 90 0 1
symversion=0.1
]
{
T 46000 46900 5 10 0 0 90 0 1
device=CAPACITOR
T 46450 47250 5 10 1 1 90 0 1
refdes=C9
T 45800 46900 5 10 0 0 90 0 1
symversion=0.1
T 46600 46800 5 10 0 1 0 0 1
footprint=0603_BS_1
T 46450 47050 5 10 1 1 90 6 1
value=10u
}
C 44400 46500 1 90 0 EMBEDDEDcapacitor-1.sym
[
P 44200 46500 44200 46700 1 0 0
{
T 44150 46650 5 8 0 1 90 6 1
pinnumber=1
T 44250 46650 5 8 0 1 90 8 1
pinseq=1
T 44200 46700 9 8 0 1 90 0 1
pinlabel=1
T 44200 46700 5 8 0 1 90 2 1
pintype=pas
}
P 44200 47400 44200 47200 1 0 0
{
T 44150 47250 5 8 0 1 90 0 1
pinnumber=2
T 44250 47250 5 8 0 1 90 2 1
pinseq=2
T 44200 47200 9 8 0 1 90 6 1
pinlabel=2
T 44200 47200 5 8 0 1 90 8 1
pintype=pas
}
L 44000 46900 44400 46900 3 0 0 0 -1 -1
L 44000 47000 44400 47000 3 0 0 0 -1 -1
L 44200 47200 44200 47000 3 0 0 0 -1 -1
L 44200 46900 44200 46700 3 0 0 0 -1 -1
T 43700 46700 5 10 0 0 90 0 1
device=CAPACITOR
T 43900 46700 8 10 0 1 90 0 1
refdes=C?
T 43100 46700 5 10 0 0 90 0 1
description=capacitor
T 43300 46700 5 10 0 0 90 0 1
numslots=0
T 43500 46700 5 10 0 0 90 0 1
symversion=0.1
]
{
T 43700 46700 5 10 0 0 90 0 1
device=CAPACITOR
T 44150 47050 5 10 1 1 90 0 1
refdes=C5
T 43500 46700 5 10 0 0 90 0 1
symversion=0.1
T 44300 46600 5 10 0 1 0 0 1
footprint=1206_BS_1
T 44150 46850 5 10 1 1 90 6 1
value=47u
}
C 49800 42800 1 90 0 EMBEDDEDcapacitor-1.sym
[
L 49600 43200 49600 43000 3 0 0 0 -1 -1
L 49600 43500 49600 43300 3 0 0 0 -1 -1
L 49400 43300 49800 43300 3 0 0 0 -1 -1
L 49400 43200 49800 43200 3 0 0 0 -1 -1
P 49600 43700 49600 43500 1 0 0
{
T 49600 43500 5 8 0 1 90 8 1
pintype=pas
T 49600 43500 9 8 0 1 90 6 1
pinlabel=2
T 49650 43550 5 8 0 1 90 2 1
pinseq=2
T 49550 43550 5 8 0 1 90 0 1
pinnumber=2
}
P 49600 42800 49600 43000 1 0 0
{
T 49600 43000 5 8 0 1 90 2 1
pintype=pas
T 49600 43000 9 8 0 1 90 0 1
pinlabel=1
T 49650 42950 5 8 0 1 90 8 1
pinseq=1
T 49550 42950 5 8 0 1 90 6 1
pinnumber=1
}
T 48900 43000 5 10 0 0 90 0 1
symversion=0.1
T 48700 43000 5 10 0 0 90 0 1
numslots=0
T 48500 43000 5 10 0 0 90 0 1
description=capacitor
T 49300 43000 8 10 0 1 90 0 1
refdes=C?
T 49100 43000 5 10 0 0 90 0 1
device=CAPACITOR
]
{
T 49100 43000 5 10 0 0 90 0 1
device=CAPACITOR
T 49550 43350 5 10 1 1 90 0 1
refdes=C12
T 48900 43000 5 10 0 0 90 0 1
symversion=0.1
T 49700 42900 5 10 0 1 0 0 1
footprint=1206_BS_1
T 49550 43150 5 10 1 1 90 6 1
value=47u
}
C 54900 45700 1 90 0 EMBEDDEDcapacitor-1.sym
[
P 54700 45700 54700 45900 1 0 0
{
T 54650 45850 5 8 0 1 90 6 1
pinnumber=1
T 54750 45850 5 8 0 1 90 8 1
pinseq=1
T 54700 45900 9 8 0 1 90 0 1
pinlabel=1
T 54700 45900 5 8 0 1 90 2 1
pintype=pas
}
P 54700 46600 54700 46400 1 0 0
{
T 54650 46450 5 8 0 1 90 0 1
pinnumber=2
T 54750 46450 5 8 0 1 90 2 1
pinseq=2
T 54700 46400 9 8 0 1 90 6 1
pinlabel=2
T 54700 46400 5 8 0 1 90 8 1
pintype=pas
}
L 54500 46100 54900 46100 3 0 0 0 -1 -1
L 54500 46200 54900 46200 3 0 0 0 -1 -1
L 54700 46400 54700 46200 3 0 0 0 -1 -1
L 54700 46100 54700 45900 3 0 0 0 -1 -1
T 54200 45900 5 10 0 0 90 0 1
device=CAPACITOR
T 54400 45900 8 10 0 1 90 0 1
refdes=C?
T 53600 45900 5 10 0 0 90 0 1
description=capacitor
T 53800 45900 5 10 0 0 90 0 1
numslots=0
T 54000 45900 5 10 0 0 90 0 1
symversion=0.1
]
{
T 54200 45900 5 10 0 0 90 0 1
device=CAPACITOR
T 54650 46250 5 10 1 1 90 0 1
refdes=C14
T 54000 45900 5 10 0 0 90 0 1
symversion=0.1
T 54800 45800 5 10 0 1 0 0 1
footprint=0603_BS_1
T 54650 46050 5 10 1 1 90 6 1
value=10u
}
N 54700 46700 54700 46600 4
N 54700 45700 54700 45600 4
N 54700 45600 55100 45600 4
C 44400 49500 1 0 0 EMBEDDEDlm324-2.sym
[
T 44600 50400 8 10 0 1 0 0 1
refdes=U?
T 45625 49950 5 10 0 0 0 0 1
slot=1
T 45075 50100 5 10 0 0 0 0 1
slotdef=4:14,13,12
T 45075 50250 5 10 0 0 0 0 1
slotdef=3:8,9,10
T 45075 50400 5 10 0 0 0 0 1
slotdef=2:7,6,5
T 45075 50550 5 10 0 0 0 0 1
slotdef=1:1,2,3
T 45100 50700 5 10 0 0 0 0 1
numslots=4
T 44625 49850 5 8 0 1 0 0 1
device=LM324
L 44650 49700 44750 49700 3 0 0 0 -1 -1
L 44700 50150 44700 50050 3 0 0 0 -1 -1
L 44650 50100 44750 50100 3 0 0 0 -1 -1
P 44900 50100 44900 50300 1 0 1
{
T 44925 50150 5 8 1 1 0 0 1
pinnumber=4
T 44925 50150 5 8 0 0 0 0 1
pinseq=4
}
P 44900 49700 44900 49500 1 0 1
{
T 44925 49550 5 8 1 1 0 0 1
pinnumber=11
T 44925 49550 5 8 0 0 0 0 1
pinseq=11
}
P 45200 49900 45400 49900 1 0 1
{
T 45275 49925 5 8 1 1 0 0 1
pinnumber=1
T 45275 49925 5 8 0 0 0 0 1
pinseq=1
}
P 44600 49700 44400 49700 1 0 1
{
T 44450 49725 5 8 1 1 0 0 1
pinnumber=2
T 44450 49725 5 8 0 0 0 0 1
pinseq=2
}
P 44600 50100 44400 50100 1 0 1
{
T 44450 50125 5 8 1 1 0 0 1
pinnumber=3
T 44450 50125 5 8 0 0 0 0 1
pinseq=3
}
L 45200 49900 44600 49500 3 0 0 0 -1 -1
L 44600 50300 45200 49900 3 0 0 0 -1 -1
L 44600 49500 44600 50300 3 0 0 0 -1 -1
]
{
T 44625 49850 5 6 1 1 0 0 1
device=MCP6004
T 44600 50400 5 10 1 1 0 0 1
refdes=U2
T 45625 49950 5 10 0 0 0 0 1
slot=1
T 44400 49500 5 10 0 0 0 0 1
footprint=SO14
}
C 48000 48900 1 0 0 EMBEDDEDlm324-2.sym
[
T 48200 49800 8 10 0 1 0 0 1
refdes=U?
T 49225 49350 5 10 0 0 0 0 1
slot=1
T 48675 49500 5 10 0 0 0 0 1
slotdef=4:14,13,12
T 48675 49650 5 10 0 0 0 0 1
slotdef=3:8,9,10
T 48675 49800 5 10 0 0 0 0 1
slotdef=2:7,6,5
T 48675 49950 5 10 0 0 0 0 1
slotdef=1:1,2,3
T 48700 50100 5 10 0 0 0 0 1
numslots=4
T 48225 49250 5 8 0 1 0 0 1
device=LM324
L 48250 49100 48350 49100 3 0 0 0 -1 -1
L 48300 49550 48300 49450 3 0 0 0 -1 -1
L 48250 49500 48350 49500 3 0 0 0 -1 -1
P 48500 49500 48500 49700 1 0 1
{
T 48525 49550 5 8 1 1 0 0 1
pinnumber=4
T 48525 49550 5 8 0 0 0 0 1
pinseq=4
}
P 48500 49100 48500 48900 1 0 1
{
T 48525 48950 5 8 1 1 0 0 1
pinnumber=11
T 48525 48950 5 8 0 0 0 0 1
pinseq=11
}
P 48800 49300 49000 49300 1 0 1
{
T 48875 49325 5 8 1 1 0 0 1
pinnumber=7
T 48875 49325 5 8 0 0 0 0 1
pinseq=1
}
P 48200 49100 48000 49100 1 0 1
{
T 48050 49125 5 8 1 1 0 0 1
pinnumber=6
T 48050 49125 5 8 0 0 0 0 1
pinseq=2
}
P 48200 49500 48000 49500 1 0 1
{
T 48050 49525 5 8 1 1 0 0 1
pinnumber=5
T 48050 49525 5 8 0 0 0 0 1
pinseq=3
}
L 48800 49300 48200 48900 3 0 0 0 -1 -1
L 48200 49700 48800 49300 3 0 0 0 -1 -1
L 48200 48900 48200 49700 3 0 0 0 -1 -1
]
{
T 48225 49250 5 6 1 1 0 0 1
device=MCP6004
T 48200 49800 5 10 1 1 0 0 1
refdes=U2
T 49225 49350 5 10 0 0 0 0 1
slot=2
T 48000 48900 5 10 0 0 0 0 1
footprint=SO14
}
C 49800 48700 1 0 0 EMBEDDEDlm324-2.sym
[
T 50000 49600 8 10 0 1 0 0 1
refdes=U?
T 51025 49150 5 10 0 0 0 0 1
slot=1
T 50475 49300 5 10 0 0 0 0 1
slotdef=4:14,13,12
T 50475 49450 5 10 0 0 0 0 1
slotdef=3:8,9,10
T 50475 49600 5 10 0 0 0 0 1
slotdef=2:7,6,5
T 50475 49750 5 10 0 0 0 0 1
slotdef=1:1,2,3
T 50500 49900 5 10 0 0 0 0 1
numslots=4
T 50025 49050 5 8 0 1 0 0 1
device=LM324
L 50050 48900 50150 48900 3 0 0 0 -1 -1
L 50100 49350 50100 49250 3 0 0 0 -1 -1
L 50050 49300 50150 49300 3 0 0 0 -1 -1
P 50300 49300 50300 49500 1 0 1
{
T 50325 49350 5 8 1 1 0 0 1
pinnumber=4
T 50325 49350 5 8 0 0 0 0 1
pinseq=4
}
P 50300 48900 50300 48700 1 0 1
{
T 50325 48750 5 8 1 1 0 0 1
pinnumber=11
T 50325 48750 5 8 0 0 0 0 1
pinseq=11
}
P 50600 49100 50800 49100 1 0 1
{
T 50675 49125 5 8 1 1 0 0 1
pinnumber=8
T 50675 49125 5 8 0 0 0 0 1
pinseq=1
}
P 50000 48900 49800 48900 1 0 1
{
T 49850 48925 5 8 1 1 0 0 1
pinnumber=9
T 49850 48925 5 8 0 0 0 0 1
pinseq=2
}
P 50000 49300 49800 49300 1 0 1
{
T 49850 49325 5 8 1 1 0 0 1
pinnumber=10
T 49850 49325 5 8 0 0 0 0 1
pinseq=3
}
L 50600 49100 50000 48700 3 0 0 0 -1 -1
L 50000 49500 50600 49100 3 0 0 0 -1 -1
L 50000 48700 50000 49500 3 0 0 0 -1 -1
]
{
T 50025 49050 5 6 1 1 0 0 1
device=MCP6004
T 50000 49600 5 10 1 1 0 0 1
refdes=U2
T 51025 49150 5 10 0 0 0 0 1
slot=3
T 49800 48700 5 10 0 0 0 0 1
footprint=SO14
}
C 49800 50100 1 0 0 EMBEDDEDlm324-2.sym
[
T 50000 51000 8 10 0 1 0 0 1
refdes=U?
T 51025 50550 5 10 0 0 0 0 1
slot=1
T 50475 50700 5 10 0 0 0 0 1
slotdef=4:14,13,12
T 50475 50850 5 10 0 0 0 0 1
slotdef=3:8,9,10
T 50475 51000 5 10 0 0 0 0 1
slotdef=2:7,6,5
T 50475 51150 5 10 0 0 0 0 1
slotdef=1:1,2,3
T 50500 51300 5 10 0 0 0 0 1
numslots=4
T 50025 50450 5 8 0 1 0 0 1
device=LM324
L 50050 50300 50150 50300 3 0 0 0 -1 -1
L 50100 50750 50100 50650 3 0 0 0 -1 -1
L 50050 50700 50150 50700 3 0 0 0 -1 -1
P 50300 50700 50300 50900 1 0 1
{
T 50325 50750 5 8 1 1 0 0 1
pinnumber=4
T 50325 50750 5 8 0 0 0 0 1
pinseq=4
}
P 50300 50300 50300 50100 1 0 1
{
T 50325 50150 5 8 1 1 0 0 1
pinnumber=11
T 50325 50150 5 8 0 0 0 0 1
pinseq=11
}
P 50600 50500 50800 50500 1 0 1
{
T 50675 50525 5 8 1 1 0 0 1
pinnumber=14
T 50675 50525 5 8 0 0 0 0 1
pinseq=1
}
P 50000 50300 49800 50300 1 0 1
{
T 49850 50325 5 8 1 1 0 0 1
pinnumber=13
T 49850 50325 5 8 0 0 0 0 1
pinseq=2
}
P 50000 50700 49800 50700 1 0 1
{
T 49850 50725 5 8 1 1 0 0 1
pinnumber=12
T 49850 50725 5 8 0 0 0 0 1
pinseq=3
}
L 50600 50500 50000 50100 3 0 0 0 -1 -1
L 50000 50900 50600 50500 3 0 0 0 -1 -1
L 50000 50100 50000 50900 3 0 0 0 -1 -1
]
{
T 50025 50450 5 6 1 1 0 0 1
device=MCP6004
T 50000 51000 5 10 1 1 0 0 1
refdes=U2
T 51025 50550 5 10 0 0 0 0 1
slot=4
T 49800 50100 5 10 0 0 0 0 1
footprint=SO14
}
C 49500 50800 1 0 0 EMBEDDEDvcc-1.sym
[
T 49950 51000 8 10 0 0 0 0 1
net=Vcc:1
T 49575 51050 9 8 1 0 0 0 1
Vcc
L 49550 51000 49850 51000 3 0 0 0 -1 -1
P 49700 50800 49700 51000 1 0 0
{
T 49750 50850 5 6 0 1 0 0 1
pinnumber=1
T 49750 50850 5 6 0 0 0 0 1
pinseq=1
T 49750 50850 5 6 0 1 0 0 1
pinlabel=1
T 49750 50850 5 6 0 1 0 0 1
pintype=pwr
}
]
C 51100 49500 1 270 0 EMBEDDEDtestpt-1.sym
[
T 51500 49400 8 10 0 1 270 0 1
refdes=TP?
T 52000 49100 8 10 0 0 270 0 1
device=TESTPOINT
T 51800 49100 8 10 0 0 270 0 1
footprint=none
T 52200 49100 8 10 0 0 270 0 1
numslots=0
P 51100 49400 51300 49400 1 0 0
{
T 51100 49400 5 10 0 1 270 0 1
pinlabel=1
T 51100 49400 5 10 0 1 270 0 1
pintype=io
T 51300 49200 5 10 0 0 270 0 1
pinnumber=1
T 51100 49200 5 10 0 0 270 0 1
pinseq=1
}
L 51400 49500 51300 49400 3 0 0 0 -1 -1
L 51300 49400 51400 49300 3 0 0 0 -1 -1
L 51400 49500 51500 49400 3 0 0 0 -1 -1
L 51500 49400 51400 49300 3 0 0 0 -1 -1
]
{
T 51500 49400 5 10 1 1 0 1 1
refdes=TPSENSE
T 52000 49100 5 10 0 0 270 0 1
device=TESTPOINT
T 51800 49100 5 10 0 0 270 0 1
footprint=TESTPOINT_BS_1
}
C 49850 44200 1 270 0 EMBEDDEDtestpt-1.sym
[
T 50250 44100 8 10 0 1 270 0 1
refdes=TP?
T 50750 43800 8 10 0 0 270 0 1
device=TESTPOINT
T 50550 43800 8 10 0 0 270 0 1
footprint=none
T 50950 43800 8 10 0 0 270 0 1
numslots=0
P 49850 44100 50050 44100 1 0 0
{
T 49850 44100 5 10 0 1 270 0 1
pinlabel=1
T 49850 44100 5 10 0 1 270 0 1
pintype=io
T 50050 43900 5 10 0 0 270 0 1
pinnumber=1
T 49850 43900 5 10 0 0 270 0 1
pinseq=1
}
L 50150 44200 50050 44100 3 0 0 0 -1 -1
L 50050 44100 50150 44000 3 0 0 0 -1 -1
L 50150 44200 50250 44100 3 0 0 0 -1 -1
L 50250 44100 50150 44000 3 0 0 0 -1 -1
]
{
T 50250 44100 5 10 1 1 0 1 1
refdes=TPLIGHT
T 50750 43800 5 10 0 0 270 0 1
device=TESTPOINT
T 50550 43800 5 10 0 0 270 0 1
footprint=TESTPOINT_BS_1
}
N 51100 49400 51000 49400 4
N 51000 49400 51000 49100 4
N 49850 44100 49700 44100 4
N 49700 44100 49700 43900 4
C 50000 46600 1 270 0 EMBEDDEDtestpt-1.sym
[
L 50400 46500 50300 46400 3 0 0 0 -1 -1
L 50300 46600 50400 46500 3 0 0 0 -1 -1
L 50200 46500 50300 46400 3 0 0 0 -1 -1
L 50300 46600 50200 46500 3 0 0 0 -1 -1
P 50000 46500 50200 46500 1 0 0
{
T 50000 46500 5 10 0 1 270 0 1
pinlabel=1
T 50000 46500 5 10 0 1 270 0 1
pintype=io
T 50200 46300 5 10 0 0 270 0 1
pinnumber=1
T 50000 46300 5 10 0 0 270 0 1
pinseq=1
}
T 51100 46200 8 10 0 0 270 0 1
numslots=0
T 50700 46200 8 10 0 0 270 0 1
footprint=none
T 50900 46200 8 10 0 0 270 0 1
device=TESTPOINT
T 50400 46500 8 10 0 1 270 0 1
refdes=TP?
]
{
T 50400 46500 5 10 1 1 0 1 1
refdes=TPVCC
T 50900 46200 5 10 0 0 270 0 1
device=TESTPOINT
T 50700 46200 5 10 0 0 270 0 1
footprint=TESTPOINT_BS_1
}
C 50000 46100 1 270 0 EMBEDDEDtestpt-1.sym
[
L 50400 46000 50300 45900 3 0 0 0 -1 -1
L 50300 46100 50400 46000 3 0 0 0 -1 -1
L 50200 46000 50300 45900 3 0 0 0 -1 -1
L 50300 46100 50200 46000 3 0 0 0 -1 -1
P 50000 46000 50200 46000 1 0 0
{
T 50000 46000 5 10 0 1 270 0 1
pinlabel=1
T 50000 46000 5 10 0 1 270 0 1
pintype=io
T 50200 45800 5 10 0 0 270 0 1
pinnumber=1
T 50000 45800 5 10 0 0 270 0 1
pinseq=1
}
T 51100 45700 8 10 0 0 270 0 1
numslots=0
T 50700 45700 8 10 0 0 270 0 1
footprint=none
T 50900 45700 8 10 0 0 270 0 1
device=TESTPOINT
T 50400 46000 8 10 0 1 270 0 1
refdes=TP?
]
{
T 50400 46000 5 10 1 1 0 1 1
refdes=TPGND
T 50900 45700 5 10 0 0 270 0 1
device=TESTPOINT
T 50700 45700 5 10 0 0 270 0 1
footprint=TESTPOINT_BS_1
}
C 49900 45700 1 0 0 EMBEDDEDgnd-1.sym
[
L 49980 45710 50020 45710 3 0 0 0 -1 -1
L 49955 45750 50045 45750 3 0 0 0 -1 -1
L 49900 45800 50100 45800 3 0 0 0 -1 -1
P 50000 45800 50000 46000 1 0 1
{
T 50058 45861 5 4 0 1 0 0 1
pinnumber=1
T 50058 45861 5 4 0 0 0 0 1
pinseq=1
T 50058 45861 5 4 0 1 0 0 1
pinlabel=1
T 50058 45861 5 4 0 1 0 0 1
pintype=pwr
}
T 50200 45750 8 10 0 0 0 0 1
net=GND:1
]
C 49800 46500 1 0 0 EMBEDDEDvcc-1.sym
[
L 49850 46700 50150 46700 3 0 0 0 -1 -1
P 50000 46500 50000 46700 1 0 0
{
T 50050 46550 5 6 0 1 0 0 1
pinnumber=1
T 50050 46550 5 6 0 0 0 0 1
pinseq=1
T 50050 46550 5 6 0 1 0 0 1
pinlabel=1
T 50050 46550 5 6 0 1 0 0 1
pintype=pwr
}
T 50250 46700 8 10 0 0 0 0 1
net=Vcc:1
T 49875 46750 9 8 1 0 0 0 1
Vcc
]
C 48300 43900 1 0 0 EMBEDDEDphoto-transistor-1.sym
[
T 48100 44400 5 6 0 1 0 0 1
device=PS2501-1
P 48500 44300 48500 44200 1 0 0
{
T 48500 44100 3 6 0 1 0 0 1
pinnumber=1
T 48500 44100 3 6 0 0 0 0 1
pinseq=1
T 48137 44300 3 6 0 1 0 0 1
pinlabel=COLLECTOR
T 48500 44100 3 6 0 1 0 0 1
pintype=pas
}
P 48500 44000 48500 43900 1 0 1
{
T 48510 43850 3 6 0 1 0 0 1
pinnumber=2
T 48510 43850 3 6 0 0 0 0 1
pinseq=2
T 48510 43850 3 6 0 1 0 0 1
pinlabel=EMITTER
T 48510 43850 3 6 0 1 0 0 1
pintype=pas
}
L 48360 44100 48320 44110 3 0 0 0 -1 -1
L 48320 44110 48350 44140 3 0 0 0 -1 -1
L 48350 44140 48360 44100 3 0 0 0 -1 -1
L 48360 44030 48320 44040 3 0 0 0 -1 -1
L 48320 44040 48350 44070 3 0 0 0 -1 -1
L 48350 44070 48360 44030 3 0 0 0 -1 -1
L 48400 44200 48400 44000 3 0 0 0 -1 -1
L 48500 44000 48400 44070 3 0 0 0 -1 -1
L 48400 44130 48500 44200 3 0 0 0 -1 -1
L 48340 44120 48300 44160 3 0 0 0 -1 -1
L 48300 44160 48300 44130 3 0 0 0 -1 -1
L 48300 44130 48260 44170 3 0 0 0 -1 -1
L 48340 44050 48300 44090 3 0 0 0 -1 -1
L 48300 44090 48300 44060 3 0 0 0 -1 -1
L 48300 44060 48260 44100 3 0 0 0 -1 -1
L 48500 44000 48470 44040 3 0 0 0 -1 -1
L 48470 44040 48450 44010 3 0 0 0 -1 -1
L 48450 44010 48500 44000 3 0 0 0 -1 -1
T 48560 44000 8 10 0 1 0 0 1
refdes=Q?
T 48260 43900 8 10 0 1 0 0 1
device=photo-transistor
]
{
T 48100 44400 5 6 0 1 0 0 1
device=PS2501-1
T 48560 44000 5 10 1 1 0 0 1
refdes=U1
T 48260 43900 5 10 0 1 0 0 1
device=photo-transistor
T 48300 43900 5 10 0 0 0 0 1
footprint=0805_BS_1
T 47700 43700 5 10 1 1 0 0 1
value=ALS-PT19-315C
}
