v 20110115 2
C 40000 40000 0 0 0 EMBEDDEDtitle-A4.sym
[
T 44100 40700 15 8 1 0 0 0 1
TITLE
T 45800 40100 15 8 1 0 0 0 1
OF
T 44100 40100 15 8 1 0 0 0 1
PAGE
T 47600 40100 15 8 1 0 0 0 1
DRAWN BY: 
T 47600 40400 15 8 1 0 0 0 1
REVISION:
T 44100 40400 15 8 1 0 0 0 1
FILE:
T 66500 41800 5 10 0 0 0 0 1
graphical=1
L 44000 40600 51600 40600 15 0 0 0 -1 -1
B 44000 40000 7600 1400 15 0 0 0 -1 -1 0 -1 -1 -1 -1 -1
L 47500 40600 47500 40000 15 0 0 0 -1 -1
B 40000 40000 11600 8200 15 0 0 0 -1 -1 0 -1 -1 -1 -1 -1
]
C 43400 45100 1 0 0 EMBEDDEDrj45-1.sym
[
T 43400 48200 5 10 0 0 0 0 1
numslots=0
T 43400 47000 8 10 0 1 0 0 1
refdes=CONN?
T 43400 47400 5 10 0 0 0 0 1
documentation=TBD
T 43400 47600 5 10 0 0 0 0 1
description=RJ45 Connector
T 43400 47800 5 10 0 0 0 0 1
footprint=RJ45
T 43850 47350 9 10 1 0 180 0 1
RJ45
T 43400 48000 5 10 0 0 0 0 1
device=RJ45
L 43650 45300 44000 45300 3 0 0 0 -1 -1
V 43600 45300 50 3 0 0 0 -1 -1 0 -1 -1 -1 -1 -1
P 44300 45300 44000 45300 1 0 0
{
T 44100 45350 5 8 1 1 0 0 1
pinnumber=8
T 44100 45350 5 8 0 1 0 0 1
pinseq=8
T 44100 45350 5 8 0 1 0 6 1
pinlabel=I7
T 44100 45350 5 8 0 1 0 8 1
pintype=in
}
L 43850 45500 44000 45500 3 0 0 0 -1 -1
V 43800 45500 50 3 0 0 0 -1 -1 0 -1 -1 -1 -1 -1
P 44300 45500 44000 45500 1 0 0
{
T 44100 45550 5 8 1 1 0 0 1
pinnumber=7
T 44100 45550 5 8 0 1 0 0 1
pinseq=7
T 44100 45550 5 8 0 1 0 6 1
pinlabel=I6
T 44100 45550 5 8 0 1 0 8 1
pintype=in
}
L 43650 45700 44000 45700 3 0 0 0 -1 -1
V 43600 45700 50 3 0 0 0 -1 -1 0 -1 -1 -1 -1 -1
P 44300 45700 44000 45700 1 0 0
{
T 44100 45750 5 8 1 1 0 0 1
pinnumber=6
T 44100 45750 5 8 0 1 0 0 1
pinseq=6
T 44100 45750 5 8 0 1 0 6 1
pinlabel=I5
T 44100 45750 5 8 0 1 0 8 1
pintype=in
}
L 43850 45900 44000 45900 3 0 0 0 -1 -1
V 43800 45900 50 3 0 0 0 -1 -1 0 -1 -1 -1 -1 -1
P 44300 45900 44000 45900 1 0 0
{
T 44100 45950 5 8 1 1 0 0 1
pinnumber=5
T 44100 45950 5 8 0 1 0 0 1
pinseq=5
T 44100 45950 5 8 0 1 0 6 1
pinlabel=I4
T 44100 45950 5 8 0 1 0 8 1
pintype=in
}
L 43650 46100 44000 46100 3 0 0 0 -1 -1
V 43600 46100 50 3 0 0 0 -1 -1 0 -1 -1 -1 -1 -1
P 44300 46100 44000 46100 1 0 0
{
T 44100 46150 5 8 1 1 0 0 1
pinnumber=4
T 44100 46150 5 8 0 1 0 0 1
pinseq=4
T 44100 46150 5 8 0 1 0 6 1
pinlabel=I3
T 44100 46150 5 8 0 1 0 8 1
pintype=in
}
L 43850 46300 44000 46300 3 0 0 0 -1 -1
V 43800 46300 50 3 0 0 0 -1 -1 0 -1 -1 -1 -1 -1
P 44300 46300 44000 46300 1 0 0
{
T 44100 46350 5 8 1 1 0 0 1
pinnumber=3
T 44100 46350 5 8 0 1 0 0 1
pinseq=3
T 44100 46350 5 8 0 1 0 6 1
pinlabel=I2
T 44100 46350 5 8 0 1 0 8 1
pintype=in
}
L 43650 46500 44000 46500 3 0 0 0 -1 -1
V 43600 46500 50 3 0 0 0 -1 -1 0 -1 -1 -1 -1 -1
P 44300 46500 44000 46500 1 0 0
{
T 44100 46550 5 8 1 1 0 0 1
pinnumber=2
T 44100 46550 5 8 0 1 0 0 1
pinseq=2
T 44100 46550 5 8 0 1 0 6 1
pinlabel=I1
T 44100 46550 5 8 0 1 0 8 1
pintype=in
}
L 43850 46700 44000 46700 3 0 0 0 -1 -1
V 43800 46700 50 3 0 0 0 -1 -1 0 -1 -1 -1 -1 -1
P 44300 46700 44000 46700 1 0 0
{
T 44100 46750 5 8 1 1 0 0 1
pinnumber=1
T 44100 46750 5 8 0 1 0 0 1
pinseq=1
T 44100 46750 5 8 0 1 0 6 1
pinlabel=I0
T 44100 46750 5 8 0 1 0 8 1
pintype=in
}
B 43400 45100 600 1800 3 0 0 0 -1 -1 0 -1 -1 -1 -1 -1
]
{
T 43400 48000 5 10 0 0 0 0 1
device=RJ45
T 43400 47000 5 10 1 1 0 0 1
refdes=J1
T 43400 45100 5 10 0 0 0 0 1
footprint=RJHSE5080_BS_1
}
C 47900 45100 1 0 1 EMBEDDEDrj45-1.sym
[
T 47900 48200 5 10 0 0 0 6 1
numslots=0
T 47900 47000 8 10 0 1 0 6 1
refdes=CONN?
T 47900 47400 5 10 0 0 0 6 1
documentation=TBD
T 47900 47600 5 10 0 0 0 6 1
description=RJ45 Connector
T 47900 47800 5 10 0 0 0 6 1
footprint=RJ45
T 47450 47350 9 10 1 0 180 6 1
RJ45
T 47900 48000 5 10 0 0 0 6 1
device=RJ45
L 47650 45300 47300 45300 3 0 0 0 -1 -1
V 47700 45300 50 3 0 0 0 -1 -1 0 -1 -1 -1 -1 -1
P 47000 45300 47300 45300 1 0 0
{
T 47200 45350 5 8 1 1 0 6 1
pinnumber=8
T 47200 45350 5 8 0 1 0 6 1
pinseq=8
T 47200 45350 5 8 0 1 0 0 1
pinlabel=I7
T 47200 45350 5 8 0 1 0 2 1
pintype=in
}
L 47450 45500 47300 45500 3 0 0 0 -1 -1
V 47500 45500 50 3 0 0 0 -1 -1 0 -1 -1 -1 -1 -1
P 47000 45500 47300 45500 1 0 0
{
T 47200 45550 5 8 1 1 0 6 1
pinnumber=7
T 47200 45550 5 8 0 1 0 6 1
pinseq=7
T 47200 45550 5 8 0 1 0 0 1
pinlabel=I6
T 47200 45550 5 8 0 1 0 2 1
pintype=in
}
L 47650 45700 47300 45700 3 0 0 0 -1 -1
V 47700 45700 50 3 0 0 0 -1 -1 0 -1 -1 -1 -1 -1
P 47000 45700 47300 45700 1 0 0
{
T 47200 45750 5 8 1 1 0 6 1
pinnumber=6
T 47200 45750 5 8 0 1 0 6 1
pinseq=6
T 47200 45750 5 8 0 1 0 0 1
pinlabel=I5
T 47200 45750 5 8 0 1 0 2 1
pintype=in
}
L 47450 45900 47300 45900 3 0 0 0 -1 -1
V 47500 45900 50 3 0 0 0 -1 -1 0 -1 -1 -1 -1 -1
P 47000 45900 47300 45900 1 0 0
{
T 47200 45950 5 8 1 1 0 6 1
pinnumber=5
T 47200 45950 5 8 0 1 0 6 1
pinseq=5
T 47200 45950 5 8 0 1 0 0 1
pinlabel=I4
T 47200 45950 5 8 0 1 0 2 1
pintype=in
}
L 47650 46100 47300 46100 3 0 0 0 -1 -1
V 47700 46100 50 3 0 0 0 -1 -1 0 -1 -1 -1 -1 -1
P 47000 46100 47300 46100 1 0 0
{
T 47200 46150 5 8 1 1 0 6 1
pinnumber=4
T 47200 46150 5 8 0 1 0 6 1
pinseq=4
T 47200 46150 5 8 0 1 0 0 1
pinlabel=I3
T 47200 46150 5 8 0 1 0 2 1
pintype=in
}
L 47450 46300 47300 46300 3 0 0 0 -1 -1
V 47500 46300 50 3 0 0 0 -1 -1 0 -1 -1 -1 -1 -1
P 47000 46300 47300 46300 1 0 0
{
T 47200 46350 5 8 1 1 0 6 1
pinnumber=3
T 47200 46350 5 8 0 1 0 6 1
pinseq=3
T 47200 46350 5 8 0 1 0 0 1
pinlabel=I2
T 47200 46350 5 8 0 1 0 2 1
pintype=in
}
L 47650 46500 47300 46500 3 0 0 0 -1 -1
V 47700 46500 50 3 0 0 0 -1 -1 0 -1 -1 -1 -1 -1
P 47000 46500 47300 46500 1 0 0
{
T 47200 46550 5 8 1 1 0 6 1
pinnumber=2
T 47200 46550 5 8 0 1 0 6 1
pinseq=2
T 47200 46550 5 8 0 1 0 0 1
pinlabel=I1
T 47200 46550 5 8 0 1 0 2 1
pintype=in
}
L 47450 46700 47300 46700 3 0 0 0 -1 -1
V 47500 46700 50 3 0 0 0 -1 -1 0 -1 -1 -1 -1 -1
P 47000 46700 47300 46700 1 0 0
{
T 47200 46750 5 8 1 1 0 6 1
pinnumber=1
T 47200 46750 5 8 0 1 0 6 1
pinseq=1
T 47200 46750 5 8 0 1 0 0 1
pinlabel=I0
T 47200 46750 5 8 0 1 0 2 1
pintype=in
}
B 47300 45100 600 1800 3 0 0 0 -1 -1 0 -1 -1 -1 -1 -1
]
{
T 47900 48000 5 10 0 0 0 6 1
device=RJ45
T 47900 47000 5 10 1 1 0 6 1
refdes=J2
T 47900 45100 5 10 0 0 0 0 1
footprint=RJHSE5080_BS_1
}
C 44600 43800 1 0 0 EMBEDDEDpwrjack-1.sym
[
T 44600 44300 8 10 0 1 0 0 1
refdes=CONN?
T 44700 44300 5 10 0 0 0 0 1
device=PWRJACK
B 44600 43800 600 400 3 0 0 0 -1 -1 0 -1 -1 -1 -1 -1
L 44800 44100 45200 44100 3 0 0 0 -1 -1
L 45000 43900 45200 43900 3 0 0 0 -1 -1
L 44900 44000 44800 43900 3 0 0 0 -1 -1
L 45000 43900 44900 44000 3 0 0 0 -1 -1
P 45200 44100 45500 44100 1 0 1
{
T 44650 44050 5 8 1 1 0 0 1
pinnumber=2
T 44650 44050 5 8 0 0 0 0 1
pinseq=2
T 44650 44050 5 8 0 1 0 0 1
pinlabel=2
T 44650 44050 5 8 0 1 0 0 1
pintype=pas
}
P 45200 43900 45500 43900 1 0 1
{
T 44650 43850 5 8 1 1 0 0 1
pinnumber=1
T 44650 43850 5 8 0 0 0 0 1
pinseq=1
T 44650 43850 5 8 0 1 0 0 1
pinlabel=1
T 44650 43850 5 8 0 1 0 0 1
pintype=pas
}
]
{
T 44700 44300 5 10 0 0 0 0 1
device=PWRJACK
T 44600 44300 5 10 1 1 0 0 1
refdes=J3
T 44600 43800 5 10 0 0 0 0 1
footprint=pwrjack_sw_smt_1
}
N 44300 46700 47000 46700 4
N 47000 46500 44300 46500 4
N 44300 46300 47000 46300 4
N 47000 45700 44300 45700 4
N 45600 46100 47000 46100 4
N 45800 45500 47000 45500 4
N 46700 46100 46700 45900 4
N 46700 45900 47000 45900 4
N 46700 45500 46700 45300 4
N 46700 45300 47000 45300 4
N 45500 44100 45600 44100 4
N 45600 43000 45600 46100 4
N 45500 43900 45800 43900 4
N 45800 42600 45800 45500 4
T 48600 40100 9 10 1 0 0 0 1
Vagrearg
T 45000 40100 9 10 1 0 0 0 1
1
T 46500 40100 9 10 1 0 0 0 1
1
T 48600 40400 9 10 1 0 0 0 1
20120131
T 44800 40400 9 10 1 0 0 0 1
CC-BY-SA-3.0
T 45200 40900 9 20 1 0 0 0 1
RJ45 Power Injector
C 44400 45800 1 0 0 EMBEDDEDresistor-2.sym
[
P 45300 45900 45150 45900 1 0 0
{
T 45200 45950 5 8 0 1 0 0 1
pinnumber=2
T 45200 45950 5 8 0 0 0 0 1
pinseq=2
T 45200 45950 5 8 0 1 0 0 1
pinlabel=2
T 45200 45950 5 8 0 1 0 0 1
pintype=pas
}
P 44400 45900 44550 45900 1 0 0
{
T 44500 45950 5 8 0 1 0 0 1
pinnumber=1
T 44500 45950 5 8 0 0 0 0 1
pinseq=1
T 44500 45950 5 8 0 1 0 0 1
pinlabel=1
T 44500 45950 5 8 0 1 0 0 1
pintype=pas
}
B 44550 45800 600 200 3 0 0 0 -1 -1 0 -1 -1 -1 -1 -1
T 44800 46150 5 10 0 0 0 0 1
device=RESISTOR
T 44600 46100 8 10 0 1 0 0 1
refdes=R?
]
{
T 44800 46150 5 10 0 0 0 0 1
device=RESISTOR
T 44600 46100 5 10 1 1 0 0 1
refdes=JP1
T 44400 45800 5 10 0 0 0 0 1
footprint=0603_BS_1
}
N 44300 45900 44400 45900 4
N 44300 46100 45300 46100 4
N 45300 46100 45300 45900 4
N 44400 46100 44400 45900 4
C 44400 45200 1 0 0 EMBEDDEDresistor-2.sym
[
P 45300 45300 45150 45300 1 0 0
{
T 45200 45350 5 8 0 1 0 0 1
pinnumber=2
T 45200 45350 5 8 0 0 0 0 1
pinseq=2
T 45200 45350 5 8 0 1 0 0 1
pinlabel=2
T 45200 45350 5 8 0 1 0 0 1
pintype=pas
}
P 44400 45300 44550 45300 1 0 0
{
T 44500 45350 5 8 0 1 0 0 1
pinnumber=1
T 44500 45350 5 8 0 0 0 0 1
pinseq=1
T 44500 45350 5 8 0 1 0 0 1
pinlabel=1
T 44500 45350 5 8 0 1 0 0 1
pintype=pas
}
B 44550 45200 600 200 3 0 0 0 -1 -1 0 -1 -1 -1 -1 -1
T 44800 45550 5 10 0 0 0 0 1
device=RESISTOR
T 44600 45500 8 10 0 1 0 0 1
refdes=R?
]
{
T 44800 45550 5 10 0 0 0 0 1
device=RESISTOR
T 44600 45500 5 10 1 1 0 0 1
refdes=JP2
T 44400 45200 5 10 0 0 0 0 1
footprint=0603_BS_1
}
N 44300 45300 44400 45300 4
N 44300 45500 45300 45500 4
N 45300 45500 45300 45300 4
N 44400 45500 44400 45300 4
C 45300 42200 1 0 1 EMBEDDEDconnector2-2.sym
[
P 45300 43000 45100 43000 1 0 0
{
T 45100 43050 5 8 0 1 0 0 1
pinnumber=1
T 45100 42950 5 8 0 1 0 2 1
pinseq=1
T 44950 43000 9 8 1 1 0 6 1
pinlabel=1
T 44950 43000 5 8 0 1 0 8 1
pintype=pas
}
V 45050 43000 50 6 0 0 0 -1 -1 0 -1 -1 -1 -1 -1
P 45300 42600 45100 42600 1 0 0
{
T 45100 42650 5 8 0 1 0 0 1
pinnumber=2
T 45100 42550 5 8 0 1 0 2 1
pinseq=2
T 44950 42600 9 8 1 1 0 6 1
pinlabel=2
T 44950 42600 5 8 0 1 0 8 1
pintype=pas
}
V 45050 42600 50 6 0 0 0 -1 -1 0 -1 -1 -1 -1 -1
B 44600 42200 400 1200 3 0 0 0 -1 -1 0 -1 -1 -1 -1 -1
T 44600 43500 8 10 0 1 0 0 1
refdes=CONN?
T 45000 43450 5 10 0 0 0 6 1
device=CONNECTOR_2
T 45000 43650 5 10 0 0 0 6 1
footprint=SIP2N
T 45000 43850 5 10 0 0 0 6 1
author=Leon Kos
T 45000 44050 5 10 0 0 0 6 1
description=generic connector
T 45000 44250 5 10 0 0 0 6 1
numslots=0
]
{
T 44600 43500 5 10 1 1 0 0 1
refdes=J4
T 45000 43450 5 10 0 0 0 6 1
device=CONNECTOR_2
T 45000 43650 5 10 0 0 0 6 1
footprint=TYCO_CONN2
}
N 45300 43000 45600 43000 4
N 45800 42600 45300 42600 4
