v 20110115 2
T 49900 40100 9 10 1 0 0 0 1
1
T 51400 40100 9 10 1 0 0 0 1
1
T 50200 40900 9 20 1 0 0 0 1
504 Segment Clock PSU
T 53700 40400 9 10 1 0 0 0 1
20121129
T 53700 40100 9 10 1 0 0 0 1
Vagrearg
T 49900 40400 9 10 1 0 0 0 1
CC-BY-SA-3.0
C 40000 40000 0 0 0 EMBEDDEDtitle-A3.sym
[
L 48900 40600 56500 40600 15 0 0 0 -1 -1
B 48900 40000 7600 1400 15 0 0 0 -1 -1 0 -1 -1 -1 -1 -1
T 49000 40700 15 8 1 0 0 0 1
TITLE
T 50700 40100 15 8 1 0 0 0 1
OF
T 49000 40100 15 8 1 0 0 0 1
PAGE
T 52500 40100 15 8 1 0 0 0 1
DRAWN BY: 
T 52500 40400 15 8 1 0 0 0 1
REVISION:
T 49000 40400 15 8 1 0 0 0 1
FILE:
L 52400 40600 52400 40000 15 0 0 0 -1 -1
T 66500 41800 5 10 0 0 0 0 1
graphical=1
B 40000 40000 16500 11600 15 0 0 0 -1 -1 0 -1 -1 -1 -1 -1
]
C 45600 47900 1 0 0 EMBEDDEDAP5004-1.sym
[
T 47200 49750 8 10 0 1 0 6 1
refdes=U?
T 45900 49740 8 10 0 1 0 0 1
device=AP5004
T 45900 50250 8 10 0 0 0 0 1
footprint=SO8
T 45900 50450 8 10 0 0 0 0 1
numslots=0
B 45900 47900 1300 1800 3 0 0 0 -1 -1 0 -1 -1 -1 -1 -1
P 47500 49100 47200 49100 1 0 0
{
T 47295 49145 5 8 1 1 0 0 1
pinnumber=4
T 47300 49050 5 8 0 1 0 2 1
pinseq=4
T 47145 49095 9 8 1 1 0 6 1
pinlabel=OUT
T 47150 49100 5 8 0 1 0 8 1
pintype=out
}
P 47500 48700 47200 48700 1 0 0
{
T 47295 48745 5 8 1 1 0 0 1
pinnumber=2
T 47300 48650 5 8 0 1 0 2 1
pinseq=2
T 47145 48695 9 8 1 1 0 6 1
pinlabel=FB
T 47150 48700 5 8 0 1 0 8 1
pintype=io
}
P 47500 48300 47200 48300 1 0 0
{
T 47295 48345 5 8 1 1 0 0 1
pinnumber=7
T 47300 48250 5 8 0 1 0 2 1
pinseq=7
T 47145 48295 9 8 1 1 0 6 1
pinlabel=GND
T 47150 48300 5 8 0 1 0 8 1
pintype=pwr
}
P 45600 48100 45900 48100 1 0 0
{
T 45805 48145 5 8 1 1 0 6 1
pinnumber=1
T 45800 48050 5 8 0 1 0 8 1
pinseq=1
T 45955 48095 9 8 1 1 0 0 1
pinlabel=EN
T 45950 48100 5 8 0 1 0 2 1
pintype=in
}
P 45600 49500 45900 49500 1 0 0
{
T 45805 49545 5 8 1 1 0 6 1
pinnumber=5
T 45800 49450 5 8 0 1 0 8 1
pinseq=5
T 45955 49495 9 8 1 1 0 0 1
pinlabel=Vcc
T 45950 49500 5 8 0 1 0 2 1
pintype=pwr
}
P 47500 49500 47200 49500 1 0 0
{
T 47300 49550 5 8 1 1 0 0 1
pinnumber=3
T 47300 49450 5 8 0 1 0 2 1
pinseq=3
T 47150 49500 9 8 1 1 0 6 1
pinlabel=BOOST
T 47150 49500 5 8 0 1 0 8 1
pintype=pas
}
T 45900 50050 8 10 0 0 0 0 1
description=2.5A Buck Controller
P 45600 49300 45900 49300 1 0 0
{
T 45805 49345 5 8 1 1 0 6 1
pinnumber=6
T 45800 49250 5 8 0 1 0 8 1
pinseq=6
T 45955 49295 9 8 1 1 0 0 1
pinlabel=Vcc
T 45950 49300 5 8 0 1 0 2 1
pintype=pwr
}
P 47500 48100 47200 48100 1 0 0
{
T 47295 48145 5 8 1 1 0 0 1
pinnumber=8
T 47300 48050 5 8 0 1 0 2 1
pinseq=8
T 47145 48095 9 8 1 1 0 6 1
pinlabel=GND
T 47150 48100 5 8 0 1 0 8 1
pintype=pwr
}
]
{
T 47200 49750 5 10 1 1 0 6 1
refdes=U1
T 45900 49740 5 10 1 1 0 0 1
device=AP5004
T 45900 50250 5 10 0 0 0 0 1
footprint=SO8
}
C 47700 49300 1 0 0 EMBEDDEDcapacitor-1.sym
[
T 47900 50000 5 10 0 0 0 0 1
device=CAPACITOR
T 47900 49800 8 10 0 1 0 0 1
refdes=C?
T 47900 50600 5 10 0 0 0 0 1
description=capacitor
T 47900 50400 5 10 0 0 0 0 1
numslots=0
T 47900 50200 5 10 0 0 0 0 1
symversion=0.1
P 47700 49500 47900 49500 1 0 0
{
T 47850 49550 5 8 0 1 0 6 1
pinnumber=1
T 47850 49450 5 8 0 1 0 8 1
pinseq=1
T 47900 49500 9 8 0 1 0 0 1
pinlabel=1
T 47900 49500 5 8 0 1 0 2 1
pintype=pas
}
P 48600 49500 48400 49500 1 0 0
{
T 48450 49550 5 8 0 1 0 0 1
pinnumber=2
T 48450 49450 5 8 0 1 0 2 1
pinseq=2
T 48400 49500 9 8 0 1 0 6 1
pinlabel=2
T 48400 49500 5 8 0 1 0 8 1
pintype=pas
}
L 48100 49700 48100 49300 3 0 0 0 -1 -1
L 48200 49700 48200 49300 3 0 0 0 -1 -1
L 48400 49500 48200 49500 3 0 0 0 -1 -1
L 48100 49500 47900 49500 3 0 0 0 -1 -1
]
{
T 47900 50000 5 10 0 0 0 0 1
device=CAPACITOR
T 48250 49550 5 10 1 1 0 0 1
refdes=C3
T 47900 50200 5 10 0 0 0 0 1
symversion=0.1
T 47800 49400 5 10 0 1 270 0 1
footprint=0603_BS_1
T 48050 49550 5 10 1 1 0 6 1
value=100n
}
C 49000 49100 1 0 0 EMBEDDEDcoil-1.sym
[
T 49200 49700 5 10 0 0 0 0 1
symversion=0.1
T 49200 49900 5 10 0 0 0 0 1
numslots=0
T 49200 50100 5 10 0 0 0 0 1
description=incuctor
T 49200 49300 8 10 0 1 0 0 1
refdes=L?
T 49200 49500 5 10 0 0 0 0 1
device=COIL
A 49700 49100 100 0 180 3 0 0 0 -1 -1
A 49500 49100 100 0 180 3 0 0 0 -1 -1
A 49300 49100 100 0 180 3 0 0 0 -1 -1
P 49800 49100 50000 49100 1 0 1
{
T 49850 49150 5 8 0 1 0 0 1
pinnumber=2
T 49850 49050 5 8 0 1 0 2 1
pinseq=2
T 49750 49100 9 8 0 1 0 6 1
pinlabel=2
T 49750 49100 5 8 0 1 0 8 1
pintype=pas
}
P 49200 49100 49000 49100 1 0 1
{
T 49150 49150 5 8 0 1 0 6 1
pinnumber=1
T 49150 49050 5 8 0 1 0 8 1
pinseq=1
T 49250 49100 9 8 0 1 0 0 1
pinlabel=1
T 49250 49100 5 8 0 1 0 2 1
pintype=pas
}
]
{
T 49200 49500 5 10 0 0 0 0 1
device=COIL
T 49200 48900 5 10 1 1 0 0 1
refdes=L1
T 49200 49700 5 10 0 0 0 0 1
symversion=0.1
T 49000 49100 5 10 0 1 0 0 1
footprint=COILTRONICS_DR125_BS_1
T 49700 48900 5 10 1 1 0 0 1
value=33u
T 49000 49300 5 10 1 1 0 0 1
model=DR125-330-R
}
C 44400 49300 1 270 0 EMBEDDEDcapacitor-4.sym
[
T 45500 49100 5 10 0 0 270 0 1
device=POLARIZED_CAPACITOR
T 44900 49100 8 10 0 1 270 0 1
refdes=C?
T 45700 49100 5 10 0 0 270 0 1
description=polarized capacitor
T 45300 49100 5 10 0 0 270 0 1
numslots=0
T 45100 49100 5 10 0 0 270 0 1
symversion=0.1
P 44600 49300 44600 49100 1 0 0
{
T 44600 49100 5 8 0 1 270 2 1
pintype=pas
T 44600 49100 9 8 0 1 270 0 1
pinlabel=+
T 44550 49150 5 8 0 1 270 8 1
pinseq=1
T 44650 49150 5 8 1 1 270 6 1
pinnumber=1
}
P 44600 48400 44600 48600 1 0 0
{
T 44600 48600 5 8 0 1 270 8 1
pintype=pas
T 44600 48600 9 8 0 1 270 6 1
pinlabel=-
T 44550 48550 5 8 0 1 270 2 1
pinseq=2
T 44650 48550 5 8 1 1 270 0 1
pinnumber=2
}
L 44800 48750 44400 48750 3 0 0 0 -1 -1
L 44600 48600 44600 48750 3 0 0 0 -1 -1
L 44600 48950 44600 49100 3 0 0 0 -1 -1
L 44800 49061 44700 49061 3 0 0 0 -1 -1
L 44749 49010 44749 49110 3 0 0 0 -1 -1
B 44400 48850 400 100 3 0 0 0 -1 -1 0 -1 -1 -1 -1 -1
]
{
T 45500 49100 5 10 0 0 270 0 1
device=POLARIZED_CAPACITOR
T 44400 49000 5 10 1 1 90 2 1
refdes=C1
T 45100 49100 5 10 0 0 270 0 1
symversion=0.1
T 44400 49300 5 10 0 1 0 0 1
footprint=NICHICON_WT_CAP_6p3_5p8
T 44400 48700 5 10 1 1 90 8 1
value=100u
T 44400 49300 5 10 0 1 0 0 1
model=EEHZA1H220P
}
C 51600 48900 1 270 0 EMBEDDEDcapacitor-4.sym
[
T 52700 48700 5 10 0 0 270 0 1
device=POLARIZED_CAPACITOR
T 52100 48700 8 10 0 1 270 0 1
refdes=C?
T 52900 48700 5 10 0 0 270 0 1
description=polarized capacitor
T 52500 48700 5 10 0 0 270 0 1
numslots=0
T 52300 48700 5 10 0 0 270 0 1
symversion=0.1
P 51800 48900 51800 48700 1 0 0
{
T 51800 48700 5 8 0 1 270 2 1
pintype=pas
T 51800 48700 9 8 0 1 270 0 1
pinlabel=+
T 51750 48750 5 8 0 1 270 8 1
pinseq=1
T 51850 48750 5 8 1 1 270 6 1
pinnumber=1
}
P 51800 48000 51800 48200 1 0 0
{
T 51800 48200 5 8 0 1 270 8 1
pintype=pas
T 51800 48200 9 8 0 1 270 6 1
pinlabel=-
T 51750 48150 5 8 0 1 270 2 1
pinseq=2
T 51850 48150 5 8 1 1 270 0 1
pinnumber=2
}
L 52000 48350 51600 48350 3 0 0 0 -1 -1
L 51800 48200 51800 48350 3 0 0 0 -1 -1
L 51800 48550 51800 48700 3 0 0 0 -1 -1
L 52000 48661 51900 48661 3 0 0 0 -1 -1
L 51949 48610 51949 48710 3 0 0 0 -1 -1
B 51600 48450 400 100 3 0 0 0 -1 -1 0 -1 -1 -1 -1 -1
]
{
T 52700 48700 5 10 0 0 270 0 1
device=POLARIZED_CAPACITOR
T 51600 48600 5 10 1 1 90 2 1
refdes=C5
T 52300 48700 5 10 0 0 270 0 1
symversion=0.1
T 51600 48900 5 10 0 1 0 0 1
footprint=NICHICON_WT_CAP_6p3_5p8
T 51600 48300 5 10 1 1 90 8 1
value=100u
T 51600 48900 5 10 0 1 0 0 1
model=EEHZA1H220P
}
C 51300 48000 1 90 0 EMBEDDEDresistor-2.sym
[
T 51000 48200 8 10 0 1 90 0 1
refdes=R?
T 50950 48400 5 10 0 0 90 0 1
device=RESISTOR
B 51100 48150 200 600 3 0 0 0 -1 -1 0 -1 -1 -1 -1 -1
P 51200 48000 51200 48152 1 0 0
{
T 51150 48100 5 8 0 1 90 0 1
pintype=pas
T 51150 48100 5 8 0 1 90 0 1
pinlabel=1
T 51150 48100 5 8 0 0 90 0 1
pinseq=1
T 51150 48100 5 8 0 1 90 0 1
pinnumber=1
}
P 51200 48900 51200 48750 1 0 0
{
T 51150 48800 5 8 0 1 90 0 1
pintype=pas
T 51150 48800 5 8 0 1 90 0 1
pinlabel=2
T 51150 48800 5 8 0 0 90 0 1
pinseq=2
T 51150 48800 5 8 0 1 90 0 1
pinnumber=2
}
]
{
T 50950 48400 5 10 0 0 90 0 1
device=RESISTOR
T 51050 48400 5 10 1 1 90 6 1
refdes=R2
T 51300 48000 5 10 0 0 90 0 1
footprint=0603_BS_1
T 51050 48500 5 10 1 1 90 0 1
value=470
}
C 51300 46900 1 90 0 EMBEDDEDresistor-2.sym
[
T 51000 47100 8 10 0 1 90 0 1
refdes=R?
T 50950 47300 5 10 0 0 90 0 1
device=RESISTOR
B 51100 47050 200 600 3 0 0 0 -1 -1 0 -1 -1 -1 -1 -1
P 51200 46900 51200 47052 1 0 0
{
T 51150 47000 5 8 0 1 90 0 1
pintype=pas
T 51150 47000 5 8 0 1 90 0 1
pinlabel=1
T 51150 47000 5 8 0 0 90 0 1
pinseq=1
T 51150 47000 5 8 0 1 90 0 1
pinnumber=1
}
P 51200 47800 51200 47650 1 0 0
{
T 51150 47700 5 8 0 1 90 0 1
pintype=pas
T 51150 47700 5 8 0 1 90 0 1
pinlabel=2
T 51150 47700 5 8 0 0 90 0 1
pinseq=2
T 51150 47700 5 8 0 1 90 0 1
pinnumber=2
}
]
{
T 50950 47300 5 10 0 0 90 0 1
device=RESISTOR
T 51050 47300 5 10 1 1 90 6 1
refdes=R3
T 51300 46900 5 10 0 0 90 0 1
footprint=0603_BS_1
T 51050 47400 5 10 1 1 90 0 1
value=150
}
C 50700 48000 1 90 0 EMBEDDEDcapacitor-1.sym
[
T 50000 48200 5 10 0 0 90 0 1
device=CAPACITOR
T 50200 48200 8 10 0 1 90 0 1
refdes=C?
T 49400 48200 5 10 0 0 90 0 1
description=capacitor
T 49600 48200 5 10 0 0 90 0 1
numslots=0
T 49800 48200 5 10 0 0 90 0 1
symversion=0.1
P 50500 48000 50500 48200 1 0 0
{
T 50500 48200 5 8 0 1 90 2 1
pintype=pas
T 50500 48200 9 8 0 1 90 0 1
pinlabel=1
T 50550 48150 5 8 0 1 90 8 1
pinseq=1
T 50450 48150 5 8 0 1 90 6 1
pinnumber=1
}
P 50500 48900 50500 48700 1 0 0
{
T 50500 48700 5 8 0 1 90 8 1
pintype=pas
T 50500 48700 9 8 0 1 90 6 1
pinlabel=2
T 50550 48750 5 8 0 1 90 2 1
pinseq=2
T 50450 48750 5 8 0 1 90 0 1
pinnumber=2
}
L 50300 48400 50700 48400 3 0 0 0 -1 -1
L 50300 48500 50700 48500 3 0 0 0 -1 -1
L 50500 48700 50500 48500 3 0 0 0 -1 -1
L 50500 48400 50500 48200 3 0 0 0 -1 -1
]
{
T 50000 48200 5 10 0 0 90 0 1
device=CAPACITOR
T 50450 48550 5 10 1 1 90 0 1
refdes=C4
T 49800 48200 5 10 0 0 90 0 1
symversion=0.1
T 50600 48100 5 10 0 1 0 0 1
footprint=0603_BS_1
T 50450 48350 5 10 1 1 90 6 1
value=100p
}
C 45500 48200 1 90 0 EMBEDDEDresistor-2.sym
[
T 45150 48600 5 10 0 0 90 0 1
device=RESISTOR
T 45200 48400 8 10 0 1 90 0 1
refdes=R?
P 45400 49100 45400 48950 1 0 0
{
T 45350 49000 5 8 0 1 90 0 1
pinnumber=2
T 45350 49000 5 8 0 0 90 0 1
pinseq=2
T 45350 49000 5 8 0 1 90 0 1
pinlabel=2
T 45350 49000 5 8 0 1 90 0 1
pintype=pas
}
P 45400 48200 45400 48352 1 0 0
{
T 45350 48300 5 8 0 1 90 0 1
pinnumber=1
T 45350 48300 5 8 0 0 90 0 1
pinseq=1
T 45350 48300 5 8 0 1 90 0 1
pinlabel=1
T 45350 48300 5 8 0 1 90 0 1
pintype=pas
}
B 45300 48350 200 600 3 0 0 0 -1 -1 0 -1 -1 -1 -1 -1
]
{
T 45150 48600 5 10 0 0 90 0 1
device=RESISTOR
T 45250 48600 5 10 1 1 90 6 1
refdes=R1
T 45500 48200 5 10 0 0 90 0 1
footprint=0603_BS_1
T 45250 48700 5 10 1 1 90 0 1
value=100k
}
C 45600 47100 1 90 0 EMBEDDEDcapacitor-1.sym
[
T 44900 47300 5 10 0 0 90 0 1
device=CAPACITOR
T 45100 47300 8 10 0 1 90 0 1
refdes=C?
T 44300 47300 5 10 0 0 90 0 1
description=capacitor
T 44500 47300 5 10 0 0 90 0 1
numslots=0
T 44700 47300 5 10 0 0 90 0 1
symversion=0.1
P 45400 47100 45400 47300 1 0 0
{
T 45350 47250 5 8 0 1 90 6 1
pinnumber=1
T 45450 47250 5 8 0 1 90 8 1
pinseq=1
T 45400 47300 9 8 0 1 90 0 1
pinlabel=1
T 45400 47300 5 8 0 1 90 2 1
pintype=pas
}
P 45400 48000 45400 47800 1 0 0
{
T 45350 47850 5 8 0 1 90 0 1
pinnumber=2
T 45450 47850 5 8 0 1 90 2 1
pinseq=2
T 45400 47800 9 8 0 1 90 6 1
pinlabel=2
T 45400 47800 5 8 0 1 90 8 1
pintype=pas
}
L 45200 47500 45600 47500 3 0 0 0 -1 -1
L 45200 47600 45600 47600 3 0 0 0 -1 -1
L 45400 47800 45400 47600 3 0 0 0 -1 -1
L 45400 47500 45400 47300 3 0 0 0 -1 -1
]
{
T 44900 47300 5 10 0 0 90 0 1
device=CAPACITOR
T 45350 47650 5 10 1 1 90 0 1
refdes=C2
T 44700 47300 5 10 0 0 90 0 1
symversion=0.1
T 45500 47200 5 10 0 1 0 0 1
footprint=0603_BS_1
T 45350 47450 5 10 1 1 90 6 1
value=100n
}
C 52100 48900 1 270 0 EMBEDDEDcapacitor-4.sym
[
T 52800 48700 5 10 0 0 270 0 1
symversion=0.1
T 53000 48700 5 10 0 0 270 0 1
numslots=0
T 53400 48700 5 10 0 0 270 0 1
description=polarized capacitor
T 52600 48700 8 10 0 1 270 0 1
refdes=C?
T 53200 48700 5 10 0 0 270 0 1
device=POLARIZED_CAPACITOR
B 52100 48450 400 100 3 0 0 0 -1 -1 0 -1 -1 -1 -1 -1
L 52449 48610 52449 48710 3 0 0 0 -1 -1
L 52500 48661 52400 48661 3 0 0 0 -1 -1
L 52300 48550 52300 48700 3 0 0 0 -1 -1
L 52300 48200 52300 48350 3 0 0 0 -1 -1
L 52500 48350 52100 48350 3 0 0 0 -1 -1
P 52300 48000 52300 48200 1 0 0
{
T 52350 48150 5 8 1 1 270 0 1
pinnumber=2
T 52250 48150 5 8 0 1 270 2 1
pinseq=2
T 52300 48200 9 8 0 1 270 6 1
pinlabel=-
T 52300 48200 5 8 0 1 270 8 1
pintype=pas
}
P 52300 48900 52300 48700 1 0 0
{
T 52350 48750 5 8 1 1 270 6 1
pinnumber=1
T 52250 48750 5 8 0 1 270 8 1
pinseq=1
T 52300 48700 9 8 0 1 270 0 1
pinlabel=+
T 52300 48700 5 8 0 1 270 2 1
pintype=pas
}
]
{
T 53200 48700 5 10 0 0 270 0 1
device=POLARIZED_CAPACITOR
T 52100 48600 5 10 1 1 90 2 1
refdes=C6
T 52800 48700 5 10 0 0 270 0 1
symversion=0.1
T 52100 48900 5 10 0 1 0 0 1
footprint=NICHICON_WT_CAP_6p3_5p8
T 52100 48300 5 10 1 1 90 8 1
value=100u
T 52100 48900 5 10 0 1 0 0 1
model=EEHZA1H220P
}
N 45400 48200 45400 48000 4
N 45400 48100 45600 48100 4
N 45600 49500 43900 49500 4
N 44600 49300 44600 49500 4
N 45600 49300 45400 49300 4
N 45400 49100 45400 49500 4
N 47500 49500 47700 49500 4
N 47500 49100 49000 49100 4
N 48900 48900 48900 49100 4
N 48600 49500 48700 49500 4
N 48700 49500 48700 49100 4
N 50000 49100 53000 49100 4
N 52300 49100 52300 48900 4
N 51800 48900 51800 49100 4
N 51200 48900 51200 49100 4
N 50500 48900 50500 49100 4
N 51200 48000 51200 47800 4
N 51200 47900 50500 47900 4
N 50500 47100 50500 48000 4
N 47500 48700 48200 48700 4
N 48200 48700 48200 47100 4
N 48200 47100 50500 47100 4
C 47500 47700 1 0 0 EMBEDDEDgnd-1.sym
[
T 47800 47750 8 10 0 0 0 0 1
net=GND:1
L 47580 47710 47620 47710 3 0 0 0 -1 -1
L 47555 47750 47645 47750 3 0 0 0 -1 -1
L 47500 47800 47700 47800 3 0 0 0 -1 -1
P 47600 47800 47600 48000 1 0 1
{
T 47658 47861 5 4 0 1 0 0 1
pintype=pwr
T 47658 47861 5 4 0 1 0 0 1
pinlabel=1
T 47658 47861 5 4 0 0 0 0 1
pinseq=1
T 47658 47861 5 4 0 1 0 0 1
pinnumber=1
}
]
C 45300 46800 1 0 0 EMBEDDEDgnd-1.sym
[
T 45600 46850 8 10 0 0 0 0 1
net=GND:1
L 45380 46810 45420 46810 3 0 0 0 -1 -1
L 45355 46850 45445 46850 3 0 0 0 -1 -1
L 45300 46900 45500 46900 3 0 0 0 -1 -1
P 45400 46900 45400 47100 1 0 1
{
T 45458 46961 5 4 0 1 0 0 1
pintype=pwr
T 45458 46961 5 4 0 1 0 0 1
pinlabel=1
T 45458 46961 5 4 0 0 0 0 1
pinseq=1
T 45458 46961 5 4 0 1 0 0 1
pinnumber=1
}
]
C 51100 46600 1 0 0 EMBEDDEDgnd-1.sym
[
T 51400 46650 8 10 0 0 0 0 1
net=GND:1
L 51180 46610 51220 46610 3 0 0 0 -1 -1
L 51155 46650 51245 46650 3 0 0 0 -1 -1
L 51100 46700 51300 46700 3 0 0 0 -1 -1
P 51200 46700 51200 46900 1 0 1
{
T 51258 46761 5 4 0 1 0 0 1
pintype=pwr
T 51258 46761 5 4 0 1 0 0 1
pinlabel=1
T 51258 46761 5 4 0 0 0 0 1
pinseq=1
T 51258 46761 5 4 0 1 0 0 1
pinnumber=1
}
]
C 44500 48000 1 0 0 EMBEDDEDgnd-1.sym
[
T 44800 48050 8 10 0 0 0 0 1
net=GND:1
L 44580 48010 44620 48010 3 0 0 0 -1 -1
L 44555 48050 44645 48050 3 0 0 0 -1 -1
L 44500 48100 44700 48100 3 0 0 0 -1 -1
P 44600 48100 44600 48300 1 0 1
{
T 44658 48161 5 4 0 1 0 0 1
pintype=pwr
T 44658 48161 5 4 0 1 0 0 1
pinlabel=1
T 44658 48161 5 4 0 0 0 0 1
pinseq=1
T 44658 48161 5 4 0 1 0 0 1
pinnumber=1
}
]
C 51700 47700 1 0 0 EMBEDDEDgnd-1.sym
[
T 52000 47750 8 10 0 0 0 0 1
net=GND:1
L 51780 47710 51820 47710 3 0 0 0 -1 -1
L 51755 47750 51845 47750 3 0 0 0 -1 -1
L 51700 47800 51900 47800 3 0 0 0 -1 -1
P 51800 47800 51800 48000 1 0 1
{
T 51858 47861 5 4 0 1 0 0 1
pintype=pwr
T 51858 47861 5 4 0 1 0 0 1
pinlabel=1
T 51858 47861 5 4 0 0 0 0 1
pinseq=1
T 51858 47861 5 4 0 1 0 0 1
pinnumber=1
}
]
C 52200 47700 1 0 0 EMBEDDEDgnd-1.sym
[
T 52500 47750 8 10 0 0 0 0 1
net=GND:1
L 52280 47710 52320 47710 3 0 0 0 -1 -1
L 52255 47750 52345 47750 3 0 0 0 -1 -1
L 52200 47800 52400 47800 3 0 0 0 -1 -1
P 52300 47800 52300 48000 1 0 1
{
T 52358 47861 5 4 0 1 0 0 1
pintype=pwr
T 52358 47861 5 4 0 1 0 0 1
pinlabel=1
T 52358 47861 5 4 0 0 0 0 1
pinseq=1
T 52358 47861 5 4 0 1 0 0 1
pinnumber=1
}
]
C 48800 47700 1 0 0 EMBEDDEDgnd-1.sym
[
T 49100 47750 8 10 0 0 0 0 1
net=GND:1
P 48900 47800 48900 48000 1 0 1
{
T 48958 47861 5 4 0 1 0 0 1
pinnumber=1
T 48958 47861 5 4 0 0 0 0 1
pinseq=1
T 48958 47861 5 4 0 1 0 0 1
pinlabel=1
T 48958 47861 5 4 0 1 0 0 1
pintype=pwr
}
L 48800 47800 49000 47800 3 0 0 0 -1 -1
L 48855 47750 48945 47750 3 0 0 0 -1 -1
L 48880 47710 48920 47710 3 0 0 0 -1 -1
]
N 47500 48300 47600 48300 4
N 47600 48300 47600 48000 4
N 47600 48100 47500 48100 4
C 52800 49100 1 0 0 EMBEDDEDvcc-1.sym
[
T 53250 49300 8 10 0 0 0 0 1
net=Vcc:1
T 52875 49350 9 8 1 0 0 0 1
Vcc
L 52850 49300 53150 49300 3 0 0 0 -1 -1
P 53000 49100 53000 49300 1 0 0
{
T 53050 49150 5 6 0 1 0 0 1
pintype=pwr
T 53050 49150 5 6 0 1 0 0 1
pinlabel=1
T 53050 49150 5 6 0 0 0 0 1
pinseq=1
T 53050 49150 5 6 0 1 0 0 1
pinnumber=1
}
]
C 54800 45600 1 0 0 EMBEDDEDgnd-1.sym
[
L 54880 45610 54920 45610 3 0 0 0 -1 -1
L 54855 45650 54945 45650 3 0 0 0 -1 -1
L 54800 45700 55000 45700 3 0 0 0 -1 -1
P 54900 45700 54900 45900 1 0 1
{
T 54958 45761 5 4 0 1 0 0 1
pintype=pwr
T 54958 45761 5 4 0 1 0 0 1
pinlabel=1
T 54958 45761 5 4 0 0 0 0 1
pinseq=1
T 54958 45761 5 4 0 1 0 0 1
pinnumber=1
}
T 55100 45650 8 10 0 0 0 0 1
net=GND:1
]
N 54900 46000 54900 45900 4
N 55000 46000 54900 46000 4
C 54100 46100 1 0 0 EMBEDDEDvcc-1.sym
[
L 54150 46300 54450 46300 3 0 0 0 -1 -1
P 54300 46100 54300 46300 1 0 0
{
T 54350 46150 5 6 0 1 0 0 1
pinnumber=1
T 54350 46150 5 6 0 0 0 0 1
pinseq=1
T 54350 46150 5 6 0 1 0 0 1
pinlabel=1
T 54350 46150 5 6 0 1 0 0 1
pintype=pwr
}
T 54550 46300 8 10 0 0 0 0 1
net=Vcc:1
T 54175 46350 9 8 1 0 0 0 1
Vcc
]
C 41500 46300 1 0 0 EMBEDDEDout-1.sym
[
L 42100 46400 42000 46300 6 0 0 0 -1 -1
L 42100 46400 42000 46500 6 0 0 0 -1 -1
L 41700 46400 42100 46400 6 0 0 0 -1 -1
P 41500 46400 41700 46400 1 0 0
{
T 41650 46450 5 6 0 1 0 0 1
pinnumber=1
T 41650 46450 5 6 0 0 0 0 1
pinseq=1
}
T 41500 46600 8 10 0 1 0 0 1
refdes=pinlabel
T 41500 46600 5 10 0 0 0 0 1
device=OUTPUT
]
{
T 41500 46600 5 10 0 0 0 0 1
device=OUTPUT
T 42150 46400 5 10 1 1 0 1 1
refdes=VIN
T 41500 46300 5 10 0 1 0 0 1
footprint=none
T 41500 46300 5 10 0 0 0 0 1
net=VIN:1
}
C 43300 49400 1 0 0 EMBEDDEDin-1.sym
[
L 43700 49500 43400 49500 6 0 0 0 -1 -1
L 43400 49500 43300 49400 6 0 0 0 -1 -1
L 43400 49500 43300 49600 6 0 0 0 -1 -1
P 43700 49500 43900 49500 1 0 1
{
T 43750 49550 5 6 0 0 0 0 1
pinseq=1
T 43750 49550 5 6 0 1 0 0 1
pinnumber=1
}
T 43300 49700 8 10 0 1 0 0 1
refdes=pinlabel
T 43300 49700 5 10 0 0 0 0 1
device=INPUT
]
{
T 43300 49700 5 10 0 0 0 0 1
device=OUTPUT
T 43250 49500 5 10 1 1 0 7 1
refdes=VIN
T 43300 49400 5 10 0 1 0 6 1
footprint=none
T 43300 49400 5 10 0 0 0 0 1
net=VIN:1
}
C 49100 48000 1 90 0 EMBEDDEDschottky-1.sym
[
A 49100 48550 50 270 180 3 0 0 0 -1 -1
A 48700 48650 50 90 180 3 0 0 0 -1 -1
L 48900 48300 48900 48200 3 0 0 0 -1 -1
L 48900 48700 48900 48600 3 0 0 0 -1 -1
P 48900 48900 48900 48700 1 0 0
{
T 48850 48700 5 8 0 1 90 0 1
pinnumber=1
T 49050 48730 5 8 0 0 90 0 1
pinseq=1
T 48835 48798 5 10 0 1 90 0 1
pintype=pas
T 48962 48931 5 10 0 1 90 0 1
pinlabel=cathode
}
P 48900 48000 48900 48200 1 0 0
{
T 48844 48205 5 8 0 1 90 0 1
pinnumber=2
T 48814 48170 5 8 0 0 180 0 1
pinseq=2
T 49019 47990 5 10 0 1 90 0 1
pintype=pas
T 48812 48075 5 10 0 1 180 0 1
pinlabel=anode
}
L 48700 48600 49100 48600 3 0 0 0 -1 -1
L 48900 48600 49100 48300 3 0 0 0 -1 -1
L 48700 48300 48900 48600 3 0 0 0 -1 -1
L 48700 48300 49100 48300 3 0 0 0 -1 -1
T 48585 48567 8 10 0 0 90 0 1
numslots=0
T 48268 48341 8 10 0 1 90 0 1
footprint=SOD80
T 48600 48300 8 10 0 1 90 0 1
refdes=D?
T 48428 48322 8 10 0 0 90 0 1
device=DIODE
]
{
T 48428 48322 5 10 0 0 90 0 1
device=DIODE
T 48600 48300 5 10 1 1 90 0 1
refdes=D1
T 48268 48341 5 10 0 1 90 0 1
footprint=SMA_BS_1
T 49400 47900 5 10 1 1 90 0 1
value=SK34SMA
}
N 54300 46100 54700 46100 4
N 54700 46100 54700 46400 4
N 54700 46400 55000 46400 4
C 55000 45600 1 0 0 EMBEDDEDconnector10-2.sym
[
B 55300 45600 400 4400 3 0 0 0 -1 -1 0 -1 -1 -1 -1 -1
V 55250 46000 50 6 0 0 0 -1 -1 0 -1 -1 -1 -1 -1
P 55000 46000 55200 46000 1 0 0
{
T 55350 46000 5 8 0 1 0 2 1
pintype=pas
T 55350 46000 9 8 1 1 0 0 1
pinlabel=10
T 55200 45950 5 8 0 1 0 8 1
pinseq=10
T 55200 46050 5 8 0 1 0 6 1
pinnumber=10
}
V 55250 46400 50 6 0 0 0 -1 -1 0 -1 -1 -1 -1 -1
P 55000 46400 55200 46400 1 0 0
{
T 55350 46400 5 8 0 1 0 2 1
pintype=pas
T 55350 46400 9 8 1 1 0 0 1
pinlabel=9
T 55200 46350 5 8 0 1 0 8 1
pinseq=9
T 55200 46450 5 8 0 1 0 6 1
pinnumber=9
}
V 55250 46800 50 6 0 0 0 -1 -1 0 -1 -1 -1 -1 -1
P 55000 46800 55200 46800 1 0 0
{
T 55350 46800 5 8 0 1 0 2 1
pintype=pas
T 55350 46800 9 8 1 1 0 0 1
pinlabel=8
T 55200 46750 5 8 0 1 0 8 1
pinseq=8
T 55200 46850 5 8 0 1 0 6 1
pinnumber=8
}
V 55250 47200 50 6 0 0 0 -1 -1 0 -1 -1 -1 -1 -1
P 55000 47200 55200 47200 1 0 0
{
T 55350 47200 5 8 0 1 0 2 1
pintype=pas
T 55350 47200 9 8 1 1 0 0 1
pinlabel=7
T 55200 47150 5 8 0 1 0 8 1
pinseq=7
T 55200 47250 5 8 0 1 0 6 1
pinnumber=7
}
V 55250 47600 50 6 0 0 0 -1 -1 0 -1 -1 -1 -1 -1
P 55000 47600 55200 47600 1 0 0
{
T 55350 47600 5 8 0 1 0 2 1
pintype=pas
T 55350 47600 9 8 1 1 0 0 1
pinlabel=6
T 55200 47550 5 8 0 1 0 8 1
pinseq=6
T 55200 47650 5 8 0 1 0 6 1
pinnumber=6
}
V 55250 48000 50 6 0 0 0 -1 -1 0 -1 -1 -1 -1 -1
P 55000 48000 55200 48000 1 0 0
{
T 55350 48000 5 8 0 1 0 2 1
pintype=pas
T 55350 48000 9 8 1 1 0 0 1
pinlabel=5
T 55200 47950 5 8 0 1 0 8 1
pinseq=5
T 55200 48050 5 8 0 1 0 6 1
pinnumber=5
}
V 55250 48400 50 6 0 0 0 -1 -1 0 -1 -1 -1 -1 -1
P 55000 48400 55200 48400 1 0 0
{
T 55350 48400 5 8 0 1 0 2 1
pintype=pas
T 55350 48400 9 8 1 1 0 0 1
pinlabel=4
T 55200 48350 5 8 0 1 0 8 1
pinseq=4
T 55200 48450 5 8 0 1 0 6 1
pinnumber=4
}
V 55250 48800 50 6 0 0 0 -1 -1 0 -1 -1 -1 -1 -1
P 55000 48800 55200 48800 1 0 0
{
T 55350 48800 5 8 0 1 0 2 1
pintype=pas
T 55350 48800 9 8 1 1 0 0 1
pinlabel=3
T 55200 48750 5 8 0 1 0 8 1
pinseq=3
T 55200 48850 5 8 0 1 0 6 1
pinnumber=3
}
V 55250 49200 50 6 0 0 0 -1 -1 0 -1 -1 -1 -1 -1
P 55000 49200 55200 49200 1 0 0
{
T 55350 49200 5 8 0 1 0 2 1
pintype=pas
T 55350 49200 9 8 1 1 0 0 1
pinlabel=2
T 55200 49150 5 8 0 1 0 8 1
pinseq=2
T 55200 49250 5 8 0 1 0 6 1
pinnumber=2
}
V 55250 49600 50 6 0 0 0 -1 -1 0 -1 -1 -1 -1 -1
P 55000 49600 55200 49600 1 0 0
{
T 55350 49600 5 8 0 1 0 2 1
pintype=pas
T 55350 49600 9 8 1 1 0 0 1
pinlabel=1
T 55200 49550 5 8 0 1 0 8 1
pinseq=1
T 55200 49650 5 8 0 1 0 6 1
pinnumber=1
}
T 55300 50850 5 10 0 0 0 0 1
numslots=0
T 55300 50650 5 10 0 0 0 0 1
description=generic connector
T 55300 50450 5 10 0 0 0 0 1
author=Leon Kos
T 55300 50250 5 10 0 0 0 0 1
footprint=SIP10N
T 55300 50050 5 10 0 0 0 0 1
device=CONNECTOR_10
T 55700 50100 8 10 0 1 0 6 1
refdes=CONN?
]
{
T 55700 50100 5 10 1 1 0 6 1
refdes=J2
T 55300 50050 5 10 0 0 0 0 1
device=CONNECTOR_10
T 55300 50250 5 10 0 0 0 0 1
footprint=HEADER10_2_R_BS_1
}
C 41500 45600 1 0 1 EMBEDDEDconnector10-2.sym
[
T 41200 50850 5 10 0 0 0 6 1
numslots=0
T 41200 50650 5 10 0 0 0 6 1
description=generic connector
T 41200 50450 5 10 0 0 0 6 1
author=Leon Kos
T 41200 50250 5 10 0 0 0 6 1
footprint=SIP10N
T 41200 50050 5 10 0 0 0 6 1
device=CONNECTOR_10
T 40800 50100 8 10 0 1 0 0 1
refdes=CONN?
B 40800 45600 400 4400 3 0 0 0 -1 -1 0 -1 -1 -1 -1 -1
V 41250 46000 50 6 0 0 0 -1 -1 0 -1 -1 -1 -1 -1
P 41500 46000 41300 46000 1 0 0
{
T 41300 46050 5 8 0 1 0 0 1
pinnumber=10
T 41300 45950 5 8 0 1 0 2 1
pinseq=10
T 41150 46000 9 8 1 1 0 6 1
pinlabel=10
T 41150 46000 5 8 0 1 0 8 1
pintype=pas
}
V 41250 46400 50 6 0 0 0 -1 -1 0 -1 -1 -1 -1 -1
P 41500 46400 41300 46400 1 0 0
{
T 41300 46450 5 8 0 1 0 0 1
pinnumber=9
T 41300 46350 5 8 0 1 0 2 1
pinseq=9
T 41150 46400 9 8 1 1 0 6 1
pinlabel=9
T 41150 46400 5 8 0 1 0 8 1
pintype=pas
}
V 41250 46800 50 6 0 0 0 -1 -1 0 -1 -1 -1 -1 -1
P 41500 46800 41300 46800 1 0 0
{
T 41300 46850 5 8 0 1 0 0 1
pinnumber=8
T 41300 46750 5 8 0 1 0 2 1
pinseq=8
T 41150 46800 9 8 1 1 0 6 1
pinlabel=8
T 41150 46800 5 8 0 1 0 8 1
pintype=pas
}
V 41250 47200 50 6 0 0 0 -1 -1 0 -1 -1 -1 -1 -1
P 41500 47200 41300 47200 1 0 0
{
T 41300 47250 5 8 0 1 0 0 1
pinnumber=7
T 41300 47150 5 8 0 1 0 2 1
pinseq=7
T 41150 47200 9 8 1 1 0 6 1
pinlabel=7
T 41150 47200 5 8 0 1 0 8 1
pintype=pas
}
V 41250 47600 50 6 0 0 0 -1 -1 0 -1 -1 -1 -1 -1
P 41500 47600 41300 47600 1 0 0
{
T 41300 47650 5 8 0 1 0 0 1
pinnumber=6
T 41300 47550 5 8 0 1 0 2 1
pinseq=6
T 41150 47600 9 8 1 1 0 6 1
pinlabel=6
T 41150 47600 5 8 0 1 0 8 1
pintype=pas
}
V 41250 48000 50 6 0 0 0 -1 -1 0 -1 -1 -1 -1 -1
P 41500 48000 41300 48000 1 0 0
{
T 41300 48050 5 8 0 1 0 0 1
pinnumber=5
T 41300 47950 5 8 0 1 0 2 1
pinseq=5
T 41150 48000 9 8 1 1 0 6 1
pinlabel=5
T 41150 48000 5 8 0 1 0 8 1
pintype=pas
}
V 41250 48400 50 6 0 0 0 -1 -1 0 -1 -1 -1 -1 -1
P 41500 48400 41300 48400 1 0 0
{
T 41300 48450 5 8 0 1 0 0 1
pinnumber=4
T 41300 48350 5 8 0 1 0 2 1
pinseq=4
T 41150 48400 9 8 1 1 0 6 1
pinlabel=4
T 41150 48400 5 8 0 1 0 8 1
pintype=pas
}
V 41250 48800 50 6 0 0 0 -1 -1 0 -1 -1 -1 -1 -1
P 41500 48800 41300 48800 1 0 0
{
T 41300 48850 5 8 0 1 0 0 1
pinnumber=3
T 41300 48750 5 8 0 1 0 2 1
pinseq=3
T 41150 48800 9 8 1 1 0 6 1
pinlabel=3
T 41150 48800 5 8 0 1 0 8 1
pintype=pas
}
V 41250 49200 50 6 0 0 0 -1 -1 0 -1 -1 -1 -1 -1
P 41500 49200 41300 49200 1 0 0
{
T 41300 49250 5 8 0 1 0 0 1
pinnumber=2
T 41300 49150 5 8 0 1 0 2 1
pinseq=2
T 41150 49200 9 8 1 1 0 6 1
pinlabel=2
T 41150 49200 5 8 0 1 0 8 1
pintype=pas
}
V 41250 49600 50 6 0 0 0 -1 -1 0 -1 -1 -1 -1 -1
P 41500 49600 41300 49600 1 0 0
{
T 41300 49650 5 8 0 1 0 0 1
pinnumber=1
T 41300 49550 5 8 0 1 0 2 1
pinseq=1
T 41150 49600 9 8 1 1 0 6 1
pinlabel=1
T 41150 49600 5 8 0 1 0 8 1
pintype=pas
}
]
{
T 40800 50100 5 10 1 1 0 0 1
refdes=J1
T 41200 50050 5 10 0 0 0 6 1
device=CONNECTOR_10
T 41200 50250 5 10 0 0 0 6 1
footprint=HEADER_RA_10_2
}
C 41800 45400 1 0 1 EMBEDDEDgnd-1.sym
[
T 41500 45450 8 10 0 0 0 6 1
net=GND:1
L 41720 45410 41680 45410 3 0 0 0 -1 -1
L 41745 45450 41655 45450 3 0 0 0 -1 -1
L 41800 45500 41600 45500 3 0 0 0 -1 -1
P 41700 45500 41700 45700 1 0 1
{
T 41642 45561 5 4 0 1 0 6 1
pinnumber=1
T 41642 45561 5 4 0 0 0 6 1
pinseq=1
T 41642 45561 5 4 0 1 0 6 1
pinlabel=1
T 41642 45561 5 4 0 1 0 6 1
pintype=pwr
}
]
N 41700 46000 41700 45700 4
N 41500 46000 41700 46000 4
C 41500 49100 1 0 0 EMBEDDEDout-1.sym
[
T 41500 49400 5 10 0 0 0 0 1
device=OUTPUT
T 41500 49400 8 10 0 1 0 0 1
refdes=pinlabel
P 41500 49200 41700 49200 1 0 0
{
T 41650 49250 5 6 0 1 0 0 1
pinnumber=1
T 41650 49250 5 6 0 0 0 0 1
pinseq=1
}
L 41700 49200 42100 49200 6 0 0 0 -1 -1
L 42100 49200 42000 49300 6 0 0 0 -1 -1
L 42100 49200 42000 49100 6 0 0 0 -1 -1
]
{
T 41500 49400 5 10 0 0 0 0 1
device=OUTPUT
T 42150 49200 5 10 1 1 0 1 1
refdes=SCK
T 41500 49100 5 10 0 0 0 0 1
net=SCK:1
T 41500 49100 5 10 0 0 0 6 1
footprint=none
}
C 41500 48300 1 0 0 EMBEDDEDout-1.sym
[
T 41500 48600 5 10 0 0 0 0 1
device=OUTPUT
T 41500 48600 8 10 0 1 0 0 1
refdes=pinlabel
P 41500 48400 41700 48400 1 0 0
{
T 41650 48450 5 6 0 1 0 0 1
pinnumber=1
T 41650 48450 5 6 0 0 0 0 1
pinseq=1
}
L 41700 48400 42100 48400 6 0 0 0 -1 -1
L 42100 48400 42000 48500 6 0 0 0 -1 -1
L 42100 48400 42000 48300 6 0 0 0 -1 -1
]
{
T 41500 48600 5 10 0 0 0 0 1
device=OUTPUT
T 42150 48400 5 10 1 1 0 1 1
refdes=SDO
T 41500 48300 5 10 0 0 0 0 1
net=SDO:1
T 41500 48300 5 10 0 0 0 6 1
footprint=none
}
C 41500 47900 1 0 0 EMBEDDEDout-1.sym
[
T 41500 48200 5 10 0 0 0 0 1
device=OUTPUT
T 41500 48200 8 10 0 1 0 0 1
refdes=pinlabel
P 41500 48000 41700 48000 1 0 0
{
T 41650 48050 5 6 0 1 0 0 1
pinnumber=1
T 41650 48050 5 6 0 0 0 0 1
pinseq=1
}
L 41700 48000 42100 48000 6 0 0 0 -1 -1
L 42100 48000 42000 48100 6 0 0 0 -1 -1
L 42100 48000 42000 47900 6 0 0 0 -1 -1
]
{
T 41500 48200 5 10 0 0 0 0 1
device=OUTPUT
T 42150 48000 5 10 1 1 0 1 1
refdes=\_CLR\_
T 41500 47900 5 10 0 0 0 0 1
net=nCLR:1
T 41500 47900 5 10 0 0 0 6 1
footprint=none
}
C 41500 47100 1 0 0 EMBEDDEDout-1.sym
[
T 41500 47400 8 10 0 1 0 0 1
refdes=pinlabel
T 41500 47400 5 10 0 0 0 0 1
device=OUTPUT
L 42100 47200 42000 47100 6 0 0 0 -1 -1
L 42100 47200 42000 47300 6 0 0 0 -1 -1
L 41700 47200 42100 47200 6 0 0 0 -1 -1
P 41500 47200 41700 47200 1 0 0
{
T 41650 47250 5 6 0 0 0 0 1
pinseq=1
T 41650 47250 5 6 0 1 0 0 1
pinnumber=1
}
]
{
T 41500 47400 5 10 0 0 0 0 1
device=OUTPUT
T 42150 47200 5 10 1 1 0 1 1
refdes=\_SS\_
T 41500 47100 5 10 0 0 0 0 1
net=nSS:1
T 41500 47100 5 10 0 0 0 6 1
footprint=none
}
C 41500 46700 1 0 0 EMBEDDEDout-1.sym
[
T 41500 47000 8 10 0 1 0 0 1
refdes=pinlabel
T 41500 47000 5 10 0 0 0 0 1
device=OUTPUT
L 42100 46800 42000 46700 6 0 0 0 -1 -1
L 42100 46800 42000 46900 6 0 0 0 -1 -1
L 41700 46800 42100 46800 6 0 0 0 -1 -1
P 41500 46800 41700 46800 1 0 0
{
T 41650 46850 5 6 0 0 0 0 1
pinseq=1
T 41650 46850 5 6 0 1 0 0 1
pinnumber=1
}
]
{
T 41500 47000 5 10 0 0 0 0 1
device=OUTPUT
T 42150 46800 5 10 1 1 0 1 1
refdes=\_LATCH\_
T 41500 46700 5 10 0 0 0 0 1
net=nLATCH:1
T 41500 46700 5 10 0 0 0 6 1
footprint=none
}
C 42100 47500 1 0 1 EMBEDDEDin-1.sym
[
T 42100 47800 8 10 0 1 0 6 1
refdes=pinlabel
T 42100 47800 5 10 0 0 0 6 1
device=INPUT
L 41700 47600 42000 47600 6 0 0 0 -1 -1
L 42000 47600 42100 47500 6 0 0 0 -1 -1
L 42000 47600 42100 47700 6 0 0 0 -1 -1
P 41700 47600 41500 47600 1 0 1
{
T 41650 47650 5 6 0 1 0 6 1
pinnumber=1
T 41650 47650 5 6 0 0 0 6 1
pinseq=1
}
]
{
T 42100 47800 5 10 0 0 0 6 1
device=INPUT
T 42150 47600 5 10 1 1 0 1 1
refdes=SDI
T 42100 47500 5 10 0 0 0 6 1
net=SDI:1
T 42100 47500 5 10 0 0 0 6 1
footprint=none
}
C 55000 47500 1 0 1 EMBEDDEDout-1.sym
[
L 54400 47600 54500 47500 6 0 0 0 -1 -1
L 54400 47600 54500 47700 6 0 0 0 -1 -1
L 54800 47600 54400 47600 6 0 0 0 -1 -1
P 55000 47600 54800 47600 1 0 0
{
T 54850 47650 5 6 0 1 0 6 1
pinnumber=1
T 54850 47650 5 6 0 0 0 6 1
pinseq=1
}
T 55000 47800 8 10 0 1 0 6 1
refdes=pinlabel
T 55000 47800 5 10 0 0 0 6 1
device=OUTPUT
]
{
T 55000 47800 5 10 0 0 0 6 1
device=OUTPUT
T 54350 47600 5 10 1 1 0 7 1
refdes=SDI
T 55000 47500 5 10 0 0 0 6 1
net=SDI:1
T 55000 47500 5 10 0 0 0 0 1
footprint=none
}
C 54400 48300 1 0 0 EMBEDDEDin-1.sym
[
L 54800 48400 54500 48400 6 0 0 0 -1 -1
L 54500 48400 54400 48300 6 0 0 0 -1 -1
L 54500 48400 54400 48500 6 0 0 0 -1 -1
P 54800 48400 55000 48400 1 0 1
{
T 54850 48450 5 6 0 0 0 0 1
pinseq=1
T 54850 48450 5 6 0 1 0 0 1
pinnumber=1
}
T 54400 48600 8 10 0 1 0 0 1
refdes=pinlabel
T 54400 48600 5 10 0 0 0 0 1
device=INPUT
]
{
T 54400 48600 5 10 0 0 0 0 1
device=INPUT
T 54350 48400 5 10 1 1 0 7 1
refdes=SDO
T 54400 48300 5 10 0 0 0 0 1
net=SDO:1
T 54400 48300 5 10 0 0 0 0 1
footprint=none
}
C 54400 49100 1 0 0 EMBEDDEDin-1.sym
[
L 54800 49200 54500 49200 6 0 0 0 -1 -1
L 54500 49200 54400 49100 6 0 0 0 -1 -1
L 54500 49200 54400 49300 6 0 0 0 -1 -1
P 54800 49200 55000 49200 1 0 1
{
T 54850 49250 5 6 0 0 0 0 1
pinseq=1
T 54850 49250 5 6 0 1 0 0 1
pinnumber=1
}
T 54400 49400 8 10 0 1 0 0 1
refdes=pinlabel
T 54400 49400 5 10 0 0 0 0 1
device=INPUT
]
{
T 54400 49400 5 10 0 0 0 0 1
device=INPUT
T 54350 49200 5 10 1 1 0 7 1
refdes=SCK
T 54400 49100 5 10 0 0 0 0 1
net=SCK:1
T 54400 49100 5 10 0 0 0 0 1
footprint=none
}
C 54400 47100 1 0 0 EMBEDDEDin-1.sym
[
P 54800 47200 55000 47200 1 0 1
{
T 54850 47250 5 6 0 1 0 0 1
pinnumber=1
T 54850 47250 5 6 0 0 0 0 1
pinseq=1
}
L 54500 47200 54400 47300 6 0 0 0 -1 -1
L 54500 47200 54400 47100 6 0 0 0 -1 -1
L 54800 47200 54500 47200 6 0 0 0 -1 -1
T 54400 47400 5 10 0 0 0 0 1
device=INPUT
T 54400 47400 8 10 0 1 0 0 1
refdes=pinlabel
]
{
T 54400 47400 5 10 0 0 0 0 1
device=INPUT
T 54350 47200 5 10 1 1 0 7 1
refdes=\_SS\_
T 54400 47100 5 10 0 0 0 0 1
net=nSS:1
T 54400 47100 5 10 0 0 0 0 1
footprint=none
}
C 54400 46700 1 0 0 EMBEDDEDin-1.sym
[
P 54800 46800 55000 46800 1 0 1
{
T 54850 46850 5 6 0 0 0 0 1
pinseq=1
T 54850 46850 5 6 0 1 0 0 1
pinnumber=1
}
L 54500 46800 54400 46900 6 0 0 0 -1 -1
L 54500 46800 54400 46700 6 0 0 0 -1 -1
L 54800 46800 54500 46800 6 0 0 0 -1 -1
T 54400 47000 5 10 0 0 0 0 1
device=INPUT
T 54400 47000 8 10 0 1 0 0 1
refdes=pinlabel
]
{
T 54400 47000 5 10 0 0 0 0 1
device=INPUT
T 54350 46800 5 10 1 1 0 7 1
refdes=\_LATCH\_
T 54400 46700 5 10 0 0 0 0 1
net=nLATCH:1
T 54400 46700 5 10 0 0 0 0 1
footprint=none
}
C 54400 47900 1 0 0 EMBEDDEDin-1.sym
[
P 54800 48000 55000 48000 1 0 1
{
T 54850 48050 5 6 0 0 0 0 1
pinseq=1
T 54850 48050 5 6 0 1 0 0 1
pinnumber=1
}
L 54500 48000 54400 48100 6 0 0 0 -1 -1
L 54500 48000 54400 47900 6 0 0 0 -1 -1
L 54800 48000 54500 48000 6 0 0 0 -1 -1
T 54400 48200 5 10 0 0 0 0 1
device=INPUT
T 54400 48200 8 10 0 1 0 0 1
refdes=pinlabel
]
{
T 54400 48200 5 10 0 0 0 0 1
device=INPUT
T 54350 48000 5 10 1 1 0 7 1
refdes=\_CLR\_
T 54400 47900 5 10 0 0 0 0 1
net=nCLR:1
T 54400 47900 5 10 0 0 0 0 1
footprint=none
}
C 54400 49500 1 0 0 EMBEDDEDin-1.sym
[
T 54400 49800 8 10 0 1 0 0 1
refdes=pinlabel
T 54400 49800 5 10 0 0 0 0 1
device=INPUT
L 54800 49600 54500 49600 6 0 0 0 -1 -1
L 54500 49600 54400 49500 6 0 0 0 -1 -1
L 54500 49600 54400 49700 6 0 0 0 -1 -1
P 54800 49600 55000 49600 1 0 1
{
T 54850 49650 5 6 0 1 0 0 1
pinnumber=1
T 54850 49650 5 6 0 0 0 0 1
pinseq=1
}
]
{
T 54400 49800 5 10 0 0 0 0 1
device=INPUT
T 54350 49600 5 10 1 1 0 7 1
refdes=PGC
T 54400 49500 5 10 0 0 0 0 1
net=PGC:1
T 54400 49500 5 10 0 0 0 0 1
footprint=none
}
C 54400 48700 1 0 0 EMBEDDEDin-1.sym
[
T 54400 49000 5 10 0 0 0 0 1
device=INPUT
T 54400 49000 8 10 0 1 0 0 1
refdes=pinlabel
P 54800 48800 55000 48800 1 0 1
{
T 54850 48850 5 6 0 0 0 0 1
pinseq=1
T 54850 48850 5 6 0 1 0 0 1
pinnumber=1
}
L 54500 48800 54400 48900 6 0 0 0 -1 -1
L 54500 48800 54400 48700 6 0 0 0 -1 -1
L 54800 48800 54500 48800 6 0 0 0 -1 -1
]
{
T 54400 49000 5 10 0 0 0 0 1
device=INPUT
T 54350 48800 5 10 1 1 0 7 1
refdes=PGD
T 54400 48700 5 10 0 0 0 0 1
net=PGD:1
T 54400 48700 5 10 0 0 0 0 1
footprint=none
}
C 41500 49500 1 0 0 EMBEDDEDout-1.sym
[
L 42100 49600 42000 49500 6 0 0 0 -1 -1
L 42100 49600 42000 49700 6 0 0 0 -1 -1
L 41700 49600 42100 49600 6 0 0 0 -1 -1
P 41500 49600 41700 49600 1 0 0
{
T 41650 49650 5 6 0 1 0 0 1
pinnumber=1
T 41650 49650 5 6 0 0 0 0 1
pinseq=1
}
T 41500 49800 8 10 0 1 0 0 1
refdes=pinlabel
T 41500 49800 5 10 0 0 0 0 1
device=OUTPUT
]
{
T 41500 49800 5 10 0 0 0 0 1
device=OUTPUT
T 42150 49600 5 10 1 1 0 1 1
refdes=PGC
T 41500 49500 5 10 0 0 0 0 1
net=PGC:1
T 41500 49500 5 10 0 0 0 6 1
footprint=none
}
C 41500 48700 1 0 0 EMBEDDEDout-1.sym
[
L 42100 48800 42000 48700 6 0 0 0 -1 -1
L 42100 48800 42000 48900 6 0 0 0 -1 -1
L 41700 48800 42100 48800 6 0 0 0 -1 -1
P 41500 48800 41700 48800 1 0 0
{
T 41650 48850 5 6 0 1 0 0 1
pinnumber=1
T 41650 48850 5 6 0 0 0 0 1
pinseq=1
}
T 41500 49000 8 10 0 1 0 0 1
refdes=pinlabel
T 41500 49000 5 10 0 0 0 0 1
device=OUTPUT
]
{
T 41500 49000 5 10 0 0 0 0 1
device=OUTPUT
T 42150 48800 5 10 1 1 0 1 1
refdes=PGD
T 41500 48700 5 10 0 0 0 0 1
net=PGD:1
T 41500 48700 5 10 0 0 0 6 1
footprint=none
}
C 46300 42200 1 0 0 EMBEDDEDconnector6-2.sym
[
B 46600 42200 400 2800 3 0 0 0 -1 -1 0 -1 -1 -1 -1 -1
V 46550 42600 50 6 0 0 0 -1 -1 0 -1 -1 -1 -1 -1
P 46300 42600 46500 42600 1 0 0
{
T 46500 42650 5 8 0 1 0 6 1
pinnumber=6
T 46500 42550 5 8 0 1 0 8 1
pinseq=6
T 46650 42600 9 8 1 1 0 0 1
pinlabel=6
T 46650 42600 5 8 0 1 0 2 1
pintype=pas
}
V 46550 43000 50 6 0 0 0 -1 -1 0 -1 -1 -1 -1 -1
P 46300 43000 46500 43000 1 0 0
{
T 46500 43050 5 8 0 1 0 6 1
pinnumber=5
T 46500 42950 5 8 0 1 0 8 1
pinseq=5
T 46650 43000 9 8 1 1 0 0 1
pinlabel=5
T 46650 43000 5 8 0 1 0 2 1
pintype=pas
}
V 46550 43400 50 6 0 0 0 -1 -1 0 -1 -1 -1 -1 -1
P 46300 43400 46500 43400 1 0 0
{
T 46500 43450 5 8 0 1 0 6 1
pinnumber=4
T 46500 43350 5 8 0 1 0 8 1
pinseq=4
T 46650 43400 9 8 1 1 0 0 1
pinlabel=4
T 46650 43400 5 8 0 1 0 2 1
pintype=pas
}
V 46550 43800 50 6 0 0 0 -1 -1 0 -1 -1 -1 -1 -1
P 46300 43800 46500 43800 1 0 0
{
T 46500 43850 5 8 0 1 0 6 1
pinnumber=3
T 46500 43750 5 8 0 1 0 8 1
pinseq=3
T 46650 43800 9 8 1 1 0 0 1
pinlabel=3
T 46650 43800 5 8 0 1 0 2 1
pintype=pas
}
V 46550 44200 50 6 0 0 0 -1 -1 0 -1 -1 -1 -1 -1
P 46300 44200 46500 44200 1 0 0
{
T 46500 44250 5 8 0 1 0 6 1
pinnumber=2
T 46500 44150 5 8 0 1 0 8 1
pinseq=2
T 46650 44200 9 8 1 1 0 0 1
pinlabel=2
T 46650 44200 5 8 0 1 0 2 1
pintype=pas
}
V 46550 44600 50 6 0 0 0 -1 -1 0 -1 -1 -1 -1 -1
P 46300 44600 46500 44600 1 0 0
{
T 46500 44650 5 8 0 1 0 6 1
pinnumber=1
T 46500 44550 5 8 0 1 0 8 1
pinseq=1
T 46650 44600 9 8 1 1 0 0 1
pinlabel=1
T 46650 44600 5 8 0 1 0 2 1
pintype=pas
}
T 46600 45850 5 10 0 0 0 0 1
numslots=0
T 46600 45650 5 10 0 0 0 0 1
description=generic connector
T 46600 45450 5 10 0 0 0 0 1
author=Leon Kos
T 46600 45250 5 10 0 0 0 0 1
footprint=SIP6N
T 46600 45050 5 10 0 0 0 0 1
device=CONNECTOR_6
T 47000 45100 8 10 0 1 0 6 1
refdes=CONN?
]
{
T 47000 45100 5 10 1 1 0 6 1
refdes=J3
T 46600 45050 5 10 0 0 0 0 1
device=CONNECTOR_6
T 46600 45250 5 10 0 0 0 0 1
footprint=JUMPER6
T 46300 42200 5 10 0 0 0 0 1
value=Molex-90120-0126
}
C 44900 44400 1 0 1 EMBEDDEDvcc-1.sym
[
L 44850 44600 44550 44600 3 0 0 0 -1 -1
P 44700 44400 44700 44600 1 0 0
{
T 44650 44450 5 6 0 1 0 6 1
pinnumber=1
T 44650 44450 5 6 0 0 0 6 1
pinseq=1
T 44650 44450 5 6 0 1 0 6 1
pinlabel=1
T 44650 44450 5 6 0 1 0 6 1
pintype=pwr
}
T 44450 44600 8 10 0 0 0 6 1
net=Vcc:1
T 44825 44650 9 8 1 0 0 6 1
Vcc
]
C 44800 43300 1 0 1 EMBEDDEDgnd-1.sym
[
P 44700 43400 44700 43600 1 0 1
{
T 44642 43461 5 4 0 1 0 6 1
pinnumber=1
T 44642 43461 5 4 0 0 0 6 1
pinseq=1
T 44642 43461 5 4 0 1 0 6 1
pinlabel=1
T 44642 43461 5 4 0 1 0 6 1
pintype=pwr
}
L 44800 43400 44600 43400 3 0 0 0 -1 -1
L 44745 43350 44655 43350 3 0 0 0 -1 -1
L 44720 43310 44680 43310 3 0 0 0 -1 -1
T 44500 43350 8 10 0 0 0 6 1
net=GND:1
]
N 46300 43800 44700 43800 4
N 44700 43800 44700 43600 4
N 46300 44200 44700 44200 4
N 44700 44200 44700 44400 4
C 46300 43300 1 0 1 EMBEDDEDout-1.sym
[
L 45700 43400 45800 43300 6 0 0 0 -1 -1
L 45700 43400 45800 43500 6 0 0 0 -1 -1
L 46100 43400 45700 43400 6 0 0 0 -1 -1
P 46300 43400 46100 43400 1 0 0
{
T 46150 43450 5 6 0 0 0 6 1
pinseq=1
T 46150 43450 5 6 0 1 0 6 1
pinnumber=1
}
T 46300 43600 8 10 0 1 0 6 1
refdes=pinlabel
T 46300 43600 5 10 0 0 0 6 1
device=OUTPUT
]
{
T 46300 43600 5 10 0 0 0 6 1
device=OUTPUT
T 45650 43400 5 10 1 1 0 7 1
refdes=PGD
T 46300 43300 5 10 0 1 0 6 1
footprint=none
T 46300 43300 5 10 0 0 0 6 1
net=PGD:1
}
C 46300 42900 1 0 1 EMBEDDEDout-1.sym
[
L 45700 43000 45800 42900 6 0 0 0 -1 -1
L 45700 43000 45800 43100 6 0 0 0 -1 -1
L 46100 43000 45700 43000 6 0 0 0 -1 -1
P 46300 43000 46100 43000 1 0 0
{
T 46150 43050 5 6 0 0 0 6 1
pinseq=1
T 46150 43050 5 6 0 1 0 6 1
pinnumber=1
}
T 46300 43200 8 10 0 1 0 6 1
refdes=pinlabel
T 46300 43200 5 10 0 0 0 6 1
device=OUTPUT
]
{
T 46300 43200 5 10 0 0 0 6 1
device=OUTPUT
T 45650 43000 5 10 1 1 0 7 1
refdes=PGC
T 46300 42900 5 10 0 1 0 6 1
footprint=none
T 46300 42900 5 10 0 0 0 6 1
net=PGC:1
}
C 46300 44500 1 0 1 EMBEDDEDout-1.sym
[
P 46300 44600 46100 44600 1 0 0
{
T 46150 44650 5 6 0 1 0 6 1
pinnumber=1
T 46150 44650 5 6 0 0 0 6 1
pinseq=1
}
L 46100 44600 45700 44600 6 0 0 0 -1 -1
L 45700 44600 45800 44700 6 0 0 0 -1 -1
L 45700 44600 45800 44500 6 0 0 0 -1 -1
T 46300 44800 5 10 0 0 0 6 1
device=OUTPUT
T 46300 44800 8 10 0 1 0 6 1
refdes=pinlabel
]
{
T 46300 44800 5 10 0 0 0 6 1
device=OUTPUT
T 45650 44600 5 10 1 1 0 7 1
refdes=\_CLR\_
T 46300 44500 5 10 0 1 0 6 1
footprint=none
T 46300 44500 5 10 0 0 0 6 1
net=nCLR:1
}
C 49700 44500 1 0 0 EMBEDDEDresistor-2.sym
[
B 49850 44500 600 200 3 0 0 0 -1 -1 0 -1 -1 -1 -1 -1
P 49700 44600 49852 44600 1 0 0
{
T 49800 44650 5 8 0 1 0 0 1
pinnumber=1
T 49800 44650 5 8 0 0 0 0 1
pinseq=1
T 49800 44650 5 8 0 1 0 0 1
pinlabel=1
T 49800 44650 5 8 0 1 0 0 1
pintype=pas
}
P 50600 44600 50450 44600 1 0 0
{
T 50500 44650 5 8 0 1 0 0 1
pinnumber=2
T 50500 44650 5 8 0 0 0 0 1
pinseq=2
T 50500 44650 5 8 0 1 0 0 1
pinlabel=2
T 50500 44650 5 8 0 1 0 0 1
pintype=pas
}
T 49900 44800 8 10 0 1 0 0 1
refdes=R?
T 50100 44850 5 10 0 0 0 0 1
device=RESISTOR
]
{
T 50100 44850 5 10 0 0 0 0 1
device=RESISTOR
T 50100 44750 5 10 1 1 0 6 1
refdes=R4
T 49700 44500 5 10 0 0 0 0 1
footprint=0603_BS_1
T 50200 44750 5 10 1 1 0 0 1
value=220k
}
C 49700 43900 1 0 0 EMBEDDEDresistor-2.sym
[
P 50600 44000 50450 44000 1 0 0
{
T 50500 44050 5 8 0 1 0 0 1
pintype=pas
T 50500 44050 5 8 0 1 0 0 1
pinlabel=2
T 50500 44050 5 8 0 0 0 0 1
pinseq=2
T 50500 44050 5 8 0 1 0 0 1
pinnumber=2
}
P 49700 44000 49852 44000 1 0 0
{
T 49800 44050 5 8 0 1 0 0 1
pintype=pas
T 49800 44050 5 8 0 1 0 0 1
pinlabel=1
T 49800 44050 5 8 0 0 0 0 1
pinseq=1
T 49800 44050 5 8 0 1 0 0 1
pinnumber=1
}
B 49850 43900 600 200 3 0 0 0 -1 -1 0 -1 -1 -1 -1 -1
T 50100 44250 5 10 0 0 0 0 1
device=RESISTOR
T 49900 44200 8 10 0 1 0 0 1
refdes=R?
]
{
T 50100 44250 5 10 0 0 0 0 1
device=RESISTOR
T 50100 44150 5 10 1 1 0 6 1
refdes=R5
T 49700 43900 5 10 0 0 0 0 1
footprint=0603_BS_1
T 50200 44150 5 10 1 1 0 0 1
value=220k
}
C 49100 44500 1 0 0 EMBEDDEDin-1.sym
[
L 49500 44600 49200 44600 6 0 0 0 -1 -1
L 49200 44600 49100 44500 6 0 0 0 -1 -1
L 49200 44600 49100 44700 6 0 0 0 -1 -1
P 49500 44600 49700 44600 1 0 1
{
T 49550 44650 5 6 0 0 0 0 1
pinseq=1
T 49550 44650 5 6 0 1 0 0 1
pinnumber=1
}
T 49100 44800 8 10 0 1 0 0 1
refdes=pinlabel
T 49100 44800 5 10 0 0 0 0 1
device=INPUT
]
{
T 49100 44800 5 10 0 0 0 0 1
device=INPUT
T 49050 44600 5 10 1 1 0 7 1
refdes=\_CLR\_
T 49100 44500 5 10 0 0 0 0 1
net=nCLR:1
T 49100 44500 5 10 0 0 0 0 1
footprint=none
}
C 49100 43900 1 0 0 EMBEDDEDin-1.sym
[
L 49500 44000 49200 44000 6 0 0 0 -1 -1
L 49200 44000 49100 43900 6 0 0 0 -1 -1
L 49200 44000 49100 44100 6 0 0 0 -1 -1
P 49500 44000 49700 44000 1 0 1
{
T 49550 44050 5 6 0 1 0 0 1
pinnumber=1
T 49550 44050 5 6 0 0 0 0 1
pinseq=1
}
T 49100 44200 8 10 0 1 0 0 1
refdes=pinlabel
T 49100 44200 5 10 0 0 0 0 1
device=INPUT
]
{
T 49100 44200 5 10 0 0 0 0 1
device=INPUT
T 49050 44000 5 10 1 1 0 7 1
refdes=\_SS\_
T 49100 43900 5 10 0 0 0 0 1
net=nSS:1
T 49100 43900 5 10 0 0 0 0 1
footprint=none
}
C 50800 44800 1 0 0 EMBEDDEDvcc-1.sym
[
P 51000 44800 51000 45000 1 0 0
{
T 51050 44850 5 6 0 1 0 0 1
pintype=pwr
T 51050 44850 5 6 0 1 0 0 1
pinlabel=1
T 51050 44850 5 6 0 0 0 0 1
pinseq=1
T 51050 44850 5 6 0 1 0 0 1
pinnumber=1
}
L 50850 45000 51150 45000 3 0 0 0 -1 -1
T 50875 45050 9 8 1 0 0 0 1
Vcc
T 51250 45000 8 10 0 0 0 0 1
net=Vcc:1
]
N 51000 44800 51000 44000 4
N 50600 44000 51000 44000 4
N 50600 44600 51000 44600 4
C 53100 48000 1 90 0 EMBEDDEDcapacitor-1.sym
[
L 52900 48400 52900 48200 3 0 0 0 -1 -1
L 52900 48700 52900 48500 3 0 0 0 -1 -1
L 52700 48500 53100 48500 3 0 0 0 -1 -1
L 52700 48400 53100 48400 3 0 0 0 -1 -1
P 52900 48900 52900 48700 1 0 0
{
T 52900 48700 5 8 0 1 90 8 1
pintype=pas
T 52900 48700 9 8 0 1 90 6 1
pinlabel=2
T 52950 48750 5 8 0 1 90 2 1
pinseq=2
T 52850 48750 5 8 0 1 90 0 1
pinnumber=2
}
P 52900 48000 52900 48200 1 0 0
{
T 52900 48200 5 8 0 1 90 2 1
pintype=pas
T 52900 48200 9 8 0 1 90 0 1
pinlabel=1
T 52950 48150 5 8 0 1 90 8 1
pinseq=1
T 52850 48150 5 8 0 1 90 6 1
pinnumber=1
}
T 52200 48200 5 10 0 0 90 0 1
symversion=0.1
T 52000 48200 5 10 0 0 90 0 1
numslots=0
T 51800 48200 5 10 0 0 90 0 1
description=capacitor
T 52600 48200 8 10 0 1 90 0 1
refdes=C?
T 52400 48200 5 10 0 0 90 0 1
device=CAPACITOR
]
{
T 52400 48200 5 10 0 0 90 0 1
device=CAPACITOR
T 52850 48550 5 10 1 1 90 0 1
refdes=C7
T 52200 48200 5 10 0 0 90 0 1
symversion=0.1
T 53000 48100 5 10 0 1 0 0 1
footprint=1206_BS_1
T 52850 48350 5 10 1 1 90 6 1
value=10u
}
N 52900 48900 52900 49100 4
C 52800 47700 1 0 0 EMBEDDEDgnd-1.sym
[
P 52900 47800 52900 48000 1 0 1
{
T 52958 47861 5 4 0 1 0 0 1
pintype=pwr
T 52958 47861 5 4 0 1 0 0 1
pinlabel=1
T 52958 47861 5 4 0 0 0 0 1
pinseq=1
T 52958 47861 5 4 0 1 0 0 1
pinnumber=1
}
L 52800 47800 53000 47800 3 0 0 0 -1 -1
L 52855 47750 52945 47750 3 0 0 0 -1 -1
L 52880 47710 52920 47710 3 0 0 0 -1 -1
T 53100 47750 8 10 0 0 0 0 1
net=GND:1
]
C 44200 48400 1 90 0 EMBEDDEDcapacitor-1.sym
[
P 44000 48400 44000 48600 1 0 0
{
T 43950 48550 5 8 0 1 90 6 1
pinnumber=1
T 44050 48550 5 8 0 1 90 8 1
pinseq=1
T 44000 48600 9 8 0 1 90 0 1
pinlabel=1
T 44000 48600 5 8 0 1 90 2 1
pintype=pas
}
P 44000 49300 44000 49100 1 0 0
{
T 43950 49150 5 8 0 1 90 0 1
pinnumber=2
T 44050 49150 5 8 0 1 90 2 1
pinseq=2
T 44000 49100 9 8 0 1 90 6 1
pinlabel=2
T 44000 49100 5 8 0 1 90 8 1
pintype=pas
}
L 43800 48800 44200 48800 3 0 0 0 -1 -1
L 43800 48900 44200 48900 3 0 0 0 -1 -1
L 44000 49100 44000 48900 3 0 0 0 -1 -1
L 44000 48800 44000 48600 3 0 0 0 -1 -1
T 43500 48600 5 10 0 0 90 0 1
device=CAPACITOR
T 43700 48600 8 10 0 1 90 0 1
refdes=C?
T 42900 48600 5 10 0 0 90 0 1
description=capacitor
T 43100 48600 5 10 0 0 90 0 1
numslots=0
T 43300 48600 5 10 0 0 90 0 1
symversion=0.1
]
{
T 43500 48600 5 10 0 0 90 0 1
device=CAPACITOR
T 43950 48950 5 10 1 1 90 0 1
refdes=C8
T 43300 48600 5 10 0 0 90 0 1
symversion=0.1
T 44100 48500 5 10 0 1 0 0 1
footprint=1206_BS_1
T 43950 48750 5 10 1 1 90 6 1
value=10u/25
}
C 43900 48000 1 0 0 EMBEDDEDgnd-1.sym
[
P 44000 48100 44000 48300 1 0 1
{
T 44058 48161 5 4 0 1 0 0 1
pintype=pwr
T 44058 48161 5 4 0 1 0 0 1
pinlabel=1
T 44058 48161 5 4 0 0 0 0 1
pinseq=1
T 44058 48161 5 4 0 1 0 0 1
pinnumber=1
}
L 43900 48100 44100 48100 3 0 0 0 -1 -1
L 43955 48050 44045 48050 3 0 0 0 -1 -1
L 43980 48010 44020 48010 3 0 0 0 -1 -1
T 44200 48050 8 10 0 0 0 0 1
net=GND:1
]
N 44000 49300 44000 49500 4
N 44000 48300 44000 48400 4
N 44600 48300 44600 48400 4
